[contents]
count=6
Name=,C:\Zhenchen\Ammox test 2021\0525\0525-4.5.D
1=,INT EIC Ion  17.00 (16.70 to 17.70): 0525-4.5.D\data.ms
2=,INT EIC Ion  32.00 (31.70 to 32.70): 0525-4.5.D\data.ms
3=,INT EIC Ion  28.00 (27.70 to 28.70): 0525-4.5.D\data.ms
4=,INT EIC Ion  44.00 (43.70 to 44.70): 0525-4.5.D\data.ms
5=,INT EIC Ion  30.00 (29.70 to 30.70): 0525-4.5.D\data.ms
6=,INT EIC Ion  40.00 (39.70 to 40.70): 0525-4.5.D\data.ms
[INT EIC Ion  17.00 (16.70 to 17.70): 0525-4.5.D\data.ms]
Time=,Tue May 25 15:56:35 2021
Header=,"Peak","R.T.","First","Max","Last","PK  TY","Height","Area","Pct Max","Pct Total"
1=,  1,  1.985, 2310,2346,2403,"  M3",  60479,   854092,100.00,100.000
[INT EIC Ion  32.00 (31.70 to 32.70): 0525-4.5.D\data.ms]
Time=,Tue May 25 15:56:35 2021
Header=,"Peak","R.T.","First","Max","Last","PK  TY","Height","Area","Pct Max","Pct Total"
1=,  1,  1.894, 2200,2234,2297,"  M3", 202924,  2532283,100.00,100.000
[INT EIC Ion  28.00 (27.70 to 28.70): 0525-4.5.D\data.ms]
Time=,Tue May 25 15:56:35 2021
Header=,"Peak","R.T.","First","Max","Last","PK  TY","Height","Area","Pct Max","Pct Total"
1=,  1,  1.886, 2193,2223,2272,"  M3",  37404,   446828,100.00,100.000
[INT EIC Ion  44.00 (43.70 to 44.70): 0525-4.5.D\data.ms]
Time=,Tue May 25 15:56:35 2021
Header=,"Peak","R.T.","First","Max","Last","PK  TY","Height","Area","Pct Max","Pct Total"
1=,  1,  1.967, 2286,2324,2423,"  M3", 266406,  3211710,100.00,100.000
[INT EIC Ion  30.00 (29.70 to 30.70): 0525-4.5.D\data.ms]
Time=,Tue May 25 15:56:35 2021
Header=,"Peak","R.T.","First","Max","Last","PK  TY","Height","Area","Pct Max","Pct Total"
1=,  1,  1.896, 2190,2235,2291,"  M3",  85562,  1059414,100.00,100.000
[INT EIC Ion  40.00 (39.70 to 40.70): 0525-4.5.D\data.ms]
Time=,Tue May 25 15:56:35 2021
Header=,"Peak","R.T.","First","Max","Last","PK  TY","Height","Area","Pct Max","Pct Total"
1=,  1,  1.896, 2197,2236,2341,"  M4", 527115,  6616450,100.00,100.000
