,0.5,1,1.5,2,2.5,3,3.5,4,4.5,5,5.5,6
NH3,1775380.0,1812325.0,1663313.0,1601429.0,1083722.0,1139707.0,628177.0,629930.0,337777.0,359115.0,208465.0,19463.0
O2,4868772.0,4953485.0,4774970.0,4551242.0,3411867.0,3325532.0,2099434.0,2050566.0,1222594.0,1243920.0,750524.0,860442.0
N2,41390.0,34025.0,82948.0,0.0,168746.0,153647.0,216110.0,212087.0,320932.0,305143.0,443410.0,113964.0
N2O,13658.0,14763.0,149717.0,142534.0,996070.0,990533.0,1771787.0,1742322.0,2011786.0,1934257.0,1729718.0,337367.0
NO,0.0,0.0,75.0,90.0,16999.0,16089.0,159883.0,159537.0,617479.0,545447.0,1298397.0,313669.0
Ar,3832211.0,3899620.0,3935915.0,3776230.0,3896150.0,3801332.0,3859344.0,3780925.0,3909221.0,3761649.0,3893546.0,4106936.0
