[contents]
count=6
Name=,C:\Zhenchen\Ammox test 2021\0413\0413-7.D
1=,INT EIC Ion  17.00 (16.70 to 17.70): 0413-7.D\data.ms
2=,INT EIC Ion  32.00 (31.70 to 32.70): 0413-7.D\data.ms
3=,INT EIC Ion  28.00 (27.70 to 28.70): 0413-7.D\data.ms
4=,INT EIC Ion  44.00 (43.70 to 44.70): 0413-7.D\data.ms
5=,INT EIC Ion  30.00 (29.70 to 30.70): 0413-7.D\data.ms
6=,INT EIC Ion  40.00 (39.70 to 40.70): 0413-7.D\data.ms
[INT EIC Ion  17.00 (16.70 to 17.70): 0413-7.D\data.ms]
Time=,Tue Apr 13 19:50:38 2021
Header=,"Peak","R.T.","First","Max","Last","PK  TY","Height","Area","Pct Max","Pct Total"
1=,  1,  1.985, 2304,2346,2422,"  M2", 224577,  3142650,100.00,100.000
[INT EIC Ion  32.00 (31.70 to 32.70): 0413-7.D\data.ms]
Time=,Tue Apr 13 19:50:38 2021
Header=,"Peak","R.T.","First","Max","Last","PK  TY","Height","Area","Pct Max","Pct Total"
1=,  1,  1.893, 2186,2232,2336,"  M2", 638275,  8009094,100.00,100.000
[INT EIC Ion  28.00 (27.70 to 28.70): 0413-7.D\data.ms]
Time=,Tue Apr 13 19:50:38 2021
Header=,"Peak","R.T.","First","Max","Last","PK  TY","Height","Area","Pct Max","Pct Total"
1=,  1,  1.884, 2185,2221,2269,"  M2",  10995,   120850,100.00,100.000
[INT EIC Ion  44.00 (43.70 to 44.70): 0413-7.D\data.ms]
Time=,Tue Apr 13 19:50:38 2021
Header=,"Peak","R.T.","First","Max","Last","PK  TY","Height","Area","Pct Max","Pct Total"
1=,  1,  1.965, 2284,2321,2377,"  M2",  16960,   194180,100.00,100.000
[INT EIC Ion  30.00 (29.70 to 30.70): 0413-7.D\data.ms]
Time=,Tue Apr 13 19:50:38 2021
Header=,"Peak","R.T.","First","Max","Last","PK  TY","Height","Area","Pct Max","Pct Total"
1=,  1,  1.896, 2218,2235,2252,"  M2",    486,     3271,100.00,100.000
[INT EIC Ion  40.00 (39.70 to 40.70): 0413-7.D\data.ms]
Time=,Tue Apr 13 19:50:38 2021
Header=,"Peak","R.T.","First","Max","Last","PK  TY","Height","Area","Pct Max","Pct Total"
1=,  1,  1.896, 2192,2236,2341,"  M2", 553337,  6946220,100.00,100.000
