[contents]
count=6
Name=,C:\Zhenchen\Ammox test 2021\0518\0518-1-3.5.D
1=,INT EIC Ion  17.00 (16.70 to 17.70): 0518-1-3.5.D\data.ms
2=,INT EIC Ion  32.00 (31.70 to 32.70): 0518-1-3.5.D\data.ms
3=,INT EIC Ion  28.00 (27.70 to 28.70): 0518-1-3.5.D\data.ms
4=,INT EIC Ion  44.00 (43.70 to 44.70): 0518-1-3.5.D\data.ms
5=,INT EIC Ion  30.00 (29.70 to 30.70): 0518-1-3.5.D\data.ms
6=,INT EIC Ion  40.00 (39.70 to 40.70): 0518-1-3.5.D\data.ms
[INT EIC Ion  17.00 (16.70 to 17.70): 0518-1-3.5.D\data.ms]
Time=,Tue May 25 15:41:10 2021
Header=,"Peak","R.T.","First","Max","Last","PK  TY","Height","Area","Pct Max","Pct Total"
1=,  1,  1.988, 2314,2349,2408,"  M3",  45010,   628177,100.00,100.000
[INT EIC Ion  32.00 (31.70 to 32.70): 0518-1-3.5.D\data.ms]
Time=,Tue May 25 15:41:10 2021
Header=,"Peak","R.T.","First","Max","Last","PK  TY","Height","Area","Pct Max","Pct Total"
1=,  1,  1.895, 2197,2234,2314,"  M2", 166812,  2099434,100.00,100.000
[INT EIC Ion  28.00 (27.70 to 28.70): 0518-1-3.5.D\data.ms]
Time=,Tue May 25 15:41:10 2021
Header=,"Peak","R.T.","First","Max","Last","PK  TY","Height","Area","Pct Max","Pct Total"
1=,  1,  1.887, 2197,2224,2267,"  M2",  18281,   216110,100.00,100.000
[INT EIC Ion  44.00 (43.70 to 44.70): 0518-1-3.5.D\data.ms]
Time=,Tue May 25 15:41:10 2021
Header=,"Peak","R.T.","First","Max","Last","PK  TY","Height","Area","Pct Max","Pct Total"
1=,  1,  1.967, 2287,2324,2412,"  M3", 149354,  1771787,100.00,100.000
[INT EIC Ion  30.00 (29.70 to 30.70): 0518-1-3.5.D\data.ms]
Time=,Tue May 25 15:41:10 2021
Header=,"Peak","R.T.","First","Max","Last","PK  TY","Height","Area","Pct Max","Pct Total"
1=,  1,  1.896, 2203,2236,2286,"  M2",  13619,   159883,100.00,100.000
[INT EIC Ion  40.00 (39.70 to 40.70): 0518-1-3.5.D\data.ms]
Time=,Tue May 25 15:41:10 2021
Header=,"Peak","R.T.","First","Max","Last","PK  TY","Height","Area","Pct Max","Pct Total"
1=,  1,  1.898, 2198,2238,2333,"  M3", 312601,  3859344,100.00,100.000
