[contents]
count=6
Name=,C:\Zhenchen\Ammox test 2021\0525\0525-1.D
1=,INT EIC Ion  17.00 (16.70 to 17.70): 0525-1.D\data.ms
2=,INT EIC Ion  32.00 (31.70 to 32.70): 0525-1.D\data.ms
3=,INT EIC Ion  28.00 (27.70 to 28.70): 0525-1.D\data.ms
4=,INT EIC Ion  44.00 (43.70 to 44.70): 0525-1.D\data.ms
5=,INT EIC Ion  30.00 (29.70 to 30.70): 0525-1.D\data.ms
6=,INT EIC Ion  40.00 (39.70 to 40.70): 0525-1.D\data.ms
[INT EIC Ion  17.00 (16.70 to 17.70): 0525-1.D\data.ms]
Time=,Tue May 25 15:53:11 2021
Header=,"Peak","R.T.","First","Max","Last","PK  TY","Height","Area","Pct Max","Pct Total"
1=,  1,  1.986, 2305,2347,2475,"  M2", 230828,  3414538,100.00,100.000
[INT EIC Ion  32.00 (31.70 to 32.70): 0525-1.D\data.ms]
Time=,Tue May 25 15:53:11 2021
Header=,"Peak","R.T.","First","Max","Last","PK  TY","Height","Area","Pct Max","Pct Total"
1=,  1,  1.894, 2196,2233,2330,"  M2", 681218,  8571914,100.00,100.000
[INT EIC Ion  28.00 (27.70 to 28.70): 0525-1.D\data.ms]
Time=,Tue May 25 15:53:11 2021
Header=,"Peak","R.T.","First","Max","Last","PK  TY","Height","Area","Pct Max","Pct Total"
1=,  1,  1.888, 2201,2226,2259,"  M2",   4060,    49894,100.00,100.000
[INT EIC Ion  44.00 (43.70 to 44.70): 0525-1.D\data.ms]
Time=,Tue May 25 15:53:11 2021
Header=,"Peak","R.T.","First","Max","Last","PK  TY","Height","Area","Pct Max","Pct Total"
1=,  1,  1.968, 2304,2325,2347,"  M4",    969,     9169,100.00,100.000
[INT EIC Ion  30.00 (29.70 to 30.70): 0525-1.D\data.ms]
Time=,Tue May 25 15:53:11 2021
Header=,"Peak","R.T.","First","Max","Last","PK  TY","Height","Area","Pct Max","Pct Total"
[INT EIC Ion  40.00 (39.70 to 40.70): 0525-1.D\data.ms]
Time=,Tue May 25 15:53:11 2021
Header=,"Peak","R.T.","First","Max","Last","PK  TY","Height","Area","Pct Max","Pct Total"
1=,  1,  1.897, 2196,2237,2337,"  M2", 527169,  6688812,100.00,100.000
