C:\MSDCHEM\1\METHODS\DEFAULT\DEFAULT.597X.M\Audit.txt 
Created Tue Nov 24 12:02:08 2020


 Modified : Tue Nov 24 12:02:08 2020
 Event    : Save Method
 Message  : Save Method to C:\MSDCHEM\1\METHODS\Installation.M
 Why      : Instrument Control method save
 Severity : 1


 Modified : Tue Nov 24 12:04:52 2020
 Event    : Save Method
 Message  : Save Method to C:\MSDCHEM\1\METHODS\Installation.M
 Why      : Instrument Control method save
 Severity : 1


 Modified : Tue Nov 24 12:29:43 2020
 Event    : Save Method
 Message  : Save Method to C:\MSDCHEM\1\METHODS\Installation.M
 Why      : Instrument Control method save
 Severity : 1


 Modified : Tue Nov 24 12:33:13 2020
 Event    : Save Method
 Message  : Save Method to C:\MSDCHEM\1\METHODS\Installation.M
 Why      : Instrument Control method save
 Severity : 1


 Modified : Tue Nov 24 13:47:55 2020
 Event    : Save Method
 Message  : Save Method to C:\MSDCHEM\1\METHODS\Installation.M
 Why      : Instrument Control method save
 Severity : 1


 Modified : Tue Nov 24 14:30:28 2020
 Event    : Save Method
 Message  : Save Method C:\MSDCHEM\1\METHODS\Installation.M from Instrument Control.
 Why      : DA Edit Method 
 Severity : 1


 Modified : Tue Nov 24 14:30:31 2020
 Event    : Save Method
 Message  : Save Method to C:\MSDCHEM\1\METHODS\Installation.M
 Why      : Instrument Control method save
 Severity : 1


 Modified : Tue Nov 24 14:34:28 2020
 Event    : Save Method
 Message  : Save Method C:\MSDCHEM\1\METHODS\Installation.M from Instrument Control.
 Why      : DA Edit Method 
 Severity : 1


 Modified : Wed Nov 25 10:27:24 2020
 Event    : Save Method
 Message  : Save Method C:\MSDCHEM\1\METHODS\Baking_column.M from Instrument Control.
 Why      : DA Edit Method 
 Severity : 1


 Modified : Thu Nov 26 18:52:16 2020
 Event    : Save Method
 Message  : Save Method to C:\MSDCHEM\1\METHODS\Test 1.M
 Why      : Instrument Control method save
 Severity : 1


 Modified : Fri Nov 27 15:44:54 2020
 Event    : Save Method
 Message  : Save Method to C:\MSDCHEM\1\METHODS\Test 1.M
 Why      : Instrument Control method save
 Severity : 1


 Modified : Tue Dec 01 12:17:42 2020
 Event    : Save Method
 Message  : Save Method to C:\MSDCHEM\1\METHODS\TEST 3.M
 Why      : Instrument Control method save
 Severity : 1


 Modified : Tue Dec 01 12:36:49 2020
 Event    : Save Method
 Message  : Save Method to C:\MSDCHEM\1\METHODS\TEST 4.M
 Why      : Instrument Control method save
 Severity : 1


 Modified : Tue Dec 01 12:51:33 2020
 Event    : Save Method
 Message  : Save Method to C:\MSDCHEM\1\METHODS\TEST 4.M
 Why      : Instrument Control method save
 Severity : 1


 Modified : Tue Dec 01 12:54:00 2020
 Event    : Save Method
 Message  : Save Method to C:\MSDCHEM\1\METHODS\TEST 4.M
 Why      : Instrument Control method save
 Severity : 1


 Modified : Tue Dec 01 15:04:54 2020
 Event    : Save Method
 Message  : Save Method to C:\MSDCHEM\1\METHODS\TEST 4.M
 Why      : Instrument Control method save
 Severity : 1


 Modified : Wed Dec 02 09:27:56 2020
 Event    : Save Method
 Message  : Save Method to C:\MSDCHEM\1\METHODS\TEST 4.M
 Why      : Instrument Control method save
 Severity : 1


 Modified : Wed Dec 02 13:27:53 2020
 Event    : Save Method
 Message  : Save Method to C:\MSDCHEM\1\METHODS\TEST 4.M
 Why      : Instrument Control method save
 Severity : 1


 Modified : Wed Dec 02 13:40:45 2020
 Event    : Save Method
 Message  : Save Method to C:\MSDCHEM\1\METHODS\TEST 4.M
 Why      : Instrument Control method save
 Severity : 1


 Modified : Wed Dec 02 16:22:44 2020
 Event    : Save Method
 Message  : Save Method to C:\MSDCHEM\1\METHODS\TEST 4.M
 Why      : Instrument Control method save
 Severity : 1


 Modified : Thu Dec 03 10:15:24 2020
 Event    : Save Method
 Message  : Save Method to C:\MSDCHEM\1\METHODS\TEST 4.M
 Why      : Instrument Control method save
 Severity : 1


 Modified : Thu Dec 03 13:05:54 2020
 Event    : Save Method
 Message  : Save Method to C:\MSDCHEM\1\METHODS\TEST 4.M
 Why      : Instrument Control method save
 Severity : 1


 Modified : Fri Dec 04 19:07:23 2020
 Event    : Save Method
 Message  : Save Method to C:\MSDCHEM\1\METHODS\TEST 4.M
 Why      : Instrument Control method save
 Severity : 1


 Modified : Mon Dec 07 09:47:49 2020
 Event    : Save Method
 Message  : Save Method to C:\MSDCHEM\1\METHODS\TEST 4.M
 Why      : Instrument Control method save
 Severity : 1


 Modified : Mon Dec 07 10:19:19 2020
 Event    : Save Method
 Message  : Save Method to C:\MSDCHEM\1\METHODS\TEST 4.M
 Why      : Instrument Control method save
 Severity : 1


 Modified : Mon Dec 07 11:09:38 2020
 Event    : Save Method
 Message  : Save Method to C:\MSDCHEM\1\METHODS\TEST 4.M
 Why      : Instrument Control method save
 Severity : 1


 Modified : Mon Dec 07 11:40:00 2020
 Event    : Save Method
 Message  : Save Method to C:\MSDCHEM\1\METHODS\TEST 4.M
 Why      : Instrument Control method save
 Severity : 1


 Modified : Mon Dec 07 13:15:00 2020
 Event    : Save Method
 Message  : Save Method to C:\MSDCHEM\1\METHODS\TEST 4.M
 Why      : Instrument Control method save
 Severity : 1


 Modified : Mon Dec 07 13:20:49 2020
 Event    : Save Method
 Message  : Save Method to C:\MSDCHEM\1\METHODS\TEST 4.M
 Why      : Instrument Control method save
 Severity : 1


 Modified : Mon Dec 07 14:04:39 2020
 Event    : Save Method
 Message  : Save Method to C:\MSDCHEM\1\METHODS\TEST 4.M
 Why      : Instrument Control method save
 Severity : 1


 Modified : Mon Dec 07 16:16:55 2020
 Event    : Save Method
 Message  : Save Method to C:\MSDCHEM\1\METHODS\TEST 4.M
 Why      : Instrument Control method save
 Severity : 1


 Modified : Mon Dec 07 16:17:07 2020
 Event    : Save Method
 Message  : Save Method to C:\MSDCHEM\1\METHODS\TEST 4.M
 Why      : Instrument Control method save
 Severity : 1


 Modified : Mon Dec 07 17:22:32 2020
 Event    : Save Method
 Message  : Save Method to C:\MSDCHEM\1\METHODS\TEST 4.M
 Why      : Instrument Control method save
 Severity : 1


 Modified : Mon Dec 07 19:59:47 2020
 Event    : Save Method
 Message  : Save Method to C:\MSDCHEM\1\METHODS\TEST 4.M
 Why      : Instrument Control method save
 Severity : 1


 Modified : Thu Dec 10 15:45:02 2020
 Event    : Save Method
 Message  : Save Method to C:\MSDCHEM\1\METHODS\TEST 4.M
 Why      : Instrument Control method save
 Severity : 1


 Modified : Thu Dec 10 15:45:26 2020
 Event    : Save Method
 Message  : Save Method to C:\MSDCHEM\1\METHODS\TEST 4.M
 Why      : Instrument Control method save
 Severity : 1


 Modified : Mon Dec 14 12:15:52 2020
 Event    : Save Method
 Message  : Save Method to C:\MSDCHEM\1\METHODS\TEST 5 TCD.M
 Why      : Instrument Control method save
 Severity : 1


 Modified : Mon Dec 14 12:18:59 2020
 Event    : Save Method
 Message  : Save Method to C:\MSDCHEM\1\METHODS\TEST 5 TCD.M
 Why      : Instrument Control method save
 Severity : 1


 Modified : Mon Dec 14 12:25:24 2020
 Event    : Save Method
 Message  : Save Method to C:\MSDCHEM\1\METHODS\TEST 5 TCD.M
 Why      : Instrument Control method save
 Severity : 1


 Modified : Mon Dec 14 12:44:30 2020
 Event    : Save Method
 Message  : Save Method to C:\MSDCHEM\1\METHODS\TEST 5 TCD.M
 Why      : Instrument Control method save
 Severity : 1


 Modified : Mon Dec 14 12:49:41 2020
 Event    : Save Method
 Message  : Save Method to C:\MSDCHEM\1\METHODS\TEST 5 TCD.M
 Why      : Instrument Control method save
 Severity : 1


 Modified : Mon Dec 14 12:58:53 2020
 Event    : Save Method
 Message  : Save Method to C:\MSDCHEM\1\METHODS\TEST 5 TCD.M
 Why      : Instrument Control method save
 Severity : 1


 Modified : Mon Dec 14 13:26:50 2020
 Event    : Save Method
 Message  : Save Method to C:\MSDCHEM\1\METHODS\TEST 5 TCD.M
 Why      : Instrument Control method save
 Severity : 1


 Modified : Mon Dec 14 13:35:44 2020
 Event    : Save Method
 Message  : Save Method to C:\MSDCHEM\1\METHODS\TEST 5 TCD.M
 Why      : Instrument Control method save
 Severity : 1


 Modified : Mon Dec 14 13:49:59 2020
 Event    : Save Method
 Message  : Save Method to C:\MSDCHEM\1\METHODS\TEST 5 TCD.M
 Why      : Instrument Control method save
 Severity : 1


 Modified : Mon Dec 14 14:00:24 2020
 Event    : Save Method
 Message  : Save Method to C:\MSDCHEM\1\METHODS\TEST 5 TCD.M
 Why      : Instrument Control method save
 Severity : 1


 Modified : Mon Dec 14 14:40:45 2020
 Event    : Save Method
 Message  : Save Method to C:\MSDCHEM\1\METHODS\TEST 5 TCD.M
 Why      : Instrument Control method save
 Severity : 1


 Modified : Mon Dec 14 15:05:43 2020
 Event    : Save Method
 Message  : Save Method to C:\MSDCHEM\1\METHODS\TEST 5 TCD.M
 Why      : Instrument Control method save
 Severity : 1


 Modified : Mon Dec 14 15:46:32 2020
 Event    : Save Method
 Message  : Save Method to C:\MSDCHEM\1\METHODS\TEST 5 TCD.M
 Why      : Instrument Control method save
 Severity : 1


 Modified : Mon Dec 14 15:46:36 2020
 Event    : Save Method
 Message  : Save Method to C:\MSDCHEM\1\METHODS\TEST 5 TCD.M
 Why      : Instrument Control method save
 Severity : 1


 Modified : Mon Dec 14 16:25:37 2020
 Event    : Save Method
 Message  : Save Method to C:\MSDCHEM\1\METHODS\TEST 5 TCD.M
 Why      : Instrument Control method save
 Severity : 1


 Modified : Mon Dec 14 16:36:16 2020
 Event    : Save Method
 Message  : Save Method to C:\MSDCHEM\1\METHODS\TEST 5 TCD.M
 Why      : Instrument Control method save
 Severity : 1


 Modified : Mon Dec 14 16:48:22 2020
 Event    : Save Method
 Message  : Save Method to C:\MSDCHEM\1\METHODS\TEST 5 TCD.M
 Why      : Instrument Control method save
 Severity : 1


 Modified : Mon Dec 14 17:00:10 2020
 Event    : Save Method
 Message  : Save Method to C:\MSDCHEM\1\METHODS\TEST 5 TCD.M
 Why      : Instrument Control method save
 Severity : 1


 Modified : Mon Dec 14 17:16:36 2020
 Event    : Save Method
 Message  : Save Method to C:\MSDCHEM\1\METHODS\TEST 5 TCD.M
 Why      : Instrument Control method save
 Severity : 1


 Modified : Mon Dec 14 17:24:28 2020
 Event    : Save Method
 Message  : Save Method to C:\MSDCHEM\1\METHODS\TEST 5 TCD.M
 Why      : Instrument Control method save
 Severity : 1


 Modified : Mon Dec 14 18:23:12 2020
 Event    : Save Method
 Message  : Save Method to C:\MSDCHEM\1\METHODS\TEST 5 TCD.M
 Why      : Instrument Control method save
 Severity : 1


 Modified : Mon Dec 14 18:26:26 2020
 Event    : Save Method
 Message  : Save Method to C:\MSDCHEM\1\METHODS\TEST 5 TCD.M
 Why      : Instrument Control method save
 Severity : 1


 Modified : Mon Dec 14 18:32:10 2020
 Event    : Save Method
 Message  : Save Method to C:\MSDCHEM\1\METHODS\TEST 5 TCD.M
 Why      : Instrument Control method save
 Severity : 1


 Modified : Mon Dec 14 18:37:26 2020
 Event    : Save Method
 Message  : Save Method to C:\MSDCHEM\1\METHODS\TEST 5 TCD.M
 Why      : Instrument Control method save
 Severity : 1


 Modified : Mon Dec 14 18:53:25 2020
 Event    : Save Method
 Message  : Save Method to C:\MSDCHEM\1\METHODS\TEST 100cm TCD.M
 Why      : Instrument Control method save
 Severity : 1


 Modified : Mon Dec 14 19:02:07 2020
 Event    : Save Method
 Message  : Save Method to C:\MSDCHEM\1\METHODS\TEST 5 TCD.M
 Why      : Instrument Control method save
 Severity : 1


 Modified : Mon Dec 14 19:13:00 2020
 Event    : Save Method
 Message  : Save Method to C:\MSDCHEM\1\METHODS\TEST 5 TCD.M
 Why      : Instrument Control method save
 Severity : 1


 Modified : Mon Dec 14 19:24:48 2020
 Event    : Save Method
 Message  : Save Method to C:\MSDCHEM\1\METHODS\TEST 5 TCD.M
 Why      : Instrument Control method save
 Severity : 1


 Modified : Mon Dec 14 19:30:10 2020
 Event    : Save Method
 Message  : Save Method to C:\MSDCHEM\1\METHODS\TEST 5 TCD.M
 Why      : Instrument Control method save
 Severity : 1


 Modified : Mon Dec 14 19:43:20 2020
 Event    : Save Method
 Message  : Save Method to C:\MSDCHEM\1\METHODS\TEST 5 TCD.M
 Why      : Instrument Control method save
 Severity : 1


 Modified : Mon Dec 14 19:51:08 2020
 Event    : Save Method
 Message  : Save Method to C:\MSDCHEM\1\METHODS\TEST 5 TCD.M
 Why      : Instrument Control method save
 Severity : 1


 Modified : Mon Dec 14 20:00:04 2020
 Event    : Save Method
 Message  : Save Method to C:\MSDCHEM\1\METHODS\Standby TCD.M
 Why      : Instrument Control method save
 Severity : 1


 Modified : Mon Dec 14 21:00:40 2020
 Event    : Save Method
 Message  : Save Method to C:\MSDCHEM\1\METHODS\Standby TCD.M
 Why      : Instrument Control method save
 Severity : 1


 Modified : Mon Dec 14 21:05:12 2020
 Event    : Save Method
 Message  : Save Method to C:\MSDCHEM\1\METHODS\Standby TCD.M
 Why      : Instrument Control method save
 Severity : 1


 Modified : Mon Dec 14 21:05:16 2020
 Event    : Save Method
 Message  : Save Method to C:\MSDCHEM\1\METHODS\Standby TCD.M
 Why      : Instrument Control method save
 Severity : 1


 Modified : Mon Dec 14 21:05:34 2020
 Event    : Save Method
 Message  : Save Method to C:\MSDCHEM\1\METHODS\Standby TCD.M
 Why      : Instrument Control method save
 Severity : 1


 Modified : Mon Dec 14 21:13:04 2020
 Event    : Save Method
 Message  : Save Method to C:\MSDCHEM\1\METHODS\Standby TCD.M
 Why      : Instrument Control method save
 Severity : 1


 Modified : Mon Jan 04 11:10:48 2021
 Event    : Save Method
 Message  : Save Method to C:\MSDCHEM\1\METHODS\Standby TCD.M
 Why      : Instrument Control method save
 Severity : 1


 Modified : Mon Jan 04 11:18:12 2021
 Event    : Save Method
 Message  : Save Method to C:\MSDCHEM\1\METHODS\Standby MS-TCD.M
 Why      : Instrument Control method save
 Severity : 1


 Modified : Mon Jan 04 13:04:44 2021
 Event    : Save Method
 Message  : Save Method to C:\MSDCHEM\1\METHODS\Standby MS-TCD.M
 Why      : Instrument Control method save
 Severity : 1


 Modified : Mon Jan 04 13:10:01 2021
 Event    : Save Method
 Message  : Save Method to C:\MSDCHEM\1\METHODS\Standby MS-TCD.M
 Why      : Instrument Control method save
 Severity : 1


 Modified : Mon Jan 04 14:39:51 2021
 Event    : Save Method
 Message  : Save Method to C:\MSDCHEM\1\METHODS\Standby MS-TCD.M
 Why      : Instrument Control method save
 Severity : 1


 Modified : Mon Jan 04 14:55:18 2021
 Event    : Save Method
 Message  : Save Method to C:\MSDCHEM\1\METHODS\TEST GP6-DB1 MS-TCD.M
 Why      : Instrument Control method save
 Severity : 1


 Modified : Mon Jan 04 14:56:14 2021
 Event    : Save Method
 Message  : Save Method to C:\MSDCHEM\1\METHODS\TEST GP6-DB1 MS-TCD.M
 Why      : Instrument Control method save
 Severity : 1


 Modified : Mon Jan 04 17:43:33 2021
 Event    : Save Method
 Message  : Save Method to C:\MSDCHEM\1\METHODS\TEST GP6-DB1 MS-TCD.M
 Why      : Instrument Control method save
 Severity : 1


 Modified : Mon Jan 04 17:57:03 2021
 Event    : Save Method
 Message  : Save Method to C:\MSDCHEM\1\METHODS\TEST GP6-DB1 MS-TCD.M
 Why      : Instrument Control method save
 Severity : 1


 Modified : Tue Jan 05 09:38:35 2021
 Event    : Save Method
 Message  : Save Method to C:\MSDCHEM\1\METHODS\TEST GP6-DB1 MS-TCD.M
 Why      : Instrument Control method save
 Severity : 1


 Modified : Tue Jan 05 09:59:28 2021
 Event    : Save Method
 Message  : Save Method to C:\MSDCHEM\1\METHODS\TEST GP6-DB1 MS-TCD.M
 Why      : Instrument Control method save
 Severity : 1


 Modified : Tue Jan 05 10:00:09 2021
 Event    : Save Method
 Message  : Save Method to C:\MSDCHEM\1\METHODS\TEST GP6-DB1 MS-TCD.M
 Why      : Instrument Control method save
 Severity : 1


 Modified : Tue Jan 05 10:08:24 2021
 Event    : Save Method
 Message  : Save Method to C:\MSDCHEM\1\METHODS\TEST GP6-DB1 MS-TCD.M
 Why      : Instrument Control method save
 Severity : 1


 Modified : Tue Jan 05 10:30:03 2021
 Event    : Save Method
 Message  : Save Method to C:\MSDCHEM\1\METHODS\TEST GP6-DB1 MS-TCD.M
 Why      : Instrument Control method save
 Severity : 1


 Modified : Tue Jan 05 10:37:46 2021
 Event    : Save Method
 Message  : Save Method to C:\MSDCHEM\1\METHODS\TEST GP6-DB1 MS-TCD.M
 Why      : Instrument Control method save
 Severity : 1


 Modified : Tue Jan 05 10:45:19 2021
 Event    : Save Method
 Message  : Save Method to C:\MSDCHEM\1\METHODS\TEST GP6-DB1 MS-TCD.M
 Why      : Instrument Control method save
 Severity : 1


 Modified : Tue Jan 05 10:53:56 2021
 Event    : Save Method
 Message  : Save Method to C:\MSDCHEM\1\METHODS\TEST GP6-DB1 MS-TCD.M
 Why      : Instrument Control method save
 Severity : 1


 Modified : Tue Jan 05 11:06:28 2021
 Event    : Save Method
 Message  : Save Method to C:\MSDCHEM\1\METHODS\TEST GP6-DB1 MS-TCD.M
 Why      : Instrument Control method save
 Severity : 1


 Modified : Tue Jan 05 11:27:13 2021
 Event    : Save Method
 Message  : Save Method to C:\MSDCHEM\1\METHODS\TEST GP6-DB1 MS-TCD.M
 Why      : Instrument Control method save
 Severity : 1


 Modified : Tue Jan 05 11:38:17 2021
 Event    : Save Method
 Message  : Save Method to C:\MSDCHEM\1\METHODS\TEST GP6-DB1 MS-TCD.M
 Why      : Instrument Control method save
 Severity : 1


 Modified : Tue Jan 05 11:52:34 2021
 Event    : Save Method
 Message  : Save Method to C:\MSDCHEM\1\METHODS\TEST GP6-DB1 MS-TCD.M
 Why      : Instrument Control method save
 Severity : 1


 Modified : Tue Jan 05 12:07:37 2021
 Event    : Save Method
 Message  : Save Method to C:\MSDCHEM\1\METHODS\TEST GP6-DB1 MS-TCD.M
 Why      : Instrument Control method save
 Severity : 1


 Modified : Tue Jan 05 13:10:00 2021
 Event    : Save Method
 Message  : Save Method to C:\MSDCHEM\1\METHODS\TEST GP6-DB1 MS-TCD.M
 Why      : Instrument Control method save
 Severity : 1


 Modified : Tue Jan 05 19:50:49 2021
 Event    : Save Method
 Message  : Save Method to C:\MSDCHEM\1\METHODS\TEST GP6-DB1 MS-TCD.M
 Why      : Instrument Control method save
 Severity : 1


 Modified : Tue Jan 05 19:58:01 2021
 Event    : Save Method
 Message  : Save Method to C:\MSDCHEM\1\METHODS\TEST GP6-DB1 MS-TCD.M
 Why      : Instrument Control method save
 Severity : 1


 Modified : Tue Jan 05 20:05:45 2021
 Event    : Save Method
 Message  : Save Method to C:\MSDCHEM\1\METHODS\TEST GP6-DB1 MS-TCD.M
 Why      : Instrument Control method save
 Severity : 1


 Modified : Tue Jan 05 20:10:22 2021
 Event    : Save Method
 Message  : Save Method to C:\MSDCHEM\1\METHODS\TEST GP6-DB1 MS-TCD.M
 Why      : Instrument Control method save
 Severity : 1


 Modified : Tue Jan 05 20:17:58 2021
 Event    : Save Method
 Message  : Save Method to C:\MSDCHEM\1\METHODS\TEST GP6-DB1 MS-TCD.M
 Why      : Instrument Control method save
 Severity : 1


 Modified : Tue Jan 05 20:25:23 2021
 Event    : Save Method
 Message  : Save Method to C:\MSDCHEM\1\METHODS\TEST GP6-DB1 MS-TCD.M
 Why      : Instrument Control method save
 Severity : 1


 Modified : Tue Jan 05 20:26:25 2021
 Event    : Save Method
 Message  : Save Method to C:\MSDCHEM\1\METHODS\TEST GP6-DB1 MS-TCD.M
 Why      : Instrument Control method save
 Severity : 1


 Modified : Tue Jan 05 20:34:01 2021
 Event    : Save Method
 Message  : Save Method to C:\MSDCHEM\1\METHODS\TEST GP6-DB1 MS-TCD.M
 Why      : Instrument Control method save
 Severity : 1


 Modified : Tue Jan 05 20:42:00 2021
 Event    : Save Method
 Message  : Save Method to C:\MSDCHEM\1\METHODS\TEST GP6-DB1 MS-TCD.M
 Why      : Instrument Control method save
 Severity : 1


 Modified : Tue Jan 05 20:49:44 2021
 Event    : Save Method
 Message  : Save Method to C:\MSDCHEM\1\METHODS\TEST GP6-DB1 MS-TCD.M
 Why      : Instrument Control method save
 Severity : 1


 Modified : Tue Jan 05 21:00:14 2021
 Event    : Save Method
 Message  : Save Method to C:\MSDCHEM\1\METHODS\TEST GP6-DB1 MS-TCD.M
 Why      : Instrument Control method save
 Severity : 1


 Modified : Tue Jan 05 21:08:42 2021
 Event    : Save Method
 Message  : Save Method to C:\MSDCHEM\1\METHODS\TEST GP6-DB1 MS-TCD.M
 Why      : Instrument Control method save
 Severity : 1


 Modified : Tue Jan 05 21:18:04 2021
 Event    : Save Method
 Message  : Save Method to C:\MSDCHEM\1\METHODS\TEST GP6-DB1 MS-TCD.M
 Why      : Instrument Control method save
 Severity : 1


 Modified : Tue Jan 05 21:26:29 2021
 Event    : Save Method
 Message  : Save Method to C:\MSDCHEM\1\METHODS\TEST GP6-DB1 MS-TCD.M
 Why      : Instrument Control method save
 Severity : 1


 Modified : Tue Jan 05 21:36:07 2021
 Event    : Save Method
 Message  : Save Method to C:\MSDCHEM\1\METHODS\TEST GP6-DB1 MS-TCD.M
 Why      : Instrument Control method save
 Severity : 1


 Modified : Wed Jan 06 09:46:27 2021
 Event    : Save Method
 Message  : Save Method to C:\MSDCHEM\1\METHODS\TEST GP6-DB1 MS-TCD.M
 Why      : Instrument Control method save
 Severity : 1


 Modified : Wed Jan 06 09:48:42 2021
 Event    : Save Method
 Message  : Save Method to C:\MSDCHEM\1\METHODS\TEST GP6-DB1 MS-TCD.M
 Why      : Instrument Control method save
 Severity : 1


 Modified : Wed Jan 06 09:48:54 2021
 Event    : Save Method
 Message  : Save Method to C:\MSDCHEM\1\METHODS\TEST GP6-DB1 MS-TCD.M
 Why      : Instrument Control method save
 Severity : 1


 Modified : Wed Jan 06 10:01:03 2021
 Event    : Save Method
 Message  : Save Method to C:\MSDCHEM\1\METHODS\TEST GP6-DB1 MS-TCD.M
 Why      : Instrument Control method save
 Severity : 1


 Modified : Wed Jan 06 10:12:02 2021
 Event    : Save Method
 Message  : Save Method to C:\MSDCHEM\1\METHODS\TEST GP6-DB1 MS-TCD.M
 Why      : Instrument Control method save
 Severity : 1


 Modified : Wed Jan 06 10:15:58 2021
 Event    : Save Method
 Message  : Save Method to C:\MSDCHEM\1\METHODS\TEST GP6-DB1 MS-TCD.M
 Why      : Instrument Control method save
 Severity : 1


 Modified : Wed Jan 06 10:23:32 2021
 Event    : Save Method
 Message  : Save Method to C:\MSDCHEM\1\METHODS\TEST GP6-DB1 MS-TCD.M
 Why      : Instrument Control method save
 Severity : 1


 Modified : Wed Jan 06 10:29:59 2021
 Event    : Save Method
 Message  : Save Method to C:\MSDCHEM\1\METHODS\TEST GP6-DB1 MS-TCD.M
 Why      : Instrument Control method save
 Severity : 1


 Modified : Wed Jan 06 10:37:03 2021
 Event    : Save Method
 Message  : Save Method to C:\MSDCHEM\1\METHODS\TEST GP6-DB1 MS-TCD.M
 Why      : Instrument Control method save
 Severity : 1


 Modified : Wed Jan 06 10:42:59 2021
 Event    : Save Method
 Message  : Save Method to C:\MSDCHEM\1\METHODS\TEST GP6-DB1 MS-TCD.M
 Why      : Instrument Control method save
 Severity : 1


 Modified : Wed Jan 06 10:51:11 2021
 Event    : Save Method
 Message  : Save Method to C:\MSDCHEM\1\METHODS\TEST GP6-DB1 MS-TCD.M
 Why      : Instrument Control method save
 Severity : 1


 Modified : Wed Jan 06 11:00:40 2021
 Event    : Save Method
 Message  : Save Method to C:\MSDCHEM\1\METHODS\TEST GP6-DB1 MS-TCD.M
 Why      : Instrument Control method save
 Severity : 1


 Modified : Wed Jan 06 11:09:43 2021
 Event    : Save Method
 Message  : Save Method to C:\MSDCHEM\1\METHODS\TEST GP6-DB1 MS-TCD.M
 Why      : Instrument Control method save
 Severity : 1


 Modified : Wed Jan 06 11:17:33 2021
 Event    : Save Method
 Message  : Save Method to C:\MSDCHEM\1\METHODS\TEST GP6-DB1 MS-TCD.M
 Why      : Instrument Control method save
 Severity : 1


 Modified : Wed Jan 06 12:09:12 2021
 Event    : Save Method
 Message  : Save Method to C:\MSDCHEM\1\METHODS\TEST GP6-DB1 MS-TCD.M
 Why      : Instrument Control method save
 Severity : 1


 Modified : Wed Jan 06 12:19:31 2021
 Event    : Save Method
 Message  : Save Method to C:\MSDCHEM\1\METHODS\TEST GP6-DB1 MS-TCD.M
 Why      : Instrument Control method save
 Severity : 1


 Modified : Wed Jan 06 12:38:01 2021
 Event    : Save Method
 Message  : Save Method to C:\MSDCHEM\1\METHODS\TEST GP6-DB1 MS-TCD.M
 Why      : Instrument Control method save
 Severity : 1


 Modified : Wed Jan 06 12:46:25 2021
 Event    : Save Method
 Message  : Save Method to C:\MSDCHEM\1\METHODS\TEST GP6-DB1 MS-TCD.M
 Why      : Instrument Control method save
 Severity : 1


 Modified : Wed Jan 06 13:25:39 2021
 Event    : Save Method
 Message  : Save Method to C:\MSDCHEM\1\METHODS\TEST GP6-DB1 MS-TCD.M
 Why      : Instrument Control method save
 Severity : 1


 Modified : Wed Jan 06 14:22:52 2021
 Event    : Save Method
 Message  : Save Method to C:\MSDCHEM\1\METHODS\TEST GP6-DB1 MS-TCD.M
 Why      : Instrument Control method save
 Severity : 1


 Modified : Thu Jan 07 11:25:39 2021
 Event    : Save Method
 Message  : Save Method to C:\MSDCHEM\1\METHODS\TEST GP6-DB1 MS-TCD.M
 Why      : Instrument Control method save
 Severity : 1


 Modified : Thu Jan 07 11:27:22 2021
 Event    : Save Method
 Message  : Save Method to C:\MSDCHEM\1\METHODS\TEST GP6-DB1 MS-TCD.M
 Why      : Instrument Control method save
 Severity : 1


 Modified : Thu Jan 07 11:27:27 2021
 Event    : Save Method
 Message  : Save Method to C:\MSDCHEM\1\METHODS\TEST GP6-DB1 MS-TCD.M
 Why      : Instrument Control method save
 Severity : 1


 Modified : Tue Jan 12 11:58:01 2021
 Event    : Save Method
 Message  : Save Method to C:\MSDCHEM\1\METHODS\TEST GP6-DB1 MS-TCD.M
 Why      : Instrument Control method save
 Severity : 1


 Modified : Tue Jan 12 13:11:50 2021
 Event    : Save Method
 Message  : Save Method to C:\MSDCHEM\1\METHODS\TEST GP6-DB1 MS-TCD.M
 Why      : Instrument Control method save
 Severity : 1


 Modified : Tue Jan 12 13:39:54 2021
 Event    : Save Method
 Message  : Save Method to C:\MSDCHEM\1\METHODS\TEST GP6-CPVA MS-TCD.M
 Why      : Instrument Control method save
 Severity : 1


 Modified : Tue Jan 12 15:19:31 2021
 Event    : Save Method
 Message  : Save Method to C:\MSDCHEM\1\METHODS\TEST GP6-CPVA MS-TCD.M
 Why      : Instrument Control method save
 Severity : 1


 Modified : Tue Jan 12 15:40:55 2021
 Event    : Save Method
 Message  : Save Method to C:\MSDCHEM\1\METHODS\TEST GP6-CPVA MS-TCD.M
 Why      : Instrument Control method save
 Severity : 1


 Modified : Tue Jan 12 15:57:36 2021
 Event    : Save Method
 Message  : Save Method to C:\MSDCHEM\1\METHODS\TEST GP6-CPVA MS-TCD.M
 Why      : Instrument Control method save
 Severity : 1


 Modified : Tue Jan 12 16:04:48 2021
 Event    : Save Method
 Message  : Save Method to C:\MSDCHEM\1\METHODS\TEST GP6-CPVA MS-TCD.M
 Why      : Instrument Control method save
 Severity : 1


 Modified : Tue Jan 12 16:12:48 2021
 Event    : Save Method
 Message  : Save Method to C:\MSDCHEM\1\METHODS\TEST GP6-CPVA MS-TCD.M
 Why      : Instrument Control method save
 Severity : 1


 Modified : Tue Jan 12 16:18:20 2021
 Event    : Save Method
 Message  : Save Method to C:\MSDCHEM\1\METHODS\TEST GP6-CPVA MS-TCD.M
 Why      : Instrument Control method save
 Severity : 1


 Modified : Tue Jan 12 16:25:12 2021
 Event    : Save Method
 Message  : Save Method to C:\MSDCHEM\1\METHODS\TEST GP6-CPVA MS-TCD.M
 Why      : Instrument Control method save
 Severity : 1


 Modified : Tue Jan 12 16:26:31 2021
 Event    : Save Method
 Message  : Save Method to C:\MSDCHEM\1\METHODS\TEST GP6-CPVA MS-TCD.M
 Why      : Instrument Control method save
 Severity : 1


 Modified : Tue Jan 12 16:26:35 2021
 Event    : Save Method
 Message  : Save Method to C:\MSDCHEM\1\METHODS\TEST GP6-CPVA MS-TCD.M
 Why      : Instrument Control method save
 Severity : 1


 Modified : Tue Jan 12 16:28:17 2021
 Event    : Save Method
 Message  : Save Method to C:\MSDCHEM\1\METHODS\TEST GP6-CPVA MS-TCD.M
 Why      : Instrument Control method save
 Severity : 1


 Modified : Tue Jan 12 16:36:14 2021
 Event    : Save Method
 Message  : Save Method to C:\MSDCHEM\1\METHODS\TEST GP6-CPVA MS-TCD.M
 Why      : Instrument Control method save
 Severity : 1


 Modified : Tue Jan 12 16:37:17 2021
 Event    : Save Method
 Message  : Save Method to C:\MSDCHEM\1\METHODS\TEST GP6-CPVA MS-TCD.M
 Why      : Instrument Control method save
 Severity : 1


 Modified : Tue Jan 12 17:41:17 2021
 Event    : Save Method
 Message  : Save Method to C:\MSDCHEM\1\METHODS\TEST GP6-CPVA MS-TCD.M
 Why      : Instrument Control method save
 Severity : 1


 Modified : Tue Jan 12 17:52:08 2021
 Event    : Save Method
 Message  : Save Method to C:\MSDCHEM\1\METHODS\TEST GP6-CPVA MS-TCD.M
 Why      : Instrument Control method save
 Severity : 1


 Modified : Tue Jan 12 18:05:13 2021
 Event    : Save Method
 Message  : Save Method to C:\MSDCHEM\1\METHODS\TEST GP6-CPVA MS-TCD.M
 Why      : Instrument Control method save
 Severity : 1


 Modified : Tue Jan 12 18:36:36 2021
 Event    : Save Method
 Message  : Save Method to C:\MSDCHEM\1\METHODS\TEST GP6-CPVA MS-TCD.M
 Why      : Instrument Control method save
 Severity : 1


 Modified : Tue Jan 12 18:52:19 2021
 Event    : Save Method
 Message  : Save Method to C:\MSDCHEM\1\METHODS\TEST GP6-CPVA MS-TCD.M
 Why      : Instrument Control method save
 Severity : 1


 Modified : Tue Jan 12 19:11:45 2021
 Event    : Save Method
 Message  : Save Method to C:\MSDCHEM\1\METHODS\TEST GP6-CPVA MS-TCD.M
 Why      : Instrument Control method save
 Severity : 1


 Modified : Wed Jan 13 13:59:06 2021
 Event    : Save Method
 Message  : Save Method to C:\MSDCHEM\1\METHODS\TEST GP6-CPVA MS-TCD.M
 Why      : Instrument Control method save
 Severity : 1


 Modified : Thu Jan 14 11:01:39 2021
 Event    : Save Method
 Message  : Save Method to C:\MSDCHEM\1\METHODS\CP-Volamine MSD.M
 Why      : Instrument Control method save
 Severity : 1


 Modified : Thu Jan 14 12:09:44 2021
 Event    : Save Method
 Message  : Save Method to C:\MSDCHEM\1\METHODS\CP-Volamine MSD.M
 Why      : Instrument Control method save
 Severity : 1


 Modified : Thu Jan 14 12:10:00 2021
 Event    : Save Method
 Message  : Save Method to C:\MSDCHEM\1\METHODS\CP-Volamine MSD.M
 Why      : Instrument Control method save
 Severity : 1


 Modified : Thu Jan 14 12:10:04 2021
 Event    : Save Method
 Message  : Save Method to C:\MSDCHEM\1\METHODS\CP-Volamine MSD.M
 Why      : Instrument Control method save
 Severity : 1


 Modified : Thu Jan 14 12:41:33 2021
 Event    : Save Method
 Message  : Save Method to C:\MSDCHEM\1\METHODS\CP-Volamine MSD.M
 Why      : Instrument Control method save
 Severity : 1


 Modified : Thu Jan 14 12:45:49 2021
 Event    : Save Method
 Message  : Save Method to C:\MSDCHEM\1\METHODS\CP-Volamine MSD.M
 Why      : Instrument Control method save
 Severity : 1


 Modified : Thu Jan 14 15:26:32 2021
 Event    : Save Method
 Message  : Save Method to C:\MSDCHEM\1\METHODS\CP-Volamine MSD.M
 Why      : Instrument Control method save
 Severity : 1


 Modified : Thu Jan 14 16:04:56 2021
 Event    : Save Method
 Message  : Save Method to C:\MSDCHEM\1\METHODS\CP-Volamine MSD.M
 Why      : Instrument Control method save
 Severity : 1


 Modified : Thu Jan 14 16:15:56 2021
 Event    : Save Method
 Message  : Save Method to C:\MSDCHEM\1\METHODS\CP-Volamine MSD.M
 Why      : Instrument Control method save
 Severity : 1


 Modified : Thu Jan 14 18:17:05 2021
 Event    : Save Method
 Message  : Save Method to C:\MSDCHEM\1\METHODS\CP-Volamine MSD.M
 Why      : Instrument Control method save
 Severity : 1


 Modified : Sat Jan 16 12:06:27 2021
 Event    : Save Method
 Message  : Save Method to C:\MSDCHEM\1\METHODS\CP-Volamine MSD.M
 Why      : Instrument Control method save
 Severity : 1


 Modified : Sat Jan 16 12:41:09 2021
 Event    : Save Method
 Message  : Save Method to C:\MSDCHEM\1\METHODS\CP-Volamine MSD.M
 Why      : Instrument Control method save
 Severity : 1


 Modified : Sat Jan 16 13:11:35 2021
 Event    : Save Method
 Message  : Save Method to C:\MSDCHEM\1\METHODS\CP-Volamine MSD.M
 Why      : Instrument Control method save
 Severity : 1


 Modified : Sat Jan 16 13:32:44 2021
 Event    : Save Method
 Message  : Save Method to C:\MSDCHEM\1\METHODS\CP-Volamine MSD.M
 Why      : Instrument Control method save
 Severity : 1


 Modified : Sat Jan 16 13:36:20 2021
 Event    : Save Method
 Message  : Save Method to C:\MSDCHEM\1\METHODS\CP-Volamine MSD.M
 Why      : Instrument Control method save
 Severity : 1


 Modified : Sat Jan 16 13:43:22 2021
 Event    : Save Method
 Message  : Save Method to C:\MSDCHEM\1\METHODS\CP-Volamine MSD.M
 Why      : Instrument Control method save
 Severity : 1


 Modified : Sat Jan 16 13:51:19 2021
 Event    : Save Method
 Message  : Save Method to C:\MSDCHEM\1\METHODS\CP-Volamine MSD.M
 Why      : Instrument Control method save
 Severity : 1


 Modified : Sat Jan 16 13:59:26 2021
 Event    : Save Method
 Message  : Save Method to C:\MSDCHEM\1\METHODS\CP-Volamine MSD.M
 Why      : Instrument Control method save
 Severity : 1


 Modified : Sat Jan 16 14:03:22 2021
 Event    : Save Method
 Message  : Save Method to C:\MSDCHEM\1\METHODS\CP-Volamine MSD.M
 Why      : Instrument Control method save
 Severity : 1


 Modified : Sat Jan 16 14:20:22 2021
 Event    : Save Method
 Message  : Save Method to C:\MSDCHEM\1\METHODS\CP-Volamine MSD.M
 Why      : Instrument Control method save
 Severity : 1


 Modified : Sat Jan 16 14:28:40 2021
 Event    : Save Method
 Message  : Save Method to C:\MSDCHEM\1\METHODS\CP-Volamine MSD.M
 Why      : Instrument Control method save
 Severity : 1


 Modified : Sat Jan 16 14:38:08 2021
 Event    : Save Method
 Message  : Save Method to C:\MSDCHEM\1\METHODS\CP-Volamine MSD.M
 Why      : Instrument Control method save
 Severity : 1


 Modified : Sat Jan 16 14:44:50 2021
 Event    : Save Method
 Message  : Save Method to C:\MSDCHEM\1\METHODS\CP-Volamine MSD.M
 Why      : Instrument Control method save
 Severity : 1


 Modified : Sat Jan 16 15:09:54 2021
 Event    : Save Method
 Message  : Save Method to C:\MSDCHEM\1\METHODS\CP-Volamine MSD.M
 Why      : Instrument Control method save
 Severity : 1


 Modified : Mon Jan 18 10:32:47 2021
 Event    : Save Method
 Message  : Save Method to C:\MSDCHEM\1\METHODS\CP-Volamine MSD.M
 Why      : Instrument Control method save
 Severity : 1


 Modified : Mon Jan 18 11:28:59 2021
 Event    : Save Method
 Message  : Save Method to C:\MSDCHEM\1\METHODS\CP-Volamine MSD.M
 Why      : Instrument Control method save
 Severity : 1


 Modified : Thu Jan 21 21:19:25 2021
 Event    : Save Method
 Message  : Save Method to C:\MSDCHEM\1\METHODS\CP-Volamine MSD.M
 Why      : Instrument Control method save
 Severity : 1


 Modified : Fri Jan 22 11:57:46 2021
 Event    : Save Method
 Message  : Save Method to C:\MSDCHEM\1\METHODS\CP-Volamine MSD.M
 Why      : Instrument Control method save
 Severity : 1


 Modified : Mon Jan 25 14:47:56 2021
 Event    : Save Method
 Message  : Save Method to C:\MSDCHEM\1\METHODS\CP-Volamine MSD.M
 Why      : Instrument Control method save
 Severity : 1


 Modified : Mon Jan 25 14:58:37 2021
 Event    : Save Method
 Message  : Save Method to C:\MSDCHEM\1\METHODS\CP-Volamine MSD.M
 Why      : Instrument Control method save
 Severity : 1


 Modified : Tue Jan 26 14:53:27 2021
 Event    : Save Method
 Message  : Save Method to C:\MSDCHEM\1\METHODS\CP-Volamine MSD.M
 Why      : Instrument Control method save
 Severity : 1


 Modified : Tue Jan 26 14:53:32 2021
 Event    : Save Method
 Message  : Save Method to C:\MSDCHEM\1\METHODS\CP-Volamine MSD.M
 Why      : Instrument Control method save
 Severity : 1


 Modified : Wed Jan 27 18:43:30 2021
 Event    : Save Method
 Message  : Save Method to C:\MSDCHEM\1\METHODS\CP-Volamine MSD.M
 Why      : Instrument Control method save
 Severity : 1


 Modified : Wed Jan 27 18:43:33 2021
 Event    : Save Method
 Message  : Save Method to C:\MSDCHEM\1\METHODS\CP-Volamine MSD.M
 Why      : Instrument Control method save
 Severity : 1


 Modified : Fri Jan 29 14:47:39 2021
 Event    : Save Method
 Message  : Save Method to C:\MSDCHEM\1\METHODS\CP-Volamine MSD.M
 Why      : Instrument Control method save
 Severity : 1


 Modified : Fri Jan 29 14:47:43 2021
 Event    : Save Method
 Message  : Save Method to C:\MSDCHEM\1\METHODS\CP-Volamine MSD.M
 Why      : Instrument Control method save
 Severity : 1


 Modified : Mon Feb 01 10:56:09 2021
 Event    : Save Method
 Message  : Save Method to C:\MSDCHEM\1\METHODS\CP-Volamine MSD.M
 Why      : Instrument Control method save
 Severity : 1


 Modified : Mon Feb 01 10:56:11 2021
 Event    : Save Method
 Message  : Save Method to C:\MSDCHEM\1\METHODS\CP-Volamine MSD.M
 Why      : Instrument Control method save
 Severity : 1


 Modified : Fri Apr 09 17:59:56 2021
 Event    : Save Method
 Message  : Save Method to C:\MSDCHEM\1\METHODS\CP-Volamine MSD.M
 Why      : Instrument Control method save
 Severity : 1

