[contents]
count=6
Name=,C:\Zhenchen\Ammox test 2021\0413\0413-1.D
1=,INT EIC Ion  17.00 (16.70 to 17.70): 0413-1.D\data.ms
2=,INT EIC Ion  32.00 (31.70 to 32.70): 0413-1.D\data.ms
3=,INT EIC Ion  28.00 (27.70 to 28.70): 0413-1.D\data.ms
4=,INT EIC Ion  44.00 (43.70 to 44.70): 0413-1.D\data.ms
5=,INT EIC Ion  30.00 (29.70 to 30.70): 0413-1.D\data.ms
6=,INT EIC Ion  40.00 (39.70 to 40.70): 0413-1.D\data.ms
[INT EIC Ion  17.00 (16.70 to 17.70): 0413-1.D\data.ms]
Time=,Tue Apr 13 19:19:32 2021
Header=,"Peak","R.T.","First","Max","Last","PK  TY","Height","Area","Pct Max","Pct Total"
1=,  1,  1.986, 2304,2347,2407,"  M2", 120130,  1670096,100.00,100.000
[INT EIC Ion  32.00 (31.70 to 32.70): 0413-1.D\data.ms]
Time=,Tue Apr 13 19:19:32 2021
Header=,"Peak","R.T.","First","Max","Last","PK  TY","Height","Area","Pct Max","Pct Total"
1=,  1,  1.893, 2187,2232,2319,"  M2", 393425,  4961602,100.00,100.000
[INT EIC Ion  28.00 (27.70 to 28.70): 0413-1.D\data.ms]
Time=,Tue Apr 13 19:19:32 2021
Header=,"Peak","R.T.","First","Max","Last","PK  TY","Height","Area","Pct Max","Pct Total"
1=,  1,  1.886, 2180,2223,2279,"  M2",  34572,   400241,100.00,100.000
[INT EIC Ion  44.00 (43.70 to 44.70): 0413-1.D\data.ms]
Time=,Tue Apr 13 19:19:32 2021
Header=,"Peak","R.T.","First","Max","Last","PK  TY","Height","Area","Pct Max","Pct Total"
1=,  1,  1.966, 2279,2323,2401,"  M2", 245351,  2894602,100.00,100.000
[INT EIC Ion  30.00 (29.70 to 30.70): 0413-1.D\data.ms]
Time=,Tue Apr 13 19:19:32 2021
Header=,"Peak","R.T.","First","Max","Last","PK  TY","Height","Area","Pct Max","Pct Total"
1=,  1,  1.895, 2206,2235,2270,"  M2",   6304,    73113,100.00,100.000
[INT EIC Ion  40.00 (39.70 to 40.70): 0413-1.D\data.ms]
Time=,Tue Apr 13 19:19:32 2021
Header=,"Peak","R.T.","First","Max","Last","PK  TY","Height","Area","Pct Max","Pct Total"
1=,  1,  1.896, 2191,2236,2348,"  M3", 612560,  7603250,100.00,100.000
