[contents]
count=6
Name=,C:\Zhenchen\Ammox test 2021\0525\0525-3.5.D
1=,INT EIC Ion  17.00 (16.70 to 17.70): 0525-3.5.D\data.ms
2=,INT EIC Ion  32.00 (31.70 to 32.70): 0525-3.5.D\data.ms
3=,INT EIC Ion  28.00 (27.70 to 28.70): 0525-3.5.D\data.ms
4=,INT EIC Ion  44.00 (43.70 to 44.70): 0525-3.5.D\data.ms
5=,INT EIC Ion  30.00 (29.70 to 30.70): 0525-3.5.D\data.ms
6=,INT EIC Ion  40.00 (39.70 to 40.70): 0525-3.5.D\data.ms
[INT EIC Ion  17.00 (16.70 to 17.70): 0525-3.5.D\data.ms]
Time=,Tue May 25 15:55:14 2021
Header=,"Peak","R.T.","First","Max","Last","PK  TY","Height","Area","Pct Max","Pct Total"
1=,  1,  1.986, 2308,2347,2410,"  M3", 121500,  1684649,100.00,100.000
[INT EIC Ion  32.00 (31.70 to 32.70): 0525-3.5.D\data.ms]
Time=,Tue May 25 15:55:14 2021
Header=,"Peak","R.T.","First","Max","Last","PK  TY","Height","Area","Pct Max","Pct Total"
1=,  1,  1.893, 2196,2232,2331,"  M3", 389945,  4921107,100.00,100.000
[INT EIC Ion  28.00 (27.70 to 28.70): 0525-3.5.D\data.ms]
Time=,Tue May 25 15:55:14 2021
Header=,"Peak","R.T.","First","Max","Last","PK  TY","Height","Area","Pct Max","Pct Total"
1=,  1,  1.885, 2191,2223,2266,"  M2",  23123,   273010,100.00,100.000
[INT EIC Ion  44.00 (43.70 to 44.70): 0525-3.5.D\data.ms]
Time=,Tue May 25 15:55:14 2021
Header=,"Peak","R.T.","First","Max","Last","PK  TY","Height","Area","Pct Max","Pct Total"
1=,  1,  1.967, 2286,2324,2410,"  M3", 199983,  2385053,100.00,100.000
[INT EIC Ion  30.00 (29.70 to 30.70): 0525-3.5.D\data.ms]
Time=,Tue May 25 15:55:14 2021
Header=,"Peak","R.T.","First","Max","Last","PK  TY","Height","Area","Pct Max","Pct Total"
1=,  1,  1.895, 2195,2235,2282,"  M2",  19264,   233994,100.00,100.000
[INT EIC Ion  40.00 (39.70 to 40.70): 0525-3.5.D\data.ms]
Time=,Tue May 25 15:55:14 2021
Header=,"Peak","R.T.","First","Max","Last","PK  TY","Height","Area","Pct Max","Pct Total"
1=,  1,  1.897, 2195,2238,2335,"  M3", 536349,  6765601,100.00,100.000
