Additional Information for Installation.M
File created Tue Nov 24 12:02:09 2020

Method : C:\MSDCHEM\1\METHODS\DEFAULT\DEFAULT.597X.M
Renamed: C:\MSDCHEM\1\METHODS\Installation.M
Tue Nov 24 12:02:09 2020
-----------------------------------------

Method : C:\MSDCHEM\1\METHODS\TEST 5 TCD.M
Renamed: C:\MSDCHEM\1\METHODS\Standby TCD.M
Mon Dec 14 20:00:04 2020
-----------------------------------------

Method : C:\MSDCHEM\1\METHODS\TEST GP6-DB1 MS-TCD.M
Renamed: C:\MSDCHEM\1\METHODS\TEST GP6-CPVA MS-TCD.M
Tue Jan 12 13:39:54 2021
-----------------------------------------
