﻿
SetupTitle, Solar Cell-Jinno
PrimitiveTest, I/V Sweep
TestParameter, Context.MainFrame, B1500A
TestParameter, Channel.UnitType, SMU, SMU
TestParameter, Channel.Unit, SMU1:HP, SMU2:HR
TestParameter, Channel.IName, I1, I2
TestParameter, Channel.VName, V1, V2
TestParameter, Channel.Mode, V, V
TestParameter, Channel.Func, VAR1, CONST
TestParameter, Channel.Index, 
TestParameter, Channel.Time, 
TestParameter, Measurement.Port.Unit, SMU1:HP, SMU2:HR
TestParameter, Measurement.Port.SeriesResistor, NONE, NONE
TestParameter, Measurement.Port.Filter, ON, ON
TestParameter, Measurement.Port.OutputVoltageComparison, 0, 0
TestParameter, Measurement.Primary.Locus, Double
TestParameter, Measurement.Primary.Scale, LINEAR
TestParameter, Measurement.Primary.Start, -0.2
TestParameter, Measurement.Primary.Stop, 1.1
TestParameter, Measurement.Primary.Step, 0.01
TestParameter, Measurement.Primary.Compliance, 0.01
TestParameter, Measurement.Primary.PowerCompliance, 1
TestParameter, Measurement.Aborting.Condition, SKIP AT ANY ABNORMAL
TestParameter, Measurement.PostOutput.Value, START
TestParameter, Measurement.PostOutput.Retention, OFF
TestParameter, Measurement.Bias.Source, -0.2, 0
TestParameter, Measurement.Bias.Compliance, 0.01, 0.1
TestParameter, Measurement.Monitor.Unit, SMU1:HP, SMU2:HR
TestParameter, Measurement.Monitor.Adc, HR ADC, HR ADC
TestParameter, Measurement.Monitor.Measurement, Compliance Side, Compliance Side
TestParameter, Measurement.Monitor.RangingMode, LIMITED, LIMITED
TestParameter, Measurement.Monitor.RangeBoundary, 1nA, 1nA
TestParameter, Measurement.Monitor.RangeRating, BY FULL RANGE, BY FULL RANGE
TestParameter, Measurement.Monitor.RangeRatingCoeff, 50, 50
TestParameter, Measurement.Timing.Hold, 1
TestParameter, Measurement.Timing.Delay, 0
TestParameter, Measurement.Adc.HighSpeed.Mode, AUTO
TestParameter, Measurement.Adc.HighSpeed.Coeff, 1
TestParameter, Measurement.Adc.HighResolution.AutoZero, OFF
TestParameter, Measurement.Adc.HighResolution.Mode, PLC
TestParameter, Measurement.Adc.HighResolution.Coeff, 8
TestParameter, Measurement.WaitTime.Source.Coeff, 1
TestParameter, Measurement.WaitTime.Source.Offset, 0
TestParameter, Measurement.WaitTime.Monitor.Coeff, 1
TestParameter, Measurement.WaitTime.Monitor.Offset, 0
TestParameter, Function.Analysis.Name, r1
TestParameter, Function.Analysis.Unit, ohm
TestParameter, Function.Analysis.Definition, V1/I1
TestParameter, Output.Graph.Enabled, true
TestParameter, Output.Graph.XAxis.Data, V1
TestParameter, Output.Graph.XAxis.Scale, Linear
TestParameter, Output.Graph.XAxis.Left, -0.2
TestParameter, Output.Graph.XAxis.Right, 1.2
TestParameter, Output.Graph.YAxis.Data, I1
TestParameter, Output.Graph.YAxis.Scale, Linear
TestParameter, Output.Graph.YAxis.Bottom, -0.1
TestParameter, Output.Graph.YAxis.Top, 0.1
TestParameter, Output.Graph.YAxis.Group, 
TestParameter, Output.List.Data, V1, I1, r1
TestParameter, AutoAnalysis.Interpolation, false
TestParameter, AutoAnalysis.Line1.Enabled, false
TestParameter, AutoAnalysis.Line1.Type, 1
TestParameter, AutoAnalysis.Line1.Fix, True
TestParameter, AutoAnalysis.Line1.YAxis, 0
TestParameter, AutoAnalysis.Line1.Point1.Type, 0
TestParameter, AutoAnalysis.Line1.Point1.XY.X, 
TestParameter, AutoAnalysis.Line1.Point1.XY.Y, 
TestParameter, AutoAnalysis.Line1.Point1.Data.Var, 
TestParameter, AutoAnalysis.Line1.Point1.Data.Condition, 
TestParameter, AutoAnalysis.Line1.Point1.Data.Start, false
TestParameter, AutoAnalysis.Line1.Point1.Data.StartVar, 
TestParameter, AutoAnalysis.Line1.Point1.Data.StartCondition, 
TestParameter, AutoAnalysis.Line1.Point2.Type, 0
TestParameter, AutoAnalysis.Line1.Point2.XY.X, 
TestParameter, AutoAnalysis.Line1.Point2.XY.Y, 
TestParameter, AutoAnalysis.Line1.Point2.Data.Var, 
TestParameter, AutoAnalysis.Line1.Point2.Data.Condition, 
TestParameter, AutoAnalysis.Line1.Point2.Data.Start, false
TestParameter, AutoAnalysis.Line1.Point2.Data.StartVar, 
TestParameter, AutoAnalysis.Line1.Point2.Data.StartCondition, 
TestParameter, AutoAnalysis.Line1.GradientExpr, 0
TestParameter, AutoAnalysis.Line2.Enabled, false
TestParameter, AutoAnalysis.Line2.Type, 1
TestParameter, AutoAnalysis.Line2.Fix, True
TestParameter, AutoAnalysis.Line2.YAxis, 0
TestParameter, AutoAnalysis.Line2.Point1.Type, 0
TestParameter, AutoAnalysis.Line2.Point1.XY.X, 
TestParameter, AutoAnalysis.Line2.Point1.XY.Y, 
TestParameter, AutoAnalysis.Line2.Point1.Data.Var, 
TestParameter, AutoAnalysis.Line2.Point1.Data.Condition, 
TestParameter, AutoAnalysis.Line2.Point1.Data.Start, false
TestParameter, AutoAnalysis.Line2.Point1.Data.StartVar, 
TestParameter, AutoAnalysis.Line2.Point1.Data.StartCondition, 
TestParameter, AutoAnalysis.Line2.Point2.Type, 0
TestParameter, AutoAnalysis.Line2.Point2.XY.X, 
TestParameter, AutoAnalysis.Line2.Point2.XY.Y, 
TestParameter, AutoAnalysis.Line2.Point2.Data.Var, 
TestParameter, AutoAnalysis.Line2.Point2.Data.Condition, 
TestParameter, AutoAnalysis.Line2.Point2.Data.Start, false
TestParameter, AutoAnalysis.Line2.Point2.Data.StartVar, 
TestParameter, AutoAnalysis.Line2.Point2.Data.StartCondition, 
TestParameter, AutoAnalysis.Line2.GradientExpr, 0
TestParameter, AutoAnalysis.Marker.Enabled, false
TestParameter, AutoAnalysis.Marker.Data.Var, 
TestParameter, AutoAnalysis.Marker.Data.Condition, 
TestParameter, AutoAnalysis.Marker.Data.Start, false
TestParameter, AutoAnalysis.Marker.Data.StartVar, 
TestParameter, AutoAnalysis.Marker.Data.StartCondition, 
MetaData, TestRecord.EntryPoint, true
MetaData, TestRecord.RecordTime, 12/07/2021 16:21:19
MetaData, TestRecord.TestTarget, 
MetaData, TestRecord.IterationIndex, 24
MetaData, TestRecord.Preservation, true
MetaData, TestRecord.Flag, 
MetaData, TestRecord.Remarks, 
MetaData, TestRecord.LinkKey, 7a1e91a3-796b-42f8-8d4b-bd2080104473
AnalysisSetup, Analysis.Setup.Vector.Graph.Enabled, true
AnalysisSetup, Analysis.Setup.Vector.Graph.ActiveYAxis, 0
AnalysisSetup, Analysis.Setup.Vector.Graph.LeftYAxis, 0
AnalysisSetup, Analysis.Setup.Vector.Graph.RightYAxis, -1
AnalysisSetup, Analysis.Setup.Vector.Graph.XAxis.Name, V1
AnalysisSetup, Analysis.Setup.Vector.Graph.XAxis.GroupName, 
AnalysisSetup, Analysis.Setup.Vector.Graph.XAxis.Unit, V
AnalysisSetup, Analysis.Setup.Vector.Graph.XAxis.Scale, Linear
AnalysisSetup, Analysis.Setup.Vector.Graph.XAxis.Left, -0.2
AnalysisSetup, Analysis.Setup.Vector.Graph.XAxis.Right, 1.2
AnalysisSetup, Analysis.Setup.Vector.Graph.YAxis.Name, I1
AnalysisSetup, Analysis.Setup.Vector.Graph.YAxis.GroupName, 
AnalysisSetup, Analysis.Setup.Vector.Graph.YAxis.Unit, A
AnalysisSetup, Analysis.Setup.Vector.Graph.YAxis.Scale, Linear
AnalysisSetup, Analysis.Setup.Vector.Graph.YAxis.Bottom, -0.0038
AnalysisSetup, Analysis.Setup.Vector.Graph.YAxis.Top, 0.001
AnalysisSetup, Analysis.Setup.Vector.Graph.Operation.Marker.Enabled, false
AnalysisSetup, Analysis.Setup.Vector.Graph.Operation.Marker.Interpolation, false
AnalysisSetup, Analysis.Setup.Vector.Graph.Operation.Marker.Index, 0
AnalysisSetup, Analysis.Setup.Vector.Graph.Operation.Marker.Step, 0
AnalysisSetup, Analysis.Setup.Vector.Graph.Operation.Cursor.Enabled, false
AnalysisSetup, Analysis.Setup.Vector.Graph.Operation.Cursor.Active, true
AnalysisSetup, Analysis.Setup.Vector.Graph.Operation.Cursor.NormalX, 0.5
AnalysisSetup, Analysis.Setup.Vector.Graph.Operation.Cursor.NormalY, 0.79166666666666663
AnalysisSetup, Analysis.Setup.Vector.Graph.Operation.Line1.Enabled, false
AnalysisSetup, Analysis.Setup.Vector.Graph.Operation.Line1.Active, false
AnalysisSetup, Analysis.Setup.Vector.Graph.Operation.Line1.Fix, false
AnalysisSetup, Analysis.Setup.Vector.Graph.Operation.Line1.Type, 1
AnalysisSetup, Analysis.Setup.Vector.Graph.Operation.Line1.YAxisIndex, 0
AnalysisSetup, Analysis.Setup.Vector.Graph.Operation.Line1.LastIndex, -1
AnalysisSetup, Analysis.Setup.Vector.Graph.Operation.Line1.LastStep, -1
AnalysisSetup, Analysis.Setup.Vector.Graph.Operation.Line1.Cursor1.Enabled, false
AnalysisSetup, Analysis.Setup.Vector.Graph.Operation.Line1.Cursor1.Active, false
AnalysisSetup, Analysis.Setup.Vector.Graph.Operation.Line1.Cursor1.NormalX, 0.5
AnalysisSetup, Analysis.Setup.Vector.Graph.Operation.Line1.Cursor1.NormalY, 0.79166666666666663
AnalysisSetup, Analysis.Setup.Vector.Graph.Operation.Line1.Cursor2.Enabled, false
AnalysisSetup, Analysis.Setup.Vector.Graph.Operation.Line1.Cursor2.Active, false
AnalysisSetup, Analysis.Setup.Vector.Graph.Operation.Line1.Cursor2.NormalX, 0.5
AnalysisSetup, Analysis.Setup.Vector.Graph.Operation.Line1.Cursor2.NormalY, 0.79166666666666663
AnalysisSetup, Analysis.Setup.Vector.Graph.Operation.Line1.Gradient, 
AnalysisSetup, Analysis.Setup.Vector.Graph.Operation.Line2.Enabled, false
AnalysisSetup, Analysis.Setup.Vector.Graph.Operation.Line2.Active, false
AnalysisSetup, Analysis.Setup.Vector.Graph.Operation.Line2.Fix, false
AnalysisSetup, Analysis.Setup.Vector.Graph.Operation.Line2.Type, 1
AnalysisSetup, Analysis.Setup.Vector.Graph.Operation.Line2.YAxisIndex, 0
AnalysisSetup, Analysis.Setup.Vector.Graph.Operation.Line2.LastIndex, -1
AnalysisSetup, Analysis.Setup.Vector.Graph.Operation.Line2.LastStep, -1
AnalysisSetup, Analysis.Setup.Vector.Graph.Operation.Line2.Cursor1.Enabled, false
AnalysisSetup, Analysis.Setup.Vector.Graph.Operation.Line2.Cursor1.Active, false
AnalysisSetup, Analysis.Setup.Vector.Graph.Operation.Line2.Cursor1.NormalX, 0.5
AnalysisSetup, Analysis.Setup.Vector.Graph.Operation.Line2.Cursor1.NormalY, 0.79166666666666663
AnalysisSetup, Analysis.Setup.Vector.Graph.Operation.Line2.Cursor2.Enabled, false
AnalysisSetup, Analysis.Setup.Vector.Graph.Operation.Line2.Cursor2.Active, false
AnalysisSetup, Analysis.Setup.Vector.Graph.Operation.Line2.Cursor2.NormalX, 0.5
AnalysisSetup, Analysis.Setup.Vector.Graph.Operation.Line2.Cursor2.NormalY, 0.79166666666666663
AnalysisSetup, Analysis.Setup.Vector.Graph.Operation.Line2.Gradient, 
AnalysisSetup, Analysis.Setup.Vector.Graph.Preference.BackgroundColor, -1
AnalysisSetup, Analysis.Setup.Vector.Graph.Preference.TextColor, -16777216
AnalysisSetup, Analysis.Setup.Vector.Graph.Preference.GridColor, -3618616
AnalysisSetup, Analysis.Setup.Vector.Graph.Preference.LineColor, -65336
AnalysisSetup, Analysis.Setup.Vector.Graph.Preference.Plots.Y1.Visible, true
AnalysisSetup, Analysis.Setup.Vector.Graph.Preference.Plots.Y1.PlotColor, -16777036
AnalysisSetup, Analysis.Setup.Vector.Graph.Preference.Plots.Y1.Thickness, 1
AnalysisSetup, Analysis.Setup.Vector.Graph.Preference.Plots.Y2.Visible, true
AnalysisSetup, Analysis.Setup.Vector.Graph.Preference.Plots.Y2.PlotColor, -39936
AnalysisSetup, Analysis.Setup.Vector.Graph.Preference.Plots.Y2.Thickness, 1
AnalysisSetup, Analysis.Setup.Vector.Graph.Preference.Plots.Y3.Visible, true
AnalysisSetup, Analysis.Setup.Vector.Graph.Preference.Plots.Y3.PlotColor, -16731136
AnalysisSetup, Analysis.Setup.Vector.Graph.Preference.Plots.Y3.Thickness, 1
AnalysisSetup, Analysis.Setup.Vector.Graph.Preference.Plots.Y4.Visible, true
AnalysisSetup, Analysis.Setup.Vector.Graph.Preference.Plots.Y4.PlotColor, -8892376
AnalysisSetup, Analysis.Setup.Vector.Graph.Preference.Plots.Y4.Thickness, 1
AnalysisSetup, Analysis.Setup.Vector.Graph.Preference.Plots.Y5.Visible, true
AnalysisSetup, Analysis.Setup.Vector.Graph.Preference.Plots.Y5.PlotColor, -65536
AnalysisSetup, Analysis.Setup.Vector.Graph.Preference.Plots.Y5.Thickness, 1
AnalysisSetup, Analysis.Setup.Vector.Graph.Preference.Plots.Y6.Visible, true
AnalysisSetup, Analysis.Setup.Vector.Graph.Preference.Plots.Y6.PlotColor, -14336
AnalysisSetup, Analysis.Setup.Vector.Graph.Preference.Plots.Y6.Thickness, 1
AnalysisSetup, Analysis.Setup.Vector.Graph.Preference.Plots.Y7.Visible, true
AnalysisSetup, Analysis.Setup.Vector.Graph.Preference.Plots.Y7.PlotColor, -6946586
AnalysisSetup, Analysis.Setup.Vector.Graph.Preference.Plots.Y7.Thickness, 1
AnalysisSetup, Analysis.Setup.Vector.Graph.Preference.Plots.Y8.Visible, true
AnalysisSetup, Analysis.Setup.Vector.Graph.Preference.Plots.Y8.PlotColor, -16733546
AnalysisSetup, Analysis.Setup.Vector.Graph.Preference.Plots.Y8.Thickness, 1
AnalysisSetup, Analysis.Setup.Vector.Graph.Preference.Text.AxisTitle.FontName, Tahoma
AnalysisSetup, Analysis.Setup.Vector.Graph.Preference.Text.AxisTitle.RelativeSize, Medium
AnalysisSetup, Analysis.Setup.Vector.Graph.Preference.Text.AxisTitle.Size, 7
AnalysisSetup, Analysis.Setup.Vector.Graph.Preference.Text.ScaleText.FontName, Tahoma
AnalysisSetup, Analysis.Setup.Vector.Graph.Preference.Text.ScaleText.RelativeSize, Medium
AnalysisSetup, Analysis.Setup.Vector.Graph.Preference.Text.ScaleText.Size, 7
AnalysisSetup, Analysis.Setup.Vector.Graph.Preference.Text.Legend.FontName, Tahoma
AnalysisSetup, Analysis.Setup.Vector.Graph.Preference.Text.Legend.RelativeSize, Medium
AnalysisSetup, Analysis.Setup.Vector.Graph.Preference.Text.Legend.Size, 7
AnalysisSetup, Analysis.Setup.Vector.Graph.Preference.Scale.LogTickedDecadeCount, 6
AnalysisSetup, Analysis.Setup.Vector.Graph.Preference.LogoVisible, true
AnalysisSetup, Analysis.Setup.Vector.Graph.Preference.GridVisible, true
AnalysisSetup, Analysis.Setup.Vector.Graph.Preference.SetupSummaryVisible, false
AnalysisSetup, Analysis.Setup.Vector.Graph.Notes, V1: [ -200 m, 1.1 ] V / 131; I1: 10 mA; 1 W	V2: 0 V; I2: 100 mA
AnalysisSetup, Analysis.Setup.Vector.List.Datum.Name, V1, I1, r1
AnalysisSetup, Analysis.Setup.Vector.List.Datum.Unit, V, A, ohm
AnalysisSetup, Analysis.Setup.Preference.GraphVisible, true
AnalysisSetup, Analysis.Setup.Preference.ListVisible, true
AnalysisSetup, Analysis.Setup.Preference.ScalarVisible, true
AnalysisSetup, Analysis.Setup.Title, Solar Cell-Jinno
Dimension1, 262, 262, 262
Dimension2, 1, 1, 1
DataName, V1, I1, r1
DataValue, -0.2, -0.00354398, 56.433727052635739
DataValue, -0.19, -0.00354352, 53.619000316069894
DataValue, -0.18000000000000002, -0.0035427, 50.808705224828522
DataValue, -0.17, -0.00354184, 47.997650938495248
DataValue, -0.16, -0.00354088, 45.186507308917555
DataValue, -0.15, -0.00354001, 42.372761658865365
DataValue, -0.14, -0.00353908, 39.558303287860127
DataValue, -0.13, -0.00353822, 36.741638450972523
DataValue, -0.12000000000000001, -0.00353733, 33.923891748861429
DataValue, -0.11, -0.00353646, 31.104550878562179
DataValue, -0.1, -0.00353592, 28.281182832190773
DataValue, -0.090000000000000011, -0.00353467, 25.462065765686756
DataValue, -0.08, -0.00353406, 22.636853930040804
DataValue, -0.07, -0.0035334100000000003, 19.810890895763581
DataValue, -0.060000000000000005, -0.00353213, 16.98691724257035
DataValue, -0.05, -0.00353156, 14.158049134093716
DataValue, -0.04, -0.00353073, 11.329101913768541
DataValue, -0.030000000000000002, -0.0035298400000000002, 8.4989687917865968
DataValue, -0.02, -0.0035287, 5.6678096749511155
DataValue, -0.01, -0.00352775, 2.8346679895117286
DataValue, 0, -0.00352688, -0
DataValue, 0.01, -0.00352594, -2.8361231331219479
DataValue, 0.02, -0.00352488, -5.67395202106171
DataValue, 0.030000000000000002, -0.00352395, -8.5131741369769731
DataValue, 0.04, -0.00352298, -11.354024150009368
DataValue, 0.05, -0.00352189, -14.196922675040959
DataValue, 0.060000000000000005, -0.0035208, -17.041581458759374
DataValue, 0.07, -0.0035196900000000002, -19.888115146504379
DataValue, 0.08, -0.00351873, -22.735475583520191
DataValue, 0.090000000000000011, -0.00351767, -25.585117421475012
DataValue, 0.1, -0.0035165, -28.437366699843594
DataValue, 0.11, -0.00351546, -31.290357449665191
DataValue, 0.12000000000000001, -0.0035142800000000003, -34.146396986011361
DataValue, 0.13, -0.0035136200000000003, -36.998878649370162
DataValue, 0.14, -0.00351199, -39.863439246694895
DataValue, 0.15, -0.00351088, -42.72433122180194
DataValue, 0.16, -0.0035095400000000002, -45.590020344546573
DataValue, 0.17, -0.00350879, -48.44975048378501
DataValue, 0.18000000000000002, -0.00350765, -51.316408421592804
DataValue, 0.19, -0.00350631, -54.188021024952157
DataValue, 0.2, -0.0035042000000000003, -57.074367901375489
DataValue, 0.21000000000000002, -0.0035039100000000003, -59.933046225502366
DataValue, 0.22, -0.00350257, -62.811021621266669
DataValue, 0.23, -0.00350098, -65.695890864843562
DataValue, 0.24000000000000002, -0.0034993800000000003, -68.58357766232875
DataValue, 0.25, -0.00349786, -71.472271617503267
DataValue, 0.26, -0.00349612, -74.368156699426791
DataValue, 0.27, -0.0034944200000000003, -77.2660412886831
DataValue, 0.28, -0.0034926000000000002, -80.169501231174479
DataValue, 0.29000000000000004, -0.00349096, -83.071705204299121
DataValue, 0.3, -0.00348879, -85.98969843412759
DataValue, 0.31, -0.00348667, -88.910048843165541
DataValue, 0.32, -0.00348451, -91.835006930673174
DataValue, 0.33, -0.00348231, -94.76468206449168
DataValue, 0.34, -0.00347985, -97.7053608632556
DataValue, 0.35000000000000003, -0.0034774000000000003, -100.6499108529361
DataValue, 0.36000000000000004, -0.00347469, -103.6063648843494
DataValue, 0.37, -0.00347184, -106.5717314161943
DataValue, 0.38, -0.00346881, -109.54765467119847
DataValue, 0.39, -0.00346582, -112.52748267365298
DataValue, 0.4, -0.00346231, -115.52980524563081
DataValue, 0.41000000000000003, -0.00345862, -118.54439053726632
DataValue, 0.42000000000000004, -0.00345482, -121.56928580939095
DataValue, 0.43, -0.00345057, -124.61709224852706
DataValue, 0.44, -0.00344635, -127.67130442352054
DataValue, 0.45, -0.00344151, -130.75655744135568
DataValue, 0.46, -0.0034365900000000002, -133.8536165210281
DataValue, 0.47000000000000003, -0.00343099, -136.98670063159614
DataValue, 0.48000000000000004, -0.00342514, -140.14025704058813
DataValue, 0.49000000000000005, -0.0034187600000000003, -143.32682025061718
DataValue, 0.5, -0.00341174, -146.55278538223897
DataValue, 0.51, -0.0034043, -149.8105337367447
DataValue, 0.52, -0.00339625, -153.11004784688996
DataValue, 0.53, -0.0033874, -156.46218338548741
DataValue, 0.54, -0.00337783, -159.86594944091326
DataValue, 0.55, -0.00336737, -163.33221475513531
DataValue, 0.56, -0.00335577, -166.87675257839484
DataValue, 0.57000000000000006, -0.00334327, -170.49176405136291
DataValue, 0.58000000000000007, -0.00332936, -174.20765552538629
DataValue, 0.59000000000000008, -0.00331415, -178.02453117692321
DataValue, 0.6, -0.00329749, -181.95657909500861
DataValue, 0.61, -0.00327888, -186.03913531449763
DataValue, 0.62, -0.0032585500000000002, -190.26867778613186
DataValue, 0.63, -0.00323607, -194.68058478339466
DataValue, 0.64, -0.00321104, -199.31237231551148
DataValue, 0.65, -0.0031838400000000003, -204.15598773807727
DataValue, 0.66, -0.00315364, -209.28197257771973
DataValue, 0.67, -0.00312044, -214.71330966145803
DataValue, 0.68, -0.0030837300000000002, -220.51217194760889
DataValue, 0.69000000000000006, -0.0030435600000000003, -226.70819697985255
DataValue, 0.70000000000000007, -0.00299936, -233.38312173263631
DataValue, 0.71000000000000008, -0.00295089, -240.60537668296686
DataValue, 0.72000000000000008, -0.00289881, -248.37778260734581
DataValue, 0.73, -0.0028414300000000003, -256.91289245203996
DataValue, 0.74, -0.0027794, -266.24451320428869
DataValue, 0.75, -0.00271166, -276.58334746981558
DataValue, 0.76, -0.0026390800000000002, -287.97914424723763
DataValue, 0.77, -0.0025616000000000002, -300.5933791380387
DataValue, 0.78, -0.00247876, -314.67346576514063
DataValue, 0.79, -0.00239045, -330.48170846493338
DataValue, 0.8, -0.0022965900000000003, -348.34254263930433
DataValue, 0.81, -0.0021973500000000003, -368.62584476756092
DataValue, 0.82000000000000006, -0.00209287, -391.80646671795188
DataValue, 0.83000000000000007, -0.00198314, -418.52819266415889
DataValue, 0.84000000000000008, -0.00186823, -449.62344036869126
DataValue, 0.85000000000000009, -0.0017481200000000001, -486.2366427934009
DataValue, 0.86, -0.0016230300000000001, -529.87313851253509
DataValue, 0.87, -0.00149298, -582.72716312341754
DataValue, 0.88, -0.00135813, -647.94975444176919
DataValue, 0.89, -0.00121828, -730.538135732344
DataValue, 0.9, -0.00107391, -838.05905522809178
DataValue, 0.91, -0.0009263330000000001, -982.36811168337942
DataValue, 0.92, -0.00077413200000000008, -1188.4278133444941
DataValue, 0.93, -0.000616075, -1509.5564663393257
DataValue, 0.94000000000000006, -0.00045333600000000004, -2073.5172146046198
DataValue, 0.95000000000000007, -0.00028448300000000003, -3339.3911059711827
DataValue, 0.96000000000000008, -0.000136618, -7026.8925031840608
DataValue, 0.97000000000000008, 6.4224500000000008E-05, 15103.270558743157
DataValue, 0.98000000000000009, 0.000250778, 3907.8388056368585
DataValue, 0.9900000000000001, 0.000441519, 2242.2591100269751
DataValue, 1, 0.000636774, 1570.4158775326882
DataValue, 1.01, 0.00083725700000000011, 1206.3201621485396
DataValue, 1.02, 0.00104334, 977.62953591350856
DataValue, 1.03, 0.00125478, 820.86102743110348
DataValue, 1.04, 0.00147142, 706.80023378776968
DataValue, 1.05, 0.00169327, 620.101932946311
DataValue, 1.06, 0.00192063, 551.9022404106986
DataValue, 1.07, 0.00215353, 496.85864603697189
DataValue, 1.08, 0.00239301, 451.31445334536841
DataValue, 1.09, 0.00263793, 413.20277641938947
DataValue, 1.1, 0.00288855, 380.81390316941025
DataValue, 1.1, 0.00289011, 380.60835054721105
DataValue, 1.09, 0.00263241, 414.06923693497595
DataValue, 1.08, 0.00237106, 455.49248015655451
DataValue, 1.07, 0.00210886, 507.38313591229382
DataValue, 1.06, 0.0018487900000000001, 573.34797353945009
DataValue, 1.05, 0.00159059, 660.13240369925632
DataValue, 1.04, 0.0013354, 778.7928710498727
DataValue, 1.03, 0.00108342, 950.69317531520551
DataValue, 1.02, 0.00083604900000000006, 1220.024185185318
DataValue, 1.01, 0.000592945, 1703.3620318916594
DataValue, 1, 0.000354656, 2819.6336731931788
DataValue, 0.9900000000000001, 0.000121699, 8134.8244439149057
DataValue, 0.98000000000000009, -0.000120823, -8111.0384612201324
DataValue, 0.97000000000000008, -0.000344913, -2812.3033924496904
DataValue, 0.96000000000000008, -0.000560754, -1711.980654618603
DataValue, 0.95000000000000007, -0.000768578, -1236.0489111059646
DataValue, 0.94000000000000006, -0.00096881800000000009, -970.25447504071974
DataValue, 0.93, -0.0011613700000000001, -800.77839103817041
DataValue, 0.92, -0.00134584, -683.58794507519463
DataValue, 0.91, -0.0015212700000000001, -598.18441170863809
DataValue, 0.9, -0.00168707, -533.46926920637554
DataValue, 0.89, -0.00184337, -482.811372649007
DataValue, 0.88, -0.00199015, -442.17772529708816
DataValue, 0.87, -0.00212737, -408.95565886517153
DataValue, 0.86, -0.00225465, -381.43392544297342
DataValue, 0.85000000000000009, -0.0023723900000000003, -358.28847702106316
DataValue, 0.84000000000000008, -0.00248095, -338.57997944335841
DataValue, 0.83000000000000007, -0.0025802, -321.68048988450511
DataValue, 0.82000000000000006, -0.00267035, -307.07585148014306
DataValue, 0.81, -0.00275231, -294.29824402047734
DataValue, 0.8, -0.00282634, -283.05157907399678
DataValue, 0.79, -0.00289309, -273.06443975126939
DataValue, 0.78, -0.00295299, -264.13905905539809
DataValue, 0.77, -0.00300664, -256.09983237101881
DataValue, 0.76, -0.0030544500000000002, -248.81729935012848
DataValue, 0.75, -0.0030976800000000002, -242.11668087084527
DataValue, 0.74, -0.0031357200000000003, -235.99045833173878
DataValue, 0.73, -0.00316967, -230.30788694091183
DataValue, 0.72000000000000008, -0.0032, -225.00000000000003
DataValue, 0.71000000000000008, -0.00322682, -220.030866301808
DataValue, 0.70000000000000007, -0.00325084, -215.3289611300464
DataValue, 0.69000000000000006, -0.0032724300000000002, -210.85248576745721
DataValue, 0.68, -0.0032917800000000002, -206.57516601960035
DataValue, 0.67, -0.00330891, -202.48359731754567
DataValue, 0.66, -0.00332438, -198.53326033726592
DataValue, 0.65, -0.00333843, -194.70230018302019
DataValue, 0.64, -0.00335074, -191.00258450372158
DataValue, 0.63, -0.00336216, -187.37954172317797
DataValue, 0.62, -0.00337235, -183.84805847554375
DataValue, 0.61, -0.0033818200000000002, -180.37624710954455
DataValue, 0.6, -0.00339027, -176.977054924829
DataValue, 0.59000000000000008, -0.00339813, -173.62490546271039
DataValue, 0.58000000000000007, -0.0034052, -170.32773405380007
DataValue, 0.57000000000000006, -0.00341191, -167.06185098669076
DataValue, 0.56, -0.00341806, -163.83562605688607
DataValue, 0.55, -0.00342352, -160.65336262092816
DataValue, 0.54, -0.00342859, -157.49914687962107
DataValue, 0.53, -0.00343334, -154.36863229391787
DataValue, 0.52, -0.00343778, -151.26040642507664
DataValue, 0.51, -0.00344204, -148.16794691520147
DataValue, 0.5, -0.0034457800000000003, -145.10502701855603
DataValue, 0.49000000000000005, -0.0034496, -142.04545454545456
DataValue, 0.48000000000000004, -0.00345298, -139.01036206407221
DataValue, 0.47000000000000003, -0.00345619, -135.98789418405818
DataValue, 0.46, -0.00345897, -132.98756566261056
DataValue, 0.45, -0.00346164, -129.99618677852115
DataValue, 0.44, -0.00346439, -127.00648599031865
DataValue, 0.43, -0.00346683, -124.03261769397403
DataValue, 0.42000000000000004, -0.00346914, -121.06746917103376
DataValue, 0.41000000000000003, -0.00347144, -118.10660705643768
DataValue, 0.4, -0.0034737, -115.15099173791634
DataValue, 0.39, -0.00347568, -112.20825852782765
DataValue, 0.38, -0.00347768, -109.26824779738217
DataValue, 0.37, -0.00347954, -106.33589497462307
DataValue, 0.36000000000000004, -0.0034813500000000002, -103.40816062734285
DataValue, 0.35000000000000003, -0.00348306, -100.48635395313318
DataValue, 0.34, -0.00348465, -97.5707746832537
DataValue, 0.33, -0.0034862, -94.658940967242273
DataValue, 0.32, -0.0034875, -91.756272401433691
DataValue, 0.31, -0.00348897, -88.851437530273969
DataValue, 0.3, -0.00349038, -85.950526876729754
DataValue, 0.29000000000000004, -0.00349163, -83.055764786074135
DataValue, 0.28, -0.00349319, -80.155960597619938
DataValue, 0.27, -0.003494, -77.275329135661138
DataValue, 0.26, -0.00349542, -74.38304981947806
DataValue, 0.25, -0.00349649, -71.500275991065322
DataValue, 0.24000000000000002, -0.00349735, -68.623386278182053
DataValue, 0.23, -0.00349868, -65.739078738267011
DataValue, 0.22, -0.00350009, -62.855526572173858
DataValue, 0.21000000000000002, -0.0035006300000000002, -59.989201943650144
DataValue, 0.2, -0.00350188, -57.112179743452089
DataValue, 0.19, -0.00350278, -54.242630139489208
DataValue, 0.18000000000000002, -0.00350385, -51.37206216019522
DataValue, 0.17, -0.00350458, -48.507952450792963
DataValue, 0.16, -0.0035055, -45.642561688774784
DataValue, 0.15, -0.0035057400000000002, -42.786972222697628
DataValue, 0.14, -0.00350657, -39.925054968245327
DataValue, 0.13, -0.0035072000000000002, -37.066605839416056
DataValue, 0.12000000000000001, -0.00350773, -34.210158706627936
DataValue, 0.11, -0.00350835, -31.353770290877478
DataValue, 0.1, -0.0035088800000000002, -28.499122227035407
DataValue, 0.090000000000000011, -0.00350949, -25.644751801543816
DataValue, 0.08, -0.00351009, -22.79143839616648
DataValue, 0.07, -0.00351044, -19.940520276660479
DataValue, 0.060000000000000005, -0.00351084, -17.089927196910143
DataValue, 0.05, -0.00351127, -14.239861930298725
DataValue, 0.04, -0.0035116500000000003, -11.390656813748523
DataValue, 0.030000000000000002, -0.00351204, -8.5420439402740289
DataValue, 0.02, -0.00351241, -5.6940960764830981
DataValue, 0.01, -0.0035126000000000003, -2.846894038603883
DataValue, 0, -0.0035129700000000002, -0
DataValue, -0.01, -0.00351335, 2.8462863079397156
DataValue, -0.02, -0.00351356, 5.6922323796946683
DataValue, -0.030000000000000002, -0.00351389, 8.5375467074951121
DataValue, -0.04, -0.00351417, 11.382488610397335
DataValue, -0.05, -0.00351453, 14.226653350519131
DataValue, -0.060000000000000005, -0.0035147, 17.071158278089172
DataValue, -0.07, -0.00351499, 19.914708149952066
DataValue, -0.08, -0.00351524, 22.758047814658457
DataValue, -0.090000000000000011, -0.0035156000000000002, 25.600182045738993
DataValue, -0.1, -0.00351577, 28.443271317520772
DataValue, -0.11, -0.00351595, 31.285996672307629
DataValue, -0.12000000000000001, -0.0035160300000000003, 34.129401626265988
DataValue, -0.13, -0.00351637, 36.969943435986544
DataValue, -0.14, -0.00351653, 39.811973735472186
DataValue, -0.15, -0.00351672, 42.653381560090082
DataValue, -0.16, -0.00351694, 45.494094297883954
DataValue, -0.17, -0.00351739, 48.3312910993663
DataValue, -0.18000000000000002, -0.00351741, 51.174017245643817
DataValue, -0.19, -0.00351745, 54.016403928982641
DataValue, -0.2, -0.00351765, 56.856139752391513