﻿
SetupTitle, Solar Cell-Jinno
PrimitiveTest, I/V Sweep
TestParameter, Context.MainFrame, B1500A
TestParameter, Channel.UnitType, SMU, SMU
TestParameter, Channel.Unit, SMU1:HP, SMU2:HR
TestParameter, Channel.IName, I1, I2
TestParameter, Channel.VName, V1, V2
TestParameter, Channel.Mode, V, V
TestParameter, Channel.Func, VAR1, CONST
TestParameter, Channel.Index, 
TestParameter, Channel.Time, 
TestParameter, Measurement.Port.Unit, SMU1:HP, SMU2:HR
TestParameter, Measurement.Port.SeriesResistor, NONE, NONE
TestParameter, Measurement.Port.Filter, ON, ON
TestParameter, Measurement.Port.OutputVoltageComparison, 0, 0
TestParameter, Measurement.Primary.Locus, Double
TestParameter, Measurement.Primary.Scale, LINEAR
TestParameter, Measurement.Primary.Start, -0.2
TestParameter, Measurement.Primary.Stop, 1.1
TestParameter, Measurement.Primary.Step, 0.01
TestParameter, Measurement.Primary.Compliance, 0.01
TestParameter, Measurement.Primary.PowerCompliance, 1
TestParameter, Measurement.Aborting.Condition, SKIP AT ANY ABNORMAL
TestParameter, Measurement.PostOutput.Value, START
TestParameter, Measurement.PostOutput.Retention, OFF
TestParameter, Measurement.Bias.Source, -0.2, 0
TestParameter, Measurement.Bias.Compliance, 0.01, 0.1
TestParameter, Measurement.Monitor.Unit, SMU1:HP, SMU2:HR
TestParameter, Measurement.Monitor.Adc, HR ADC, HR ADC
TestParameter, Measurement.Monitor.Measurement, Compliance Side, Compliance Side
TestParameter, Measurement.Monitor.RangingMode, LIMITED, LIMITED
TestParameter, Measurement.Monitor.RangeBoundary, 1nA, 1nA
TestParameter, Measurement.Monitor.RangeRating, BY FULL RANGE, BY FULL RANGE
TestParameter, Measurement.Monitor.RangeRatingCoeff, 50, 50
TestParameter, Measurement.Timing.Hold, 1
TestParameter, Measurement.Timing.Delay, 0
TestParameter, Measurement.Adc.HighSpeed.Mode, AUTO
TestParameter, Measurement.Adc.HighSpeed.Coeff, 1
TestParameter, Measurement.Adc.HighResolution.AutoZero, OFF
TestParameter, Measurement.Adc.HighResolution.Mode, PLC
TestParameter, Measurement.Adc.HighResolution.Coeff, 8
TestParameter, Measurement.WaitTime.Source.Coeff, 1
TestParameter, Measurement.WaitTime.Source.Offset, 0
TestParameter, Measurement.WaitTime.Monitor.Coeff, 1
TestParameter, Measurement.WaitTime.Monitor.Offset, 0
TestParameter, Function.Analysis.Name, r1
TestParameter, Function.Analysis.Unit, ohm
TestParameter, Function.Analysis.Definition, V1/I1
TestParameter, Output.Graph.Enabled, true
TestParameter, Output.Graph.XAxis.Data, V1
TestParameter, Output.Graph.XAxis.Scale, Linear
TestParameter, Output.Graph.XAxis.Left, -0.2
TestParameter, Output.Graph.XAxis.Right, 1.2
TestParameter, Output.Graph.YAxis.Data, I1
TestParameter, Output.Graph.YAxis.Scale, Linear
TestParameter, Output.Graph.YAxis.Bottom, -0.1
TestParameter, Output.Graph.YAxis.Top, 0.1
TestParameter, Output.Graph.YAxis.Group, 
TestParameter, Output.List.Data, V1, I1, r1
TestParameter, AutoAnalysis.Interpolation, false
TestParameter, AutoAnalysis.Line1.Enabled, false
TestParameter, AutoAnalysis.Line1.Type, 1
TestParameter, AutoAnalysis.Line1.Fix, True
TestParameter, AutoAnalysis.Line1.YAxis, 0
TestParameter, AutoAnalysis.Line1.Point1.Type, 0
TestParameter, AutoAnalysis.Line1.Point1.XY.X, 
TestParameter, AutoAnalysis.Line1.Point1.XY.Y, 
TestParameter, AutoAnalysis.Line1.Point1.Data.Var, 
TestParameter, AutoAnalysis.Line1.Point1.Data.Condition, 
TestParameter, AutoAnalysis.Line1.Point1.Data.Start, false
TestParameter, AutoAnalysis.Line1.Point1.Data.StartVar, 
TestParameter, AutoAnalysis.Line1.Point1.Data.StartCondition, 
TestParameter, AutoAnalysis.Line1.Point2.Type, 0
TestParameter, AutoAnalysis.Line1.Point2.XY.X, 
TestParameter, AutoAnalysis.Line1.Point2.XY.Y, 
TestParameter, AutoAnalysis.Line1.Point2.Data.Var, 
TestParameter, AutoAnalysis.Line1.Point2.Data.Condition, 
TestParameter, AutoAnalysis.Line1.Point2.Data.Start, false
TestParameter, AutoAnalysis.Line1.Point2.Data.StartVar, 
TestParameter, AutoAnalysis.Line1.Point2.Data.StartCondition, 
TestParameter, AutoAnalysis.Line1.GradientExpr, 0
TestParameter, AutoAnalysis.Line2.Enabled, false
TestParameter, AutoAnalysis.Line2.Type, 1
TestParameter, AutoAnalysis.Line2.Fix, True
TestParameter, AutoAnalysis.Line2.YAxis, 0
TestParameter, AutoAnalysis.Line2.Point1.Type, 0
TestParameter, AutoAnalysis.Line2.Point1.XY.X, 
TestParameter, AutoAnalysis.Line2.Point1.XY.Y, 
TestParameter, AutoAnalysis.Line2.Point1.Data.Var, 
TestParameter, AutoAnalysis.Line2.Point1.Data.Condition, 
TestParameter, AutoAnalysis.Line2.Point1.Data.Start, false
TestParameter, AutoAnalysis.Line2.Point1.Data.StartVar, 
TestParameter, AutoAnalysis.Line2.Point1.Data.StartCondition, 
TestParameter, AutoAnalysis.Line2.Point2.Type, 0
TestParameter, AutoAnalysis.Line2.Point2.XY.X, 
TestParameter, AutoAnalysis.Line2.Point2.XY.Y, 
TestParameter, AutoAnalysis.Line2.Point2.Data.Var, 
TestParameter, AutoAnalysis.Line2.Point2.Data.Condition, 
TestParameter, AutoAnalysis.Line2.Point2.Data.Start, false
TestParameter, AutoAnalysis.Line2.Point2.Data.StartVar, 
TestParameter, AutoAnalysis.Line2.Point2.Data.StartCondition, 
TestParameter, AutoAnalysis.Line2.GradientExpr, 0
TestParameter, AutoAnalysis.Marker.Enabled, false
TestParameter, AutoAnalysis.Marker.Data.Var, 
TestParameter, AutoAnalysis.Marker.Data.Condition, 
TestParameter, AutoAnalysis.Marker.Data.Start, false
TestParameter, AutoAnalysis.Marker.Data.StartVar, 
TestParameter, AutoAnalysis.Marker.Data.StartCondition, 
MetaData, TestRecord.EntryPoint, true
MetaData, TestRecord.RecordTime, 12/07/2021 15:46:54
MetaData, TestRecord.TestTarget, 
MetaData, TestRecord.IterationIndex, 4
MetaData, TestRecord.Preservation, true
MetaData, TestRecord.Flag, 
MetaData, TestRecord.Remarks, 
MetaData, TestRecord.LinkKey, af472f16-125d-4186-a85f-e6ad5a0f975f
AnalysisSetup, Analysis.Setup.Vector.Graph.Enabled, true
AnalysisSetup, Analysis.Setup.Vector.Graph.ActiveYAxis, 0
AnalysisSetup, Analysis.Setup.Vector.Graph.LeftYAxis, 0
AnalysisSetup, Analysis.Setup.Vector.Graph.RightYAxis, -1
AnalysisSetup, Analysis.Setup.Vector.Graph.XAxis.Name, V1
AnalysisSetup, Analysis.Setup.Vector.Graph.XAxis.GroupName, 
AnalysisSetup, Analysis.Setup.Vector.Graph.XAxis.Unit, V
AnalysisSetup, Analysis.Setup.Vector.Graph.XAxis.Scale, Linear
AnalysisSetup, Analysis.Setup.Vector.Graph.XAxis.Left, -0.2
AnalysisSetup, Analysis.Setup.Vector.Graph.XAxis.Right, 1.2
AnalysisSetup, Analysis.Setup.Vector.Graph.YAxis.Name, I1
AnalysisSetup, Analysis.Setup.Vector.Graph.YAxis.GroupName, 
AnalysisSetup, Analysis.Setup.Vector.Graph.YAxis.Unit, A
AnalysisSetup, Analysis.Setup.Vector.Graph.YAxis.Scale, Linear
AnalysisSetup, Analysis.Setup.Vector.Graph.YAxis.Bottom, -0.0038
AnalysisSetup, Analysis.Setup.Vector.Graph.YAxis.Top, 0.001
AnalysisSetup, Analysis.Setup.Vector.Graph.Operation.Marker.Enabled, false
AnalysisSetup, Analysis.Setup.Vector.Graph.Operation.Marker.Interpolation, false
AnalysisSetup, Analysis.Setup.Vector.Graph.Operation.Marker.Index, 0
AnalysisSetup, Analysis.Setup.Vector.Graph.Operation.Marker.Step, 0
AnalysisSetup, Analysis.Setup.Vector.Graph.Operation.Cursor.Enabled, false
AnalysisSetup, Analysis.Setup.Vector.Graph.Operation.Cursor.Active, true
AnalysisSetup, Analysis.Setup.Vector.Graph.Operation.Cursor.NormalX, 0.5
AnalysisSetup, Analysis.Setup.Vector.Graph.Operation.Cursor.NormalY, 0.79166666666666663
AnalysisSetup, Analysis.Setup.Vector.Graph.Operation.Line1.Enabled, false
AnalysisSetup, Analysis.Setup.Vector.Graph.Operation.Line1.Active, false
AnalysisSetup, Analysis.Setup.Vector.Graph.Operation.Line1.Fix, false
AnalysisSetup, Analysis.Setup.Vector.Graph.Operation.Line1.Type, 1
AnalysisSetup, Analysis.Setup.Vector.Graph.Operation.Line1.YAxisIndex, 0
AnalysisSetup, Analysis.Setup.Vector.Graph.Operation.Line1.LastIndex, -1
AnalysisSetup, Analysis.Setup.Vector.Graph.Operation.Line1.LastStep, -1
AnalysisSetup, Analysis.Setup.Vector.Graph.Operation.Line1.Cursor1.Enabled, false
AnalysisSetup, Analysis.Setup.Vector.Graph.Operation.Line1.Cursor1.Active, false
AnalysisSetup, Analysis.Setup.Vector.Graph.Operation.Line1.Cursor1.NormalX, 0.5
AnalysisSetup, Analysis.Setup.Vector.Graph.Operation.Line1.Cursor1.NormalY, 0.79166666666666663
AnalysisSetup, Analysis.Setup.Vector.Graph.Operation.Line1.Cursor2.Enabled, false
AnalysisSetup, Analysis.Setup.Vector.Graph.Operation.Line1.Cursor2.Active, false
AnalysisSetup, Analysis.Setup.Vector.Graph.Operation.Line1.Cursor2.NormalX, 0.5
AnalysisSetup, Analysis.Setup.Vector.Graph.Operation.Line1.Cursor2.NormalY, 0.79166666666666663
AnalysisSetup, Analysis.Setup.Vector.Graph.Operation.Line1.Gradient, 
AnalysisSetup, Analysis.Setup.Vector.Graph.Operation.Line2.Enabled, false
AnalysisSetup, Analysis.Setup.Vector.Graph.Operation.Line2.Active, false
AnalysisSetup, Analysis.Setup.Vector.Graph.Operation.Line2.Fix, false
AnalysisSetup, Analysis.Setup.Vector.Graph.Operation.Line2.Type, 1
AnalysisSetup, Analysis.Setup.Vector.Graph.Operation.Line2.YAxisIndex, 0
AnalysisSetup, Analysis.Setup.Vector.Graph.Operation.Line2.LastIndex, -1
AnalysisSetup, Analysis.Setup.Vector.Graph.Operation.Line2.LastStep, -1
AnalysisSetup, Analysis.Setup.Vector.Graph.Operation.Line2.Cursor1.Enabled, false
AnalysisSetup, Analysis.Setup.Vector.Graph.Operation.Line2.Cursor1.Active, false
AnalysisSetup, Analysis.Setup.Vector.Graph.Operation.Line2.Cursor1.NormalX, 0.5
AnalysisSetup, Analysis.Setup.Vector.Graph.Operation.Line2.Cursor1.NormalY, 0.79166666666666663
AnalysisSetup, Analysis.Setup.Vector.Graph.Operation.Line2.Cursor2.Enabled, false
AnalysisSetup, Analysis.Setup.Vector.Graph.Operation.Line2.Cursor2.Active, false
AnalysisSetup, Analysis.Setup.Vector.Graph.Operation.Line2.Cursor2.NormalX, 0.5
AnalysisSetup, Analysis.Setup.Vector.Graph.Operation.Line2.Cursor2.NormalY, 0.79166666666666663
AnalysisSetup, Analysis.Setup.Vector.Graph.Operation.Line2.Gradient, 
AnalysisSetup, Analysis.Setup.Vector.Graph.Preference.BackgroundColor, -1
AnalysisSetup, Analysis.Setup.Vector.Graph.Preference.TextColor, -16777216
AnalysisSetup, Analysis.Setup.Vector.Graph.Preference.GridColor, -3618616
AnalysisSetup, Analysis.Setup.Vector.Graph.Preference.LineColor, -65336
AnalysisSetup, Analysis.Setup.Vector.Graph.Preference.Plots.Y1.Visible, true
AnalysisSetup, Analysis.Setup.Vector.Graph.Preference.Plots.Y1.PlotColor, -16777036
AnalysisSetup, Analysis.Setup.Vector.Graph.Preference.Plots.Y1.Thickness, 1
AnalysisSetup, Analysis.Setup.Vector.Graph.Preference.Plots.Y2.Visible, true
AnalysisSetup, Analysis.Setup.Vector.Graph.Preference.Plots.Y2.PlotColor, -39936
AnalysisSetup, Analysis.Setup.Vector.Graph.Preference.Plots.Y2.Thickness, 1
AnalysisSetup, Analysis.Setup.Vector.Graph.Preference.Plots.Y3.Visible, true
AnalysisSetup, Analysis.Setup.Vector.Graph.Preference.Plots.Y3.PlotColor, -16731136
AnalysisSetup, Analysis.Setup.Vector.Graph.Preference.Plots.Y3.Thickness, 1
AnalysisSetup, Analysis.Setup.Vector.Graph.Preference.Plots.Y4.Visible, true
AnalysisSetup, Analysis.Setup.Vector.Graph.Preference.Plots.Y4.PlotColor, -8892376
AnalysisSetup, Analysis.Setup.Vector.Graph.Preference.Plots.Y4.Thickness, 1
AnalysisSetup, Analysis.Setup.Vector.Graph.Preference.Plots.Y5.Visible, true
AnalysisSetup, Analysis.Setup.Vector.Graph.Preference.Plots.Y5.PlotColor, -65536
AnalysisSetup, Analysis.Setup.Vector.Graph.Preference.Plots.Y5.Thickness, 1
AnalysisSetup, Analysis.Setup.Vector.Graph.Preference.Plots.Y6.Visible, true
AnalysisSetup, Analysis.Setup.Vector.Graph.Preference.Plots.Y6.PlotColor, -14336
AnalysisSetup, Analysis.Setup.Vector.Graph.Preference.Plots.Y6.Thickness, 1
AnalysisSetup, Analysis.Setup.Vector.Graph.Preference.Plots.Y7.Visible, true
AnalysisSetup, Analysis.Setup.Vector.Graph.Preference.Plots.Y7.PlotColor, -6946586
AnalysisSetup, Analysis.Setup.Vector.Graph.Preference.Plots.Y7.Thickness, 1
AnalysisSetup, Analysis.Setup.Vector.Graph.Preference.Plots.Y8.Visible, true
AnalysisSetup, Analysis.Setup.Vector.Graph.Preference.Plots.Y8.PlotColor, -16733546
AnalysisSetup, Analysis.Setup.Vector.Graph.Preference.Plots.Y8.Thickness, 1
AnalysisSetup, Analysis.Setup.Vector.Graph.Preference.Text.AxisTitle.FontName, Tahoma
AnalysisSetup, Analysis.Setup.Vector.Graph.Preference.Text.AxisTitle.RelativeSize, Medium
AnalysisSetup, Analysis.Setup.Vector.Graph.Preference.Text.AxisTitle.Size, 7
AnalysisSetup, Analysis.Setup.Vector.Graph.Preference.Text.ScaleText.FontName, Tahoma
AnalysisSetup, Analysis.Setup.Vector.Graph.Preference.Text.ScaleText.RelativeSize, Medium
AnalysisSetup, Analysis.Setup.Vector.Graph.Preference.Text.ScaleText.Size, 7
AnalysisSetup, Analysis.Setup.Vector.Graph.Preference.Text.Legend.FontName, Tahoma
AnalysisSetup, Analysis.Setup.Vector.Graph.Preference.Text.Legend.RelativeSize, Medium
AnalysisSetup, Analysis.Setup.Vector.Graph.Preference.Text.Legend.Size, 7
AnalysisSetup, Analysis.Setup.Vector.Graph.Preference.Scale.LogTickedDecadeCount, 6
AnalysisSetup, Analysis.Setup.Vector.Graph.Preference.LogoVisible, true
AnalysisSetup, Analysis.Setup.Vector.Graph.Preference.GridVisible, true
AnalysisSetup, Analysis.Setup.Vector.Graph.Preference.SetupSummaryVisible, false
AnalysisSetup, Analysis.Setup.Vector.Graph.Notes, V1: [ -200 m, 1.1 ] V / 131; I1: 10 mA; 1 W	V2: 0 V; I2: 100 mA
AnalysisSetup, Analysis.Setup.Vector.List.Datum.Name, V1, I1, r1
AnalysisSetup, Analysis.Setup.Vector.List.Datum.Unit, V, A, ohm
AnalysisSetup, Analysis.Setup.Preference.GraphVisible, true
AnalysisSetup, Analysis.Setup.Preference.ListVisible, true
AnalysisSetup, Analysis.Setup.Preference.ScalarVisible, true
AnalysisSetup, Analysis.Setup.Title, Solar Cell-Jinno
Dimension1, 262, 262, 262
Dimension2, 1, 1, 1
DataName, V1, I1, r1
DataValue, -0.2, -0.00725503, 27.567081045839924
DataValue, -0.19, -0.00705067, 26.947793613940235
DataValue, -0.18000000000000002, -0.0068465, 26.290805521069164
DataValue, -0.17, -0.00664228, 25.593621467327484
DataValue, -0.16, -0.0064383800000000005, 24.850971828317061
DataValue, -0.15, -0.00623436, 24.060208265162739
DataValue, -0.14, -0.00603152, 23.211396132318221
DataValue, -0.13, -0.00582771, 22.307218444294588
DataValue, -0.12000000000000001, -0.0056232, 21.340162185232611
DataValue, -0.11, -0.00541904, 20.298798311139979
DataValue, -0.1, -0.0052144800000000005, 19.177367637808562
DataValue, -0.090000000000000011, -0.00501057, 17.962028272232505
DataValue, -0.08, -0.00480604, 16.645720801324998
DataValue, -0.07, -0.00460163, 15.212000964875491
DataValue, -0.060000000000000005, -0.00439747, 13.644209056571167
DataValue, -0.05, -0.0041929, 11.924920699277349
DataValue, -0.04, -0.00398838, 10.029134636117924
DataValue, -0.030000000000000002, -0.0037837, 7.9287469936834318
DataValue, -0.02, -0.00357919, 5.5878564703187035
DataValue, -0.01, -0.00337454, 2.9633668588903967
DataValue, 0, -0.00316981, -0
DataValue, 0.01, -0.00296512, -3.3725447873947769
DataValue, 0.02, -0.00276064, -7.2446968818824624
DataValue, 0.030000000000000002, -0.0025561200000000003, -11.736538190695272
DataValue, 0.04, -0.00235125, -17.012227538543328
DataValue, 0.05, -0.00214655, -23.293191400153734
DataValue, 0.060000000000000005, -0.00194159, -30.902507738502983
DataValue, 0.07, -0.00173669, -40.306560180573392
DataValue, 0.08, -0.00153172, -52.228866894732718
DataValue, 0.090000000000000011, -0.0013271700000000001, -67.813467754696077
DataValue, 0.1, -0.0011221, -89.118616879066039
DataValue, 0.11, -0.000916944, -119.96370552618262
DataValue, 0.12000000000000001, -0.00071153100000000006, -168.65041719896954
DataValue, 0.13, -0.000505587, -257.12686441700436
DataValue, 0.14, -0.00029898100000000003, -468.2571802221546
DataValue, 0.15, -8.86097E-05, -1692.8169263635923
DataValue, 0.16, 0.000129803, 1232.6371501429089
DataValue, 0.17, 0.000335086, 507.3324459989376
DataValue, 0.18000000000000002, 0.00053986700000000008, 333.41545232436874
DataValue, 0.19, 0.000745841, 254.74598473401167
DataValue, 0.2, 0.000951124, 210.27752427654019
DataValue, 0.21000000000000002, 0.00115635, 181.60591516409394
DataValue, 0.22, 0.00136178, 161.55326117287669
DataValue, 0.23, 0.0015667, 146.805387119423
DataValue, 0.24000000000000002, 0.0017721500000000001, 135.4287165307677
DataValue, 0.25, 0.00197748, 126.42352893581729
DataValue, 0.26, 0.00218301, 119.10160741361699
DataValue, 0.27, 0.00238871, 113.03172004973396
DataValue, 0.28, 0.00259318, 107.97553582859656
DataValue, 0.29000000000000004, 0.00279969, 103.58289667784649
DataValue, 0.3, 0.00300585, 99.805379509955586
DataValue, 0.31, 0.00321235, 96.502560430837235
DataValue, 0.32, 0.0034173000000000003, 93.64117870833698
DataValue, 0.33, 0.00362444, 91.048548189513411
DataValue, 0.34, 0.0038304, 88.763575605680884
DataValue, 0.35000000000000003, 0.0040371800000000005, 86.694177619031109
DataValue, 0.36000000000000004, 0.00424432, 84.819240773551485
DataValue, 0.37, 0.00445075, 83.1320563949896
DataValue, 0.38, 0.00465855, 81.57044573955416
DataValue, 0.39, 0.00486466, 80.170042716243273
DataValue, 0.4, 0.00507197, 78.8648197840287
DataValue, 0.41000000000000003, 0.00527883, 77.668725835080892
DataValue, 0.42000000000000004, 0.00548572, 76.562420247478912
DataValue, 0.43, 0.00569327, 75.527772264445559
DataValue, 0.44, 0.00590197, 74.551378607481908
DataValue, 0.45, 0.0061089000000000004, 73.663016254972248
DataValue, 0.46, 0.0063162700000000006, 72.827792352131866
DataValue, 0.47000000000000003, 0.00652609, 72.018620644214224
DataValue, 0.48000000000000004, 0.00673466, 71.273085797946749
DataValue, 0.49000000000000005, 0.00694246, 70.580168989090325
DataValue, 0.5, 0.0071535, 69.895855175788071
DataValue, 0.51, 0.00736043, 69.2894301012305
DataValue, 0.52, 0.00756919, 68.699557019971763
DataValue, 0.53, 0.0077797100000000004, 68.125932714715589
DataValue, 0.54, 0.00799122, 67.574162643501239
DataValue, 0.55, 0.00819813, 67.088470175515639
DataValue, 0.56, 0.00838032, 66.82322393416959
DataValue, 0.57000000000000006, 0.0085250700000000009, 66.861621077598187
DataValue, 0.58000000000000007, 0.0086357, 67.163055687437051
DataValue, 0.59000000000000008, 0.00872599, 67.614104531405616
DataValue, 0.6, 0.00880477, 68.1448805590606
DataValue, 0.61, 0.00887391, 68.7408369027858
DataValue, 0.62, 0.00893655, 69.378003815790208
DataValue, 0.63, 0.0089958, 70.0326819182285
DataValue, 0.64, 0.00904874, 70.728079268494838
DataValue, 0.65, 0.00909834, 71.44160363319024
DataValue, 0.66, 0.0091456, 72.165850244926517
DataValue, 0.67, 0.00919081, 72.898906625204958
DataValue, 0.68, 0.0092334100000000009, 73.645597888537381
DataValue, 0.69000000000000006, 0.00927407, 74.400991150595161
DataValue, 0.70000000000000007, 0.00931356, 75.159230197690249
DataValue, 0.71000000000000008, 0.00935242, 75.9161799833626
DataValue, 0.72000000000000008, 0.00938845, 76.689975448556481
DataValue, 0.73, 0.00942449, 77.457772250806144
DataValue, 0.74, 0.00946043, 78.220546000551764
DataValue, 0.75, 0.00949382, 78.998759192822277
DataValue, 0.76, 0.00952717, 79.771852501844734
DataValue, 0.77, 0.00955897, 80.552611839978582
DataValue, 0.78, 0.00959073, 81.328532864547327
DataValue, 0.79, 0.00962196, 82.103854100411979
DataValue, 0.8, 0.00965224, 82.882315400363041
DataValue, 0.81, 0.00968189, 83.661351244436787
DataValue, 0.82000000000000006, 0.00971137, 84.437108255580839
DataValue, 0.83000000000000007, 0.00974026, 85.213331060977836
DataValue, 0.84000000000000008, 0.009769, 85.986283140546632
DataValue, 0.85000000000000009, 0.00979734, 86.758242543384242
DataValue, 0.86, 0.00982501, 87.531717524969437
DataValue, 0.87, 0.00985242, 88.303178305431558
DataValue, 0.88, 0.0098795400000000009, 89.07297303315741
DataValue, 0.89, 0.0099062, 89.842724758232222
DataValue, 0.9, 0.0099326, 90.610716227372492
DataValue, 0.91, 0.00995852, 91.379040258994308
DataValue, 0.92, 0.00998433, 92.1443902595367
DataValue, 0.93, 0.01000029, 92.997303078210734
DataValue, 0.94000000000000006, , 
DataValue, 0.95000000000000007, , 
DataValue, 0.96000000000000008, , 
DataValue, 0.97000000000000008, , 
DataValue, 0.98000000000000009, , 
DataValue, 0.9900000000000001, , 
DataValue, 1, , 
DataValue, 1.01, , 
DataValue, 1.02, , 
DataValue, 1.03, , 
DataValue, 1.04, , 
DataValue, 1.05, , 
DataValue, 1.06, , 
DataValue, 1.07, , 
DataValue, 1.08, , 
DataValue, 1.09, , 
DataValue, 1.1, , 
DataValue, 1.1, , 
DataValue, 1.09, , 
DataValue, 1.08, , 
DataValue, 1.07, , 
DataValue, 1.06, , 
DataValue, 1.05, , 
DataValue, 1.04, , 
DataValue, 1.03, , 
DataValue, 1.02, , 
DataValue, 1.01, , 
DataValue, 1, , 
DataValue, 0.9900000000000001, , 
DataValue, 0.98000000000000009, , 
DataValue, 0.97000000000000008, , 
DataValue, 0.96000000000000008, , 
DataValue, 0.95000000000000007, , 
DataValue, 0.94000000000000006, , 
DataValue, 0.93, , 
DataValue, 0.92, , 
DataValue, 0.91, , 
DataValue, 0.9, , 
DataValue, 0.89, , 
DataValue, 0.88, , 
DataValue, 0.87, , 
DataValue, 0.86, , 
DataValue, 0.85000000000000009, , 
DataValue, 0.84000000000000008, , 
DataValue, 0.83000000000000007, , 
DataValue, 0.82000000000000006, , 
DataValue, 0.81, , 
DataValue, 0.8, , 
DataValue, 0.79, , 
DataValue, 0.78, , 
DataValue, 0.77, , 
DataValue, 0.76, , 
DataValue, 0.75, , 
DataValue, 0.74, , 
DataValue, 0.73, , 
DataValue, 0.72000000000000008, , 
DataValue, 0.71000000000000008, , 
DataValue, 0.70000000000000007, , 
DataValue, 0.69000000000000006, , 
DataValue, 0.68, , 
DataValue, 0.67, , 
DataValue, 0.66, , 
DataValue, 0.65, , 
DataValue, 0.64, , 
DataValue, 0.63, , 
DataValue, 0.62, , 
DataValue, 0.61, , 
DataValue, 0.6, , 
DataValue, 0.59000000000000008, , 
DataValue, 0.58000000000000007, , 
DataValue, 0.57000000000000006, , 
DataValue, 0.56, , 
DataValue, 0.55, , 
DataValue, 0.54, , 
DataValue, 0.53, , 
DataValue, 0.52, , 
DataValue, 0.51, , 
DataValue, 0.5, , 
DataValue, 0.49000000000000005, , 
DataValue, 0.48000000000000004, , 
DataValue, 0.47000000000000003, , 
DataValue, 0.46, , 
DataValue, 0.45, , 
DataValue, 0.44, , 
DataValue, 0.43, , 
DataValue, 0.42000000000000004, , 
DataValue, 0.41000000000000003, , 
DataValue, 0.4, , 
DataValue, 0.39, , 
DataValue, 0.38, , 
DataValue, 0.37, , 
DataValue, 0.36000000000000004, , 
DataValue, 0.35000000000000003, , 
DataValue, 0.34, , 
DataValue, 0.33, , 
DataValue, 0.32, , 
DataValue, 0.31, , 
DataValue, 0.3, , 
DataValue, 0.29000000000000004, , 
DataValue, 0.28, , 
DataValue, 0.27, , 
DataValue, 0.26, , 
DataValue, 0.25, , 
DataValue, 0.24000000000000002, , 
DataValue, 0.23, , 
DataValue, 0.22, , 
DataValue, 0.21000000000000002, , 
DataValue, 0.2, , 
DataValue, 0.19, , 
DataValue, 0.18000000000000002, , 
DataValue, 0.17, , 
DataValue, 0.16, , 
DataValue, 0.15, , 
DataValue, 0.14, , 
DataValue, 0.13, , 
DataValue, 0.12000000000000001, , 
DataValue, 0.11, , 
DataValue, 0.1, , 
DataValue, 0.090000000000000011, , 
DataValue, 0.08, , 
DataValue, 0.07, , 
DataValue, 0.060000000000000005, , 
DataValue, 0.05, , 
DataValue, 0.04, , 
DataValue, 0.030000000000000002, , 
DataValue, 0.02, , 
DataValue, 0.01, , 
DataValue, 0, , 
DataValue, -0.01, , 
DataValue, -0.02, , 
DataValue, -0.030000000000000002, , 
DataValue, -0.04, , 
DataValue, -0.05, , 
DataValue, -0.060000000000000005, , 
DataValue, -0.07, , 
DataValue, -0.08, , 
DataValue, -0.090000000000000011, , 
DataValue, -0.1, , 
DataValue, -0.11, , 
DataValue, -0.12000000000000001, , 
DataValue, -0.13, , 
DataValue, -0.14, , 
DataValue, -0.15, , 
DataValue, -0.16, , 
DataValue, -0.17, , 
DataValue, -0.18000000000000002, , 
DataValue, -0.19, , 
DataValue, -0.2, , 