﻿
SetupTitle, Solar Cell-Jinno
PrimitiveTest, I/V Sweep
TestParameter, Context.MainFrame, B1500A
TestParameter, Channel.UnitType, SMU, SMU
TestParameter, Channel.Unit, SMU1:HP, SMU2:HR
TestParameter, Channel.IName, I1, I2
TestParameter, Channel.VName, V1, V2
TestParameter, Channel.Mode, V, V
TestParameter, Channel.Func, VAR1, CONST
TestParameter, Channel.Index, 
TestParameter, Channel.Time, 
TestParameter, Measurement.Port.Unit, SMU1:HP, SMU2:HR
TestParameter, Measurement.Port.SeriesResistor, NONE, NONE
TestParameter, Measurement.Port.Filter, ON, ON
TestParameter, Measurement.Port.OutputVoltageComparison, 0, 0
TestParameter, Measurement.Primary.Locus, Double
TestParameter, Measurement.Primary.Scale, LINEAR
TestParameter, Measurement.Primary.Start, -0.2
TestParameter, Measurement.Primary.Stop, 1.1
TestParameter, Measurement.Primary.Step, 0.01
TestParameter, Measurement.Primary.Compliance, 0.01
TestParameter, Measurement.Primary.PowerCompliance, 1
TestParameter, Measurement.Aborting.Condition, SKIP AT ANY ABNORMAL
TestParameter, Measurement.PostOutput.Value, START
TestParameter, Measurement.PostOutput.Retention, OFF
TestParameter, Measurement.Bias.Source, -0.2, 0
TestParameter, Measurement.Bias.Compliance, 0.01, 0.1
TestParameter, Measurement.Monitor.Unit, SMU1:HP, SMU2:HR
TestParameter, Measurement.Monitor.Adc, HR ADC, HR ADC
TestParameter, Measurement.Monitor.Measurement, Compliance Side, Compliance Side
TestParameter, Measurement.Monitor.RangingMode, LIMITED, LIMITED
TestParameter, Measurement.Monitor.RangeBoundary, 1nA, 1nA
TestParameter, Measurement.Monitor.RangeRating, BY FULL RANGE, BY FULL RANGE
TestParameter, Measurement.Monitor.RangeRatingCoeff, 50, 50
TestParameter, Measurement.Timing.Hold, 1
TestParameter, Measurement.Timing.Delay, 0
TestParameter, Measurement.Adc.HighSpeed.Mode, AUTO
TestParameter, Measurement.Adc.HighSpeed.Coeff, 1
TestParameter, Measurement.Adc.HighResolution.AutoZero, OFF
TestParameter, Measurement.Adc.HighResolution.Mode, PLC
TestParameter, Measurement.Adc.HighResolution.Coeff, 8
TestParameter, Measurement.WaitTime.Source.Coeff, 1
TestParameter, Measurement.WaitTime.Source.Offset, 0
TestParameter, Measurement.WaitTime.Monitor.Coeff, 1
TestParameter, Measurement.WaitTime.Monitor.Offset, 0
TestParameter, Function.Analysis.Name, r1
TestParameter, Function.Analysis.Unit, ohm
TestParameter, Function.Analysis.Definition, V1/I1
TestParameter, Output.Graph.Enabled, true
TestParameter, Output.Graph.XAxis.Data, V1
TestParameter, Output.Graph.XAxis.Scale, Linear
TestParameter, Output.Graph.XAxis.Left, -0.2
TestParameter, Output.Graph.XAxis.Right, 1.2
TestParameter, Output.Graph.YAxis.Data, I1
TestParameter, Output.Graph.YAxis.Scale, Linear
TestParameter, Output.Graph.YAxis.Bottom, -0.1
TestParameter, Output.Graph.YAxis.Top, 0.1
TestParameter, Output.Graph.YAxis.Group, 
TestParameter, Output.List.Data, V1, I1, r1
TestParameter, AutoAnalysis.Interpolation, false
TestParameter, AutoAnalysis.Line1.Enabled, false
TestParameter, AutoAnalysis.Line1.Type, 1
TestParameter, AutoAnalysis.Line1.Fix, True
TestParameter, AutoAnalysis.Line1.YAxis, 0
TestParameter, AutoAnalysis.Line1.Point1.Type, 0
TestParameter, AutoAnalysis.Line1.Point1.XY.X, 
TestParameter, AutoAnalysis.Line1.Point1.XY.Y, 
TestParameter, AutoAnalysis.Line1.Point1.Data.Var, 
TestParameter, AutoAnalysis.Line1.Point1.Data.Condition, 
TestParameter, AutoAnalysis.Line1.Point1.Data.Start, false
TestParameter, AutoAnalysis.Line1.Point1.Data.StartVar, 
TestParameter, AutoAnalysis.Line1.Point1.Data.StartCondition, 
TestParameter, AutoAnalysis.Line1.Point2.Type, 0
TestParameter, AutoAnalysis.Line1.Point2.XY.X, 
TestParameter, AutoAnalysis.Line1.Point2.XY.Y, 
TestParameter, AutoAnalysis.Line1.Point2.Data.Var, 
TestParameter, AutoAnalysis.Line1.Point2.Data.Condition, 
TestParameter, AutoAnalysis.Line1.Point2.Data.Start, false
TestParameter, AutoAnalysis.Line1.Point2.Data.StartVar, 
TestParameter, AutoAnalysis.Line1.Point2.Data.StartCondition, 
TestParameter, AutoAnalysis.Line1.GradientExpr, 0
TestParameter, AutoAnalysis.Line2.Enabled, false
TestParameter, AutoAnalysis.Line2.Type, 1
TestParameter, AutoAnalysis.Line2.Fix, True
TestParameter, AutoAnalysis.Line2.YAxis, 0
TestParameter, AutoAnalysis.Line2.Point1.Type, 0
TestParameter, AutoAnalysis.Line2.Point1.XY.X, 
TestParameter, AutoAnalysis.Line2.Point1.XY.Y, 
TestParameter, AutoAnalysis.Line2.Point1.Data.Var, 
TestParameter, AutoAnalysis.Line2.Point1.Data.Condition, 
TestParameter, AutoAnalysis.Line2.Point1.Data.Start, false
TestParameter, AutoAnalysis.Line2.Point1.Data.StartVar, 
TestParameter, AutoAnalysis.Line2.Point1.Data.StartCondition, 
TestParameter, AutoAnalysis.Line2.Point2.Type, 0
TestParameter, AutoAnalysis.Line2.Point2.XY.X, 
TestParameter, AutoAnalysis.Line2.Point2.XY.Y, 
TestParameter, AutoAnalysis.Line2.Point2.Data.Var, 
TestParameter, AutoAnalysis.Line2.Point2.Data.Condition, 
TestParameter, AutoAnalysis.Line2.Point2.Data.Start, false
TestParameter, AutoAnalysis.Line2.Point2.Data.StartVar, 
TestParameter, AutoAnalysis.Line2.Point2.Data.StartCondition, 
TestParameter, AutoAnalysis.Line2.GradientExpr, 0
TestParameter, AutoAnalysis.Marker.Enabled, false
TestParameter, AutoAnalysis.Marker.Data.Var, 
TestParameter, AutoAnalysis.Marker.Data.Condition, 
TestParameter, AutoAnalysis.Marker.Data.Start, false
TestParameter, AutoAnalysis.Marker.Data.StartVar, 
TestParameter, AutoAnalysis.Marker.Data.StartCondition, 
MetaData, TestRecord.EntryPoint, true
MetaData, TestRecord.RecordTime, 12/07/2021 15:51:48
MetaData, TestRecord.TestTarget, 
MetaData, TestRecord.IterationIndex, 7
MetaData, TestRecord.Preservation, true
MetaData, TestRecord.Flag, 
MetaData, TestRecord.Remarks, 
MetaData, TestRecord.LinkKey, a0967822-a873-4308-af66-80ed5d0cfbf7
AnalysisSetup, Analysis.Setup.Vector.Graph.Enabled, true
AnalysisSetup, Analysis.Setup.Vector.Graph.ActiveYAxis, 0
AnalysisSetup, Analysis.Setup.Vector.Graph.LeftYAxis, 0
AnalysisSetup, Analysis.Setup.Vector.Graph.RightYAxis, -1
AnalysisSetup, Analysis.Setup.Vector.Graph.XAxis.Name, V1
AnalysisSetup, Analysis.Setup.Vector.Graph.XAxis.GroupName, 
AnalysisSetup, Analysis.Setup.Vector.Graph.XAxis.Unit, V
AnalysisSetup, Analysis.Setup.Vector.Graph.XAxis.Scale, Linear
AnalysisSetup, Analysis.Setup.Vector.Graph.XAxis.Left, -0.2
AnalysisSetup, Analysis.Setup.Vector.Graph.XAxis.Right, 1.2
AnalysisSetup, Analysis.Setup.Vector.Graph.YAxis.Name, I1
AnalysisSetup, Analysis.Setup.Vector.Graph.YAxis.GroupName, 
AnalysisSetup, Analysis.Setup.Vector.Graph.YAxis.Unit, A
AnalysisSetup, Analysis.Setup.Vector.Graph.YAxis.Scale, Linear
AnalysisSetup, Analysis.Setup.Vector.Graph.YAxis.Bottom, -0.0038
AnalysisSetup, Analysis.Setup.Vector.Graph.YAxis.Top, 0.001
AnalysisSetup, Analysis.Setup.Vector.Graph.Operation.Marker.Enabled, false
AnalysisSetup, Analysis.Setup.Vector.Graph.Operation.Marker.Interpolation, false
AnalysisSetup, Analysis.Setup.Vector.Graph.Operation.Marker.Index, 0
AnalysisSetup, Analysis.Setup.Vector.Graph.Operation.Marker.Step, 0
AnalysisSetup, Analysis.Setup.Vector.Graph.Operation.Cursor.Enabled, false
AnalysisSetup, Analysis.Setup.Vector.Graph.Operation.Cursor.Active, true
AnalysisSetup, Analysis.Setup.Vector.Graph.Operation.Cursor.NormalX, 0.5
AnalysisSetup, Analysis.Setup.Vector.Graph.Operation.Cursor.NormalY, 0.79166666666666663
AnalysisSetup, Analysis.Setup.Vector.Graph.Operation.Line1.Enabled, false
AnalysisSetup, Analysis.Setup.Vector.Graph.Operation.Line1.Active, false
AnalysisSetup, Analysis.Setup.Vector.Graph.Operation.Line1.Fix, false
AnalysisSetup, Analysis.Setup.Vector.Graph.Operation.Line1.Type, 1
AnalysisSetup, Analysis.Setup.Vector.Graph.Operation.Line1.YAxisIndex, 0
AnalysisSetup, Analysis.Setup.Vector.Graph.Operation.Line1.LastIndex, -1
AnalysisSetup, Analysis.Setup.Vector.Graph.Operation.Line1.LastStep, -1
AnalysisSetup, Analysis.Setup.Vector.Graph.Operation.Line1.Cursor1.Enabled, false
AnalysisSetup, Analysis.Setup.Vector.Graph.Operation.Line1.Cursor1.Active, false
AnalysisSetup, Analysis.Setup.Vector.Graph.Operation.Line1.Cursor1.NormalX, 0.5
AnalysisSetup, Analysis.Setup.Vector.Graph.Operation.Line1.Cursor1.NormalY, 0.79166666666666663
AnalysisSetup, Analysis.Setup.Vector.Graph.Operation.Line1.Cursor2.Enabled, false
AnalysisSetup, Analysis.Setup.Vector.Graph.Operation.Line1.Cursor2.Active, false
AnalysisSetup, Analysis.Setup.Vector.Graph.Operation.Line1.Cursor2.NormalX, 0.5
AnalysisSetup, Analysis.Setup.Vector.Graph.Operation.Line1.Cursor2.NormalY, 0.79166666666666663
AnalysisSetup, Analysis.Setup.Vector.Graph.Operation.Line1.Gradient, 
AnalysisSetup, Analysis.Setup.Vector.Graph.Operation.Line2.Enabled, false
AnalysisSetup, Analysis.Setup.Vector.Graph.Operation.Line2.Active, false
AnalysisSetup, Analysis.Setup.Vector.Graph.Operation.Line2.Fix, false
AnalysisSetup, Analysis.Setup.Vector.Graph.Operation.Line2.Type, 1
AnalysisSetup, Analysis.Setup.Vector.Graph.Operation.Line2.YAxisIndex, 0
AnalysisSetup, Analysis.Setup.Vector.Graph.Operation.Line2.LastIndex, -1
AnalysisSetup, Analysis.Setup.Vector.Graph.Operation.Line2.LastStep, -1
AnalysisSetup, Analysis.Setup.Vector.Graph.Operation.Line2.Cursor1.Enabled, false
AnalysisSetup, Analysis.Setup.Vector.Graph.Operation.Line2.Cursor1.Active, false
AnalysisSetup, Analysis.Setup.Vector.Graph.Operation.Line2.Cursor1.NormalX, 0.5
AnalysisSetup, Analysis.Setup.Vector.Graph.Operation.Line2.Cursor1.NormalY, 0.79166666666666663
AnalysisSetup, Analysis.Setup.Vector.Graph.Operation.Line2.Cursor2.Enabled, false
AnalysisSetup, Analysis.Setup.Vector.Graph.Operation.Line2.Cursor2.Active, false
AnalysisSetup, Analysis.Setup.Vector.Graph.Operation.Line2.Cursor2.NormalX, 0.5
AnalysisSetup, Analysis.Setup.Vector.Graph.Operation.Line2.Cursor2.NormalY, 0.79166666666666663
AnalysisSetup, Analysis.Setup.Vector.Graph.Operation.Line2.Gradient, 
AnalysisSetup, Analysis.Setup.Vector.Graph.Preference.BackgroundColor, -1
AnalysisSetup, Analysis.Setup.Vector.Graph.Preference.TextColor, -16777216
AnalysisSetup, Analysis.Setup.Vector.Graph.Preference.GridColor, -3618616
AnalysisSetup, Analysis.Setup.Vector.Graph.Preference.LineColor, -65336
AnalysisSetup, Analysis.Setup.Vector.Graph.Preference.Plots.Y1.Visible, true
AnalysisSetup, Analysis.Setup.Vector.Graph.Preference.Plots.Y1.PlotColor, -16777036
AnalysisSetup, Analysis.Setup.Vector.Graph.Preference.Plots.Y1.Thickness, 1
AnalysisSetup, Analysis.Setup.Vector.Graph.Preference.Plots.Y2.Visible, true
AnalysisSetup, Analysis.Setup.Vector.Graph.Preference.Plots.Y2.PlotColor, -39936
AnalysisSetup, Analysis.Setup.Vector.Graph.Preference.Plots.Y2.Thickness, 1
AnalysisSetup, Analysis.Setup.Vector.Graph.Preference.Plots.Y3.Visible, true
AnalysisSetup, Analysis.Setup.Vector.Graph.Preference.Plots.Y3.PlotColor, -16731136
AnalysisSetup, Analysis.Setup.Vector.Graph.Preference.Plots.Y3.Thickness, 1
AnalysisSetup, Analysis.Setup.Vector.Graph.Preference.Plots.Y4.Visible, true
AnalysisSetup, Analysis.Setup.Vector.Graph.Preference.Plots.Y4.PlotColor, -8892376
AnalysisSetup, Analysis.Setup.Vector.Graph.Preference.Plots.Y4.Thickness, 1
AnalysisSetup, Analysis.Setup.Vector.Graph.Preference.Plots.Y5.Visible, true
AnalysisSetup, Analysis.Setup.Vector.Graph.Preference.Plots.Y5.PlotColor, -65536
AnalysisSetup, Analysis.Setup.Vector.Graph.Preference.Plots.Y5.Thickness, 1
AnalysisSetup, Analysis.Setup.Vector.Graph.Preference.Plots.Y6.Visible, true
AnalysisSetup, Analysis.Setup.Vector.Graph.Preference.Plots.Y6.PlotColor, -14336
AnalysisSetup, Analysis.Setup.Vector.Graph.Preference.Plots.Y6.Thickness, 1
AnalysisSetup, Analysis.Setup.Vector.Graph.Preference.Plots.Y7.Visible, true
AnalysisSetup, Analysis.Setup.Vector.Graph.Preference.Plots.Y7.PlotColor, -6946586
AnalysisSetup, Analysis.Setup.Vector.Graph.Preference.Plots.Y7.Thickness, 1
AnalysisSetup, Analysis.Setup.Vector.Graph.Preference.Plots.Y8.Visible, true
AnalysisSetup, Analysis.Setup.Vector.Graph.Preference.Plots.Y8.PlotColor, -16733546
AnalysisSetup, Analysis.Setup.Vector.Graph.Preference.Plots.Y8.Thickness, 1
AnalysisSetup, Analysis.Setup.Vector.Graph.Preference.Text.AxisTitle.FontName, Tahoma
AnalysisSetup, Analysis.Setup.Vector.Graph.Preference.Text.AxisTitle.RelativeSize, Medium
AnalysisSetup, Analysis.Setup.Vector.Graph.Preference.Text.AxisTitle.Size, 7
AnalysisSetup, Analysis.Setup.Vector.Graph.Preference.Text.ScaleText.FontName, Tahoma
AnalysisSetup, Analysis.Setup.Vector.Graph.Preference.Text.ScaleText.RelativeSize, Medium
AnalysisSetup, Analysis.Setup.Vector.Graph.Preference.Text.ScaleText.Size, 7
AnalysisSetup, Analysis.Setup.Vector.Graph.Preference.Text.Legend.FontName, Tahoma
AnalysisSetup, Analysis.Setup.Vector.Graph.Preference.Text.Legend.RelativeSize, Medium
AnalysisSetup, Analysis.Setup.Vector.Graph.Preference.Text.Legend.Size, 7
AnalysisSetup, Analysis.Setup.Vector.Graph.Preference.Scale.LogTickedDecadeCount, 6
AnalysisSetup, Analysis.Setup.Vector.Graph.Preference.LogoVisible, true
AnalysisSetup, Analysis.Setup.Vector.Graph.Preference.GridVisible, true
AnalysisSetup, Analysis.Setup.Vector.Graph.Preference.SetupSummaryVisible, false
AnalysisSetup, Analysis.Setup.Vector.Graph.Notes, V1: [ -200 m, 1.1 ] V / 131; I1: 10 mA; 1 W	V2: 0 V; I2: 100 mA
AnalysisSetup, Analysis.Setup.Vector.List.Datum.Name, V1, I1, r1
AnalysisSetup, Analysis.Setup.Vector.List.Datum.Unit, V, A, ohm
AnalysisSetup, Analysis.Setup.Preference.GraphVisible, true
AnalysisSetup, Analysis.Setup.Preference.ListVisible, true
AnalysisSetup, Analysis.Setup.Preference.ScalarVisible, true
AnalysisSetup, Analysis.Setup.Title, Solar Cell-Jinno
Dimension1, 262, 262, 262
Dimension2, 1, 1, 1
DataName, V1, I1, r1
DataValue, -0.2, -0.00350777, 57.016280999039282
DataValue, -0.19, -0.0035047200000000002, 54.212604715925949
DataValue, -0.18000000000000002, -0.00350224, 51.395678194526937
DataValue, -0.17, -0.0035001900000000002, 48.568791979863953
DataValue, -0.16, -0.00349842, 45.734931769198667
DataValue, -0.15, -0.0034971200000000003, 42.892437205471929
DataValue, -0.14, -0.00349592, 40.046682990457448
DataValue, -0.13, -0.00349484, 37.197697176408653
DataValue, -0.12000000000000001, -0.0034936, 34.348523013510423
DataValue, -0.11, -0.00349285, 31.492906938459996
DataValue, -0.1, -0.00349205, 28.636474277286982
DataValue, -0.090000000000000011, -0.00349136, 25.777920351954542
DataValue, -0.08, -0.00349058, 22.918827243609943
DataValue, -0.07, -0.00348978, 20.05857102740001
DataValue, -0.060000000000000005, -0.00348884, 17.197693216083284
DataValue, -0.05, -0.00348818, 14.334122665688124
DataValue, -0.04, -0.0034875, 11.469534050179211
DataValue, -0.030000000000000002, -0.00348678, 8.60392683220622
DataValue, -0.02, -0.00348626, 5.7368067786108892
DataValue, -0.01, -0.00348548, 2.8690452964871409
DataValue, 0, -0.00348455, -0
DataValue, 0.01, -0.00348371, -2.8705029982403816
DataValue, 0.02, -0.00348302, -5.7421433124127912
DataValue, 0.030000000000000002, -0.0034823700000000003, -8.614822663875465
DataValue, 0.04, -0.00348168, -11.488706601410813
DataValue, 0.05, -0.00348065, -14.365132949305446
DataValue, 0.060000000000000005, -0.00348001, -17.241329766293777
DataValue, 0.07, -0.00347907, -20.120319510673831
DataValue, 0.08, -0.00347822, -23.000270253175476
DataValue, 0.090000000000000011, -0.00347736, -25.881703361170544
DataValue, 0.1, -0.0034763, -28.766216954808275
DataValue, 0.11, -0.00347578, -31.647572631179191
DataValue, 0.12000000000000001, -0.00347433, -34.539033425149604
DataValue, 0.13, -0.00347333, -37.428058952071929
DataValue, 0.14, -0.00347195, -40.323161335848731
DataValue, 0.15, -0.00347128, -43.211725933949431
DataValue, 0.16, -0.00347022, -46.106586902271324
DataValue, 0.17, -0.0034692300000000002, -49.002228160139282
DataValue, 0.18000000000000002, -0.00346785, -51.90535922834033
DataValue, 0.19, -0.00346709, -54.801000262467952
DataValue, 0.2, -0.00346575, -57.707566904710383
DataValue, 0.21000000000000002, -0.00346435, -60.617431841470989
DataValue, 0.22, -0.00346343, -63.520844942730186
DataValue, 0.23, -0.00346136, -66.447870201308163
DataValue, 0.24000000000000002, -0.00345997, -69.364763278294319
DataValue, 0.25, -0.00345841, -72.287554107234257
DataValue, 0.26, -0.00345639, -75.2229927756995
DataValue, 0.27, -0.00345459, -78.156886924352818
DataValue, 0.28, -0.0034528700000000002, -81.091961180119725
DataValue, 0.29000000000000004, -0.0034509000000000002, -84.036048567040481
DataValue, 0.3, -0.0034489, -86.984255849691209
DataValue, 0.31, -0.0034468, -89.938493675293032
DataValue, 0.32, -0.00344458, -92.899569758867557
DataValue, 0.33, -0.0034420600000000003, -95.872820345955617
DataValue, 0.34, -0.00343941, -98.854163940908478
DataValue, 0.35000000000000003, -0.00343678, -101.83951256699587
DataValue, 0.36000000000000004, -0.00343415, -104.82943377546118
DataValue, 0.37, -0.00343131, -107.83053702521778
DataValue, 0.38, -0.0034281, -110.84857501239755
DataValue, 0.39, -0.00342488, -113.8726028357198
DataValue, 0.4, -0.00342129, -116.91496482320997
DataValue, 0.41000000000000003, -0.0034177, -119.96371829007813
DataValue, 0.42000000000000004, -0.00341398, -123.02356780063153
DataValue, 0.43, -0.00340983, -126.10599355393084
DataValue, 0.44, -0.0034056200000000003, -129.19820766850089
DataValue, 0.45, -0.0034010200000000003, -132.3132472023099
DataValue, 0.46, -0.00339579, -135.46185129233552
DataValue, 0.47000000000000003, -0.0033907, -138.61444539475625
DataValue, 0.48000000000000004, -0.0033851700000000003, -141.79494678258405
DataValue, 0.49000000000000005, -0.00337921, -145.00430574009903
DataValue, 0.5, -0.00337277, -148.24610038632932
DataValue, 0.51, -0.0033659700000000002, -151.51650192960722
DataValue, 0.52, -0.00335846, -154.83286982724223
DataValue, 0.53, -0.00335057, -158.1820406677073
DataValue, 0.54, -0.0033420200000000002, -161.57892532061447
DataValue, 0.55, -0.00333309, -165.01204587934922
DataValue, 0.56, -0.0033228900000000002, -168.5279982184183
DataValue, 0.57000000000000006, -0.00331209, -172.09677273262503
DataValue, 0.58000000000000007, -0.0033004600000000003, -175.73307963132413
DataValue, 0.59000000000000008, -0.00328831, -179.42347284775465
DataValue, 0.6, -0.0032740300000000003, -183.26038551876431
DataValue, 0.61, -0.00325865, -187.19408343946111
DataValue, 0.62, -0.00324264, -191.20223028149903
DataValue, 0.63, -0.00322483, -195.35913521022812
DataValue, 0.64, -0.0032046, -199.712912688011
DataValue, 0.65, -0.0031835500000000003, -204.17458497589169
DataValue, 0.66, -0.00315959, -208.8878620327321
DataValue, 0.67, -0.00313319, -213.83956925689154
DataValue, 0.68, -0.00310435, -219.04746565303526
DataValue, 0.69000000000000006, -0.0030726, -224.56551454793987
DataValue, 0.70000000000000007, -0.00303776, -230.43295059517541
DataValue, 0.71000000000000008, -0.00299956, -236.70138286948753
DataValue, 0.72000000000000008, -0.00295772, -243.43075071338737
DataValue, 0.73, -0.00291201, -250.68595231472418
DataValue, 0.74, -0.00286221, -258.54147669108835
DataValue, 0.75, -0.00280798, -267.095919486606
DataValue, 0.76, -0.00274836, -276.52854793404066
DataValue, 0.77, -0.0026847900000000003, -286.80082986006352
DataValue, 0.78, -0.00261636, -298.12411136082193
DataValue, 0.79, -0.00254316, -310.63716006857612
DataValue, 0.8, -0.00246451, -324.60813711447713
DataValue, 0.81, -0.00238019, -340.30896693121139
DataValue, 0.82000000000000006, -0.00229085, -357.94574066394568
DataValue, 0.83000000000000007, -0.00219595, -377.96853298116991
DataValue, 0.84000000000000008, -0.00209573, -400.814990480644
DataValue, 0.85000000000000009, -0.00199009, -427.11636157158728
DataValue, 0.86, -0.00187874, -457.75360081756918
DataValue, 0.87, -0.0017619600000000001, -493.7683034802152
DataValue, 0.88, -0.00163986, -536.63117583208327
DataValue, 0.89, -0.00151212, -588.57762611432952
DataValue, 0.9, -0.00137932, -652.49543253197226
DataValue, 0.91, -0.00124077, -733.415540349944
DataValue, 0.92, -0.00109706, -838.60499881501471
DataValue, 0.93, -0.000949078, -979.8983855910684
DataValue, 0.94000000000000006, -0.00079520400000000009, -1182.0866092222875
DataValue, 0.95000000000000007, -0.000635586, -1494.6836462728884
DataValue, 0.96000000000000008, -0.00047002500000000005, -2042.4445508217648
DataValue, 0.97000000000000008, -0.00029833100000000004, -3251.4220781615049
DataValue, 0.98000000000000009, -0.000120156, -8156.0637837477952
DataValue, 0.9900000000000001, 7.50448E-05, 13192.119907042195
DataValue, 1, 0.000261056, 3830.59573424859
DataValue, 1.01, 0.000452619, 2231.4573625941466
DataValue, 1.02, 0.000648915, 1571.8545572224405
DataValue, 1.03, 0.000850653, 1210.8345000840529
DataValue, 1.04, 0.00105808, 982.912445183729
DataValue, 1.05, 0.0012683500000000001, 827.84720305909252
DataValue, 1.06, 0.00148511, 713.75184329780291
DataValue, 1.07, 0.00170656, 626.99231201950124
DataValue, 1.08, 0.00193188, 559.04093421951677
DataValue, 1.09, 0.00216717, 502.96008158104814
DataValue, 1.1, 0.0024003600000000003, 458.26459364428666
DataValue, 1.1, 0.00239229, 459.81047448260875
DataValue, 1.09, 0.00214132, 509.03181215325134
DataValue, 1.08, 0.0018973, 569.22995836188272
DataValue, 1.07, 0.0016611500000000001, 644.13207717545072
DataValue, 1.06, 0.0014192, 746.8996617812852
DataValue, 1.05, 0.0011846, 886.37514772919133
DataValue, 1.04, 0.000959361, 1084.0549073810589
DataValue, 1.03, 0.000739051, 1393.6791912872047
DataValue, 1.02, 0.000518448, 1967.4104249606517
DataValue, 1.01, 0.000302251, 3341.5935761999131
DataValue, 1, 9.563260000000001E-05, 10456.685272595327
DataValue, 0.9900000000000001, -0.00011996100000000001, -8252.68212168955
DataValue, 0.98000000000000009, -0.00031816600000000004, -3080.1531276126298
DataValue, 0.97000000000000008, -0.00050640100000000007, -1915.4780500038505
DataValue, 0.96000000000000008, -0.000690725, -1389.8440044880381
DataValue, 0.95000000000000007, -0.0008673620000000001, -1095.2750985171128
DataValue, 0.94000000000000006, -0.00103735, -906.15510676242354
DataValue, 0.93, -0.00120147, -774.05178656146222
DataValue, 0.92, -0.00135787, -677.531722477115
DataValue, 0.91, -0.0015077600000000001, -603.54433066270485
DataValue, 0.9, -0.00164762, -546.24245881938793
DataValue, 0.89, -0.0017825, -499.29873772791024
DataValue, 0.88, -0.00191098, -460.49670849511767
DataValue, 0.87, -0.00203192, -428.1664632465845
DataValue, 0.86, -0.00214712, -400.53653265769958
DataValue, 0.85000000000000009, -0.00225783, -376.46767028518536
DataValue, 0.84000000000000008, -0.00235831, -356.18726969736804
DataValue, 0.83000000000000007, -0.00245516, -338.06350706267619
DataValue, 0.82000000000000006, -0.00254514, -322.18266971561491
DataValue, 0.81, -0.00262677, -308.36350346623419
DataValue, 0.8, -0.00270304, -295.96306380963659
DataValue, 0.79, -0.00277348, -284.84070553961089
DataValue, 0.78, -0.00283804, -274.837563952587
DataValue, 0.77, -0.00289793, -265.70690113287759
DataValue, 0.76, -0.00295413, -257.26694492117815
DataValue, 0.75, -0.00300167, -249.8609107596771
DataValue, 0.74, -0.0030445, -243.06125800624076
DataValue, 0.73, -0.0030841700000000002, -236.69252991890846
DataValue, 0.72000000000000008, -0.00312114, -230.68494204040835
DataValue, 0.71000000000000008, -0.00315126, -225.30670271573914
DataValue, 0.70000000000000007, -0.00317905, -220.19156666299682
DataValue, 0.69000000000000006, -0.00320398, -215.35714954525312
DataValue, 0.68, -0.0032274400000000003, -210.69330491039338
DataValue, 0.67, -0.00325195, -206.03022801703594
DataValue, 0.66, -0.00327495, -201.52979434800531
DataValue, 0.65, -0.00329206, -197.44476103108693
DataValue, 0.64, -0.00330523, -193.63251574020566
DataValue, 0.63, -0.00331856, -189.84137698278772
DataValue, 0.62, -0.00333161, -186.09621174147034
DataValue, 0.61, -0.00334365, -182.43536255289877
DataValue, 0.6, -0.00335323, -178.93195515965203
DataValue, 0.59000000000000008, -0.00336229, -175.4756430884903
DataValue, 0.58000000000000007, -0.00337169, -172.02055942272276
DataValue, 0.57000000000000006, -0.00337893, -168.69245589580135
DataValue, 0.56, -0.0033870700000000003, -165.33464026429923
DataValue, 0.55, -0.00339469, -162.01773946958338
DataValue, 0.54, -0.0034008800000000002, -158.78243278210346
DataValue, 0.53, -0.003406, -155.60775102759837
DataValue, 0.52, -0.00341107, -152.44483402568696
DataValue, 0.51, -0.0034153, -149.32802389248383
DataValue, 0.5, -0.0034196400000000003, -146.21422138002831
DataValue, 0.49000000000000005, -0.00342489, -143.0702883888242
DataValue, 0.48000000000000004, -0.00342858, -139.999650000875
DataValue, 0.47000000000000003, -0.0034316200000000002, -136.96155168695836
DataValue, 0.46, -0.00343646, -133.8586801534137
DataValue, 0.45, -0.00343913, -130.84704561909553
DataValue, 0.44, -0.0034424300000000002, -127.81668763054005
DataValue, 0.43, -0.00344558, -124.79756673767551
DataValue, 0.42000000000000004, -0.00344858, -121.78925818742788
DataValue, 0.41000000000000003, -0.00345089, -118.80993019192152
DataValue, 0.4, -0.00345313, -115.83693634470757
DataValue, 0.39, -0.00345503, -112.87890409055783
DataValue, 0.38, -0.00345701, -109.92157963095276
DataValue, 0.37, -0.00345887, -106.97135191550997
DataValue, 0.36000000000000004, -0.0034606, -104.02820320175694
DataValue, 0.35000000000000003, -0.00346241, -101.08565998827407
DataValue, 0.34, -0.00346386, -98.156392001986234
DataValue, 0.33, -0.00346534, -95.228751002787618
DataValue, 0.32, -0.00346669, -92.307071010098966
DataValue, 0.31, -0.00346807, -89.386892421433245
DataValue, 0.3, -0.00346919, -86.475517339782485
DataValue, 0.29000000000000004, -0.0034705400000000003, -83.560483382989389
DataValue, 0.28, -0.00347143, -80.658403021233326
DataValue, 0.27, -0.0034725, -77.7537796976242
DataValue, 0.26, -0.00347367, -74.848791048084593
DataValue, 0.25, -0.00347458, -71.951142296335092
DataValue, 0.24000000000000002, -0.00347566, -69.051633358844072
DataValue, 0.23, -0.00347636, -66.161157072340032
DataValue, 0.22, -0.00347737, -63.266204056513978
DataValue, 0.21000000000000002, -0.0034781300000000003, -60.377271694847522
DataValue, 0.2, -0.0034789400000000002, -57.488775316619432
DataValue, 0.19, -0.0034798, -54.600839128685557
DataValue, 0.18000000000000002, -0.00348029, -51.719827945372373
DataValue, 0.17, -0.0034812000000000003, -48.833735493507987
DataValue, 0.16, -0.0034818, -45.953242575679248
DataValue, 0.15, -0.00348256, -43.071763300560505
DataValue, 0.14, -0.0034829, -40.196388067415086
DataValue, 0.13, -0.00348359, -37.317824428247874
DataValue, 0.12000000000000001, -0.00348411, -34.442081334975079
DataValue, 0.11, -0.0034845600000000003, -31.567830658677135
DataValue, 0.1, -0.0034849, -28.695227983586332
DataValue, 0.090000000000000011, -0.00348554, -25.82096317930651
DataValue, 0.08, -0.0034859500000000002, -22.949267774925055
DataValue, 0.07, -0.0034863900000000002, -20.078075028898088
DataValue, 0.060000000000000005, -0.00348673, -17.20810042647409
DataValue, 0.05, -0.0034872, -14.338150952053223
DataValue, 0.04, -0.00348753, -11.469435388369419
DataValue, 0.030000000000000002, -0.00348779, -8.6014352928358644
DataValue, 0.02, -0.00348808, -5.7338134446457651
DataValue, 0.01, -0.0034885000000000003, -2.866561559409488
DataValue, 0, -0.00348881, -0
DataValue, -0.01, -0.0034891, 2.8660686136826117
DataValue, -0.02, -0.00348932, 5.7317758187841754
DataValue, -0.030000000000000002, -0.00348977, 8.59655507383008
DataValue, -0.04, -0.00348977, 11.46207343177344
DataValue, -0.05, -0.0034900400000000002, 14.326483364087517
DataValue, -0.060000000000000005, -0.00349028, 17.190597888994581
DataValue, -0.07, -0.0034906, 20.053858935426575
DataValue, -0.08, -0.00349089, 22.916791992872877
DataValue, -0.090000000000000011, -0.00349105, 25.780209392589626
DataValue, -0.1, -0.00349174, 28.63901665072428
DataValue, -0.11, -0.00349138, 31.506166616065855
DataValue, -0.12000000000000001, -0.00349183, 34.365934194963678
DataValue, -0.13, -0.00349247, 37.222939638708418
DataValue, -0.14, -0.00349239, 40.087160941361077
DataValue, -0.15, -0.00349213, 42.953727381283052
DataValue, -0.16, -0.00349275, 45.809176150597665
DataValue, -0.17, -0.003493, 48.668766103635846
DataValue, -0.18000000000000002, -0.00349345, 51.524996779687712
DataValue, -0.19, -0.00349316, 54.392011817380251
DataValue, -0.2, -0.00349364, 57.246882907225704