﻿
SetupTitle, Solar Cell-Jinno
PrimitiveTest, I/V Sweep
TestParameter, Context.MainFrame, B1500A
TestParameter, Channel.UnitType, SMU, SMU
TestParameter, Channel.Unit, SMU1:HP, SMU2:HR
TestParameter, Channel.IName, I1, I2
TestParameter, Channel.VName, V1, V2
TestParameter, Channel.Mode, V, V
TestParameter, Channel.Func, VAR1, CONST
TestParameter, Channel.Index, 
TestParameter, Channel.Time, 
TestParameter, Measurement.Port.Unit, SMU1:HP, SMU2:HR
TestParameter, Measurement.Port.SeriesResistor, NONE, NONE
TestParameter, Measurement.Port.Filter, ON, ON
TestParameter, Measurement.Port.OutputVoltageComparison, 0, 0
TestParameter, Measurement.Primary.Locus, Double
TestParameter, Measurement.Primary.Scale, LINEAR
TestParameter, Measurement.Primary.Start, -0.2
TestParameter, Measurement.Primary.Stop, 1.1
TestParameter, Measurement.Primary.Step, 0.01
TestParameter, Measurement.Primary.Compliance, 0.01
TestParameter, Measurement.Primary.PowerCompliance, 1
TestParameter, Measurement.Aborting.Condition, SKIP AT ANY ABNORMAL
TestParameter, Measurement.PostOutput.Value, START
TestParameter, Measurement.PostOutput.Retention, OFF
TestParameter, Measurement.Bias.Source, -0.2, 0
TestParameter, Measurement.Bias.Compliance, 0.01, 0.1
TestParameter, Measurement.Monitor.Unit, SMU1:HP, SMU2:HR
TestParameter, Measurement.Monitor.Adc, HR ADC, HR ADC
TestParameter, Measurement.Monitor.Measurement, Compliance Side, Compliance Side
TestParameter, Measurement.Monitor.RangingMode, LIMITED, LIMITED
TestParameter, Measurement.Monitor.RangeBoundary, 1nA, 1nA
TestParameter, Measurement.Monitor.RangeRating, BY FULL RANGE, BY FULL RANGE
TestParameter, Measurement.Monitor.RangeRatingCoeff, 50, 50
TestParameter, Measurement.Timing.Hold, 1
TestParameter, Measurement.Timing.Delay, 0
TestParameter, Measurement.Adc.HighSpeed.Mode, AUTO
TestParameter, Measurement.Adc.HighSpeed.Coeff, 1
TestParameter, Measurement.Adc.HighResolution.AutoZero, OFF
TestParameter, Measurement.Adc.HighResolution.Mode, PLC
TestParameter, Measurement.Adc.HighResolution.Coeff, 8
TestParameter, Measurement.WaitTime.Source.Coeff, 1
TestParameter, Measurement.WaitTime.Source.Offset, 0
TestParameter, Measurement.WaitTime.Monitor.Coeff, 1
TestParameter, Measurement.WaitTime.Monitor.Offset, 0
TestParameter, Function.Analysis.Name, r1
TestParameter, Function.Analysis.Unit, ohm
TestParameter, Function.Analysis.Definition, V1/I1
TestParameter, Output.Graph.Enabled, true
TestParameter, Output.Graph.XAxis.Data, V1
TestParameter, Output.Graph.XAxis.Scale, Linear
TestParameter, Output.Graph.XAxis.Left, -0.2
TestParameter, Output.Graph.XAxis.Right, 1.2
TestParameter, Output.Graph.YAxis.Data, I1
TestParameter, Output.Graph.YAxis.Scale, Linear
TestParameter, Output.Graph.YAxis.Bottom, -0.1
TestParameter, Output.Graph.YAxis.Top, 0.1
TestParameter, Output.Graph.YAxis.Group, 
TestParameter, Output.List.Data, V1, I1, r1
TestParameter, AutoAnalysis.Interpolation, false
TestParameter, AutoAnalysis.Line1.Enabled, false
TestParameter, AutoAnalysis.Line1.Type, 1
TestParameter, AutoAnalysis.Line1.Fix, True
TestParameter, AutoAnalysis.Line1.YAxis, 0
TestParameter, AutoAnalysis.Line1.Point1.Type, 0
TestParameter, AutoAnalysis.Line1.Point1.XY.X, 
TestParameter, AutoAnalysis.Line1.Point1.XY.Y, 
TestParameter, AutoAnalysis.Line1.Point1.Data.Var, 
TestParameter, AutoAnalysis.Line1.Point1.Data.Condition, 
TestParameter, AutoAnalysis.Line1.Point1.Data.Start, false
TestParameter, AutoAnalysis.Line1.Point1.Data.StartVar, 
TestParameter, AutoAnalysis.Line1.Point1.Data.StartCondition, 
TestParameter, AutoAnalysis.Line1.Point2.Type, 0
TestParameter, AutoAnalysis.Line1.Point2.XY.X, 
TestParameter, AutoAnalysis.Line1.Point2.XY.Y, 
TestParameter, AutoAnalysis.Line1.Point2.Data.Var, 
TestParameter, AutoAnalysis.Line1.Point2.Data.Condition, 
TestParameter, AutoAnalysis.Line1.Point2.Data.Start, false
TestParameter, AutoAnalysis.Line1.Point2.Data.StartVar, 
TestParameter, AutoAnalysis.Line1.Point2.Data.StartCondition, 
TestParameter, AutoAnalysis.Line1.GradientExpr, 0
TestParameter, AutoAnalysis.Line2.Enabled, false
TestParameter, AutoAnalysis.Line2.Type, 1
TestParameter, AutoAnalysis.Line2.Fix, True
TestParameter, AutoAnalysis.Line2.YAxis, 0
TestParameter, AutoAnalysis.Line2.Point1.Type, 0
TestParameter, AutoAnalysis.Line2.Point1.XY.X, 
TestParameter, AutoAnalysis.Line2.Point1.XY.Y, 
TestParameter, AutoAnalysis.Line2.Point1.Data.Var, 
TestParameter, AutoAnalysis.Line2.Point1.Data.Condition, 
TestParameter, AutoAnalysis.Line2.Point1.Data.Start, false
TestParameter, AutoAnalysis.Line2.Point1.Data.StartVar, 
TestParameter, AutoAnalysis.Line2.Point1.Data.StartCondition, 
TestParameter, AutoAnalysis.Line2.Point2.Type, 0
TestParameter, AutoAnalysis.Line2.Point2.XY.X, 
TestParameter, AutoAnalysis.Line2.Point2.XY.Y, 
TestParameter, AutoAnalysis.Line2.Point2.Data.Var, 
TestParameter, AutoAnalysis.Line2.Point2.Data.Condition, 
TestParameter, AutoAnalysis.Line2.Point2.Data.Start, false
TestParameter, AutoAnalysis.Line2.Point2.Data.StartVar, 
TestParameter, AutoAnalysis.Line2.Point2.Data.StartCondition, 
TestParameter, AutoAnalysis.Line2.GradientExpr, 0
TestParameter, AutoAnalysis.Marker.Enabled, false
TestParameter, AutoAnalysis.Marker.Data.Var, 
TestParameter, AutoAnalysis.Marker.Data.Condition, 
TestParameter, AutoAnalysis.Marker.Data.Start, false
TestParameter, AutoAnalysis.Marker.Data.StartVar, 
TestParameter, AutoAnalysis.Marker.Data.StartCondition, 
MetaData, TestRecord.EntryPoint, true
MetaData, TestRecord.RecordTime, 12/07/2021 15:53:27
MetaData, TestRecord.TestTarget, 
MetaData, TestRecord.IterationIndex, 8
MetaData, TestRecord.Preservation, true
MetaData, TestRecord.Flag, 
MetaData, TestRecord.Remarks, 
MetaData, TestRecord.LinkKey, 3c658d59-b382-4fd1-86ae-8e2cdeb67182
AnalysisSetup, Analysis.Setup.Vector.Graph.Enabled, true
AnalysisSetup, Analysis.Setup.Vector.Graph.ActiveYAxis, 0
AnalysisSetup, Analysis.Setup.Vector.Graph.LeftYAxis, 0
AnalysisSetup, Analysis.Setup.Vector.Graph.RightYAxis, -1
AnalysisSetup, Analysis.Setup.Vector.Graph.XAxis.Name, V1
AnalysisSetup, Analysis.Setup.Vector.Graph.XAxis.GroupName, 
AnalysisSetup, Analysis.Setup.Vector.Graph.XAxis.Unit, V
AnalysisSetup, Analysis.Setup.Vector.Graph.XAxis.Scale, Linear
AnalysisSetup, Analysis.Setup.Vector.Graph.XAxis.Left, -0.2
AnalysisSetup, Analysis.Setup.Vector.Graph.XAxis.Right, 1.2
AnalysisSetup, Analysis.Setup.Vector.Graph.YAxis.Name, I1
AnalysisSetup, Analysis.Setup.Vector.Graph.YAxis.GroupName, 
AnalysisSetup, Analysis.Setup.Vector.Graph.YAxis.Unit, A
AnalysisSetup, Analysis.Setup.Vector.Graph.YAxis.Scale, Linear
AnalysisSetup, Analysis.Setup.Vector.Graph.YAxis.Bottom, -0.0038
AnalysisSetup, Analysis.Setup.Vector.Graph.YAxis.Top, 0.001
AnalysisSetup, Analysis.Setup.Vector.Graph.Operation.Marker.Enabled, false
AnalysisSetup, Analysis.Setup.Vector.Graph.Operation.Marker.Interpolation, false
AnalysisSetup, Analysis.Setup.Vector.Graph.Operation.Marker.Index, 0
AnalysisSetup, Analysis.Setup.Vector.Graph.Operation.Marker.Step, 0
AnalysisSetup, Analysis.Setup.Vector.Graph.Operation.Cursor.Enabled, false
AnalysisSetup, Analysis.Setup.Vector.Graph.Operation.Cursor.Active, true
AnalysisSetup, Analysis.Setup.Vector.Graph.Operation.Cursor.NormalX, 0.5
AnalysisSetup, Analysis.Setup.Vector.Graph.Operation.Cursor.NormalY, 0.79166666666666663
AnalysisSetup, Analysis.Setup.Vector.Graph.Operation.Line1.Enabled, false
AnalysisSetup, Analysis.Setup.Vector.Graph.Operation.Line1.Active, false
AnalysisSetup, Analysis.Setup.Vector.Graph.Operation.Line1.Fix, false
AnalysisSetup, Analysis.Setup.Vector.Graph.Operation.Line1.Type, 1
AnalysisSetup, Analysis.Setup.Vector.Graph.Operation.Line1.YAxisIndex, 0
AnalysisSetup, Analysis.Setup.Vector.Graph.Operation.Line1.LastIndex, -1
AnalysisSetup, Analysis.Setup.Vector.Graph.Operation.Line1.LastStep, -1
AnalysisSetup, Analysis.Setup.Vector.Graph.Operation.Line1.Cursor1.Enabled, false
AnalysisSetup, Analysis.Setup.Vector.Graph.Operation.Line1.Cursor1.Active, false
AnalysisSetup, Analysis.Setup.Vector.Graph.Operation.Line1.Cursor1.NormalX, 0.5
AnalysisSetup, Analysis.Setup.Vector.Graph.Operation.Line1.Cursor1.NormalY, 0.79166666666666663
AnalysisSetup, Analysis.Setup.Vector.Graph.Operation.Line1.Cursor2.Enabled, false
AnalysisSetup, Analysis.Setup.Vector.Graph.Operation.Line1.Cursor2.Active, false
AnalysisSetup, Analysis.Setup.Vector.Graph.Operation.Line1.Cursor2.NormalX, 0.5
AnalysisSetup, Analysis.Setup.Vector.Graph.Operation.Line1.Cursor2.NormalY, 0.79166666666666663
AnalysisSetup, Analysis.Setup.Vector.Graph.Operation.Line1.Gradient, 
AnalysisSetup, Analysis.Setup.Vector.Graph.Operation.Line2.Enabled, false
AnalysisSetup, Analysis.Setup.Vector.Graph.Operation.Line2.Active, false
AnalysisSetup, Analysis.Setup.Vector.Graph.Operation.Line2.Fix, false
AnalysisSetup, Analysis.Setup.Vector.Graph.Operation.Line2.Type, 1
AnalysisSetup, Analysis.Setup.Vector.Graph.Operation.Line2.YAxisIndex, 0
AnalysisSetup, Analysis.Setup.Vector.Graph.Operation.Line2.LastIndex, -1
AnalysisSetup, Analysis.Setup.Vector.Graph.Operation.Line2.LastStep, -1
AnalysisSetup, Analysis.Setup.Vector.Graph.Operation.Line2.Cursor1.Enabled, false
AnalysisSetup, Analysis.Setup.Vector.Graph.Operation.Line2.Cursor1.Active, false
AnalysisSetup, Analysis.Setup.Vector.Graph.Operation.Line2.Cursor1.NormalX, 0.5
AnalysisSetup, Analysis.Setup.Vector.Graph.Operation.Line2.Cursor1.NormalY, 0.79166666666666663
AnalysisSetup, Analysis.Setup.Vector.Graph.Operation.Line2.Cursor2.Enabled, false
AnalysisSetup, Analysis.Setup.Vector.Graph.Operation.Line2.Cursor2.Active, false
AnalysisSetup, Analysis.Setup.Vector.Graph.Operation.Line2.Cursor2.NormalX, 0.5
AnalysisSetup, Analysis.Setup.Vector.Graph.Operation.Line2.Cursor2.NormalY, 0.79166666666666663
AnalysisSetup, Analysis.Setup.Vector.Graph.Operation.Line2.Gradient, 
AnalysisSetup, Analysis.Setup.Vector.Graph.Preference.BackgroundColor, -1
AnalysisSetup, Analysis.Setup.Vector.Graph.Preference.TextColor, -16777216
AnalysisSetup, Analysis.Setup.Vector.Graph.Preference.GridColor, -3618616
AnalysisSetup, Analysis.Setup.Vector.Graph.Preference.LineColor, -65336
AnalysisSetup, Analysis.Setup.Vector.Graph.Preference.Plots.Y1.Visible, true
AnalysisSetup, Analysis.Setup.Vector.Graph.Preference.Plots.Y1.PlotColor, -16777036
AnalysisSetup, Analysis.Setup.Vector.Graph.Preference.Plots.Y1.Thickness, 1
AnalysisSetup, Analysis.Setup.Vector.Graph.Preference.Plots.Y2.Visible, true
AnalysisSetup, Analysis.Setup.Vector.Graph.Preference.Plots.Y2.PlotColor, -39936
AnalysisSetup, Analysis.Setup.Vector.Graph.Preference.Plots.Y2.Thickness, 1
AnalysisSetup, Analysis.Setup.Vector.Graph.Preference.Plots.Y3.Visible, true
AnalysisSetup, Analysis.Setup.Vector.Graph.Preference.Plots.Y3.PlotColor, -16731136
AnalysisSetup, Analysis.Setup.Vector.Graph.Preference.Plots.Y3.Thickness, 1
AnalysisSetup, Analysis.Setup.Vector.Graph.Preference.Plots.Y4.Visible, true
AnalysisSetup, Analysis.Setup.Vector.Graph.Preference.Plots.Y4.PlotColor, -8892376
AnalysisSetup, Analysis.Setup.Vector.Graph.Preference.Plots.Y4.Thickness, 1
AnalysisSetup, Analysis.Setup.Vector.Graph.Preference.Plots.Y5.Visible, true
AnalysisSetup, Analysis.Setup.Vector.Graph.Preference.Plots.Y5.PlotColor, -65536
AnalysisSetup, Analysis.Setup.Vector.Graph.Preference.Plots.Y5.Thickness, 1
AnalysisSetup, Analysis.Setup.Vector.Graph.Preference.Plots.Y6.Visible, true
AnalysisSetup, Analysis.Setup.Vector.Graph.Preference.Plots.Y6.PlotColor, -14336
AnalysisSetup, Analysis.Setup.Vector.Graph.Preference.Plots.Y6.Thickness, 1
AnalysisSetup, Analysis.Setup.Vector.Graph.Preference.Plots.Y7.Visible, true
AnalysisSetup, Analysis.Setup.Vector.Graph.Preference.Plots.Y7.PlotColor, -6946586
AnalysisSetup, Analysis.Setup.Vector.Graph.Preference.Plots.Y7.Thickness, 1
AnalysisSetup, Analysis.Setup.Vector.Graph.Preference.Plots.Y8.Visible, true
AnalysisSetup, Analysis.Setup.Vector.Graph.Preference.Plots.Y8.PlotColor, -16733546
AnalysisSetup, Analysis.Setup.Vector.Graph.Preference.Plots.Y8.Thickness, 1
AnalysisSetup, Analysis.Setup.Vector.Graph.Preference.Text.AxisTitle.FontName, Tahoma
AnalysisSetup, Analysis.Setup.Vector.Graph.Preference.Text.AxisTitle.RelativeSize, Medium
AnalysisSetup, Analysis.Setup.Vector.Graph.Preference.Text.AxisTitle.Size, 7
AnalysisSetup, Analysis.Setup.Vector.Graph.Preference.Text.ScaleText.FontName, Tahoma
AnalysisSetup, Analysis.Setup.Vector.Graph.Preference.Text.ScaleText.RelativeSize, Medium
AnalysisSetup, Analysis.Setup.Vector.Graph.Preference.Text.ScaleText.Size, 7
AnalysisSetup, Analysis.Setup.Vector.Graph.Preference.Text.Legend.FontName, Tahoma
AnalysisSetup, Analysis.Setup.Vector.Graph.Preference.Text.Legend.RelativeSize, Medium
AnalysisSetup, Analysis.Setup.Vector.Graph.Preference.Text.Legend.Size, 7
AnalysisSetup, Analysis.Setup.Vector.Graph.Preference.Scale.LogTickedDecadeCount, 6
AnalysisSetup, Analysis.Setup.Vector.Graph.Preference.LogoVisible, true
AnalysisSetup, Analysis.Setup.Vector.Graph.Preference.GridVisible, true
AnalysisSetup, Analysis.Setup.Vector.Graph.Preference.SetupSummaryVisible, false
AnalysisSetup, Analysis.Setup.Vector.Graph.Notes, V1: [ -200 m, 1.1 ] V / 131; I1: 10 mA; 1 W	V2: 0 V; I2: 100 mA
AnalysisSetup, Analysis.Setup.Vector.List.Datum.Name, V1, I1, r1
AnalysisSetup, Analysis.Setup.Vector.List.Datum.Unit, V, A, ohm
AnalysisSetup, Analysis.Setup.Preference.GraphVisible, true
AnalysisSetup, Analysis.Setup.Preference.ListVisible, true
AnalysisSetup, Analysis.Setup.Preference.ScalarVisible, true
AnalysisSetup, Analysis.Setup.Title, Solar Cell-Jinno
Dimension1, 262, 262, 262
Dimension2, 1, 1, 1
DataName, V1, I1, r1
DataValue, -0.2, -0.00354285, 56.451726717190965
DataValue, -0.19, -0.00354151, 53.649432021934146
DataValue, -0.18000000000000002, -0.00354055, 50.8395588256062
DataValue, -0.17, -0.0035397000000000002, 48.0266689267452
DataValue, -0.16, -0.00353895, 45.211150199918059
DataValue, -0.15, -0.00353818, 42.394677489556777
DataValue, -0.14, -0.00353767, 39.57406993868846
DataValue, -0.13, -0.00353712, 36.753064640159231
DataValue, -0.12000000000000001, -0.0035363400000000002, 33.933388757868308
DataValue, -0.11, -0.0035358, 31.110356920640307
DataValue, -0.1, -0.00353505, 28.288143024851134
DataValue, -0.090000000000000011, -0.0035344400000000002, 25.463722683084168
DataValue, -0.08, -0.00353382, 22.63839131591309
DataValue, -0.07, -0.00353328, 19.811619798034688
DataValue, -0.060000000000000005, -0.00353296, 16.98292649789412
DataValue, -0.05, -0.00353309, 14.151918009447821
DataValue, -0.04, -0.00353177, 11.325765834128497
DataValue, -0.030000000000000002, -0.00353113, 8.4958639302432939
DataValue, -0.02, -0.00353074, 5.6645349133609386
DataValue, -0.01, -0.00353056, 2.8324118553430617
DataValue, 0, -0.00353037, -0
DataValue, 0.01, -0.00352921, -2.8334953148154969
DataValue, 0.02, -0.00352916, -5.6670709177254643
DataValue, 0.030000000000000002, -0.00352876, -8.5015699565853158
DataValue, 0.04, -0.0035280800000000003, -11.337611392031926
DataValue, 0.05, -0.0035273, -14.175148130297963
DataValue, 0.060000000000000005, -0.00352668, -17.01316819218075
DataValue, 0.07, -0.00352615, -19.851679593891355
DataValue, 0.08, -0.00352543, -22.692267326255237
DataValue, 0.090000000000000011, -0.00352468, -25.5342328949011
DataValue, 0.1, -0.00352432, -28.374267943887048
DataValue, 0.11, -0.00352354, -31.218604017550533
DataValue, 0.12000000000000001, -0.00352294, -34.062459196012426
DataValue, 0.13, -0.00352227, -36.908016705136177
DataValue, 0.14, -0.0035214400000000002, -39.756463265027946
DataValue, 0.15, -0.00352068, -42.605405773884591
DataValue, 0.16, -0.0035201, -45.453254168915656
DataValue, 0.17, -0.00351931, -48.304923408281745
DataValue, 0.18000000000000002, -0.00351882, -51.153511688577424
DataValue, 0.19, -0.00351794, -54.008880196933433
DataValue, 0.2, -0.00351701, -56.866486020796074
DataValue, 0.21000000000000002, -0.00351627, -59.722376268034026
DataValue, 0.22, -0.00351541, -62.581604990598535
DataValue, 0.23, -0.00351468, -65.439812443807114
DataValue, 0.24000000000000002, -0.00351381, -68.301928675710982
DataValue, 0.25, -0.00351265, -71.171337878809453
DataValue, 0.26, -0.00351186, -74.034841935612477
DataValue, 0.27, -0.00351098, -76.901605819457828
DataValue, 0.28, -0.00350996, -79.772988865969992
DataValue, 0.29000000000000004, -0.00350898, -82.645099145620676
DataValue, 0.3, -0.00350802, -85.518326577385523
DataValue, 0.31, -0.0035071, -88.392118844629465
DataValue, 0.32, -0.00350587, -91.2754893935029
DataValue, 0.33, -0.00350453, -94.163839373610728
DataValue, 0.34, -0.00350338, -97.049135406379
DataValue, 0.35000000000000003, -0.00350229, -99.934614209560038
DataValue, 0.36000000000000004, -0.00350079, -102.83393176968627
DataValue, 0.37, -0.00349942, -105.73180698515753
DataValue, 0.38, -0.00349765, -108.6443755092705
DataValue, 0.39, -0.00349629, -111.54681104828261
DataValue, 0.4, -0.00349444, -114.46755417177002
DataValue, 0.41000000000000003, -0.00349258, -117.39172760538057
DataValue, 0.42000000000000004, -0.00349073, -120.31867259856821
DataValue, 0.43, -0.00348873, -123.25402080413215
DataValue, 0.44, -0.0034871900000000003, -126.17609020443393
DataValue, 0.45, -0.00348531, -129.11333568606523
DataValue, 0.46, -0.00348219, -132.10077566129363
DataValue, 0.47000000000000003, -0.00348021, -135.04932173633202
DataValue, 0.48000000000000004, -0.00347778, -138.01908113796733
DataValue, 0.49000000000000005, -0.0034749200000000003, -141.01044052812728
DataValue, 0.5, -0.0034718, -144.01751252952357
DataValue, 0.51, -0.00346859, -147.03380912705163
DataValue, 0.52, -0.00346501, -150.0717169647418
DataValue, 0.53, -0.00346114, -153.12873793027731
DataValue, 0.54, -0.0034569, -156.20932048945588
DataValue, 0.55, -0.00345248, -159.30577439985171
DataValue, 0.56, -0.00344765, -162.4294809507926
DataValue, 0.57000000000000006, -0.00344259, -165.57301334169915
DataValue, 0.58000000000000007, -0.00343683, -168.76016561773497
DataValue, 0.59000000000000008, -0.0034308100000000003, -171.97105056823315
DataValue, 0.6, -0.00342401, -175.23313308080293
DataValue, 0.61, -0.00341756, -178.48991678273387
DataValue, 0.62, -0.00340929, -181.85604627356429
DataValue, 0.63, -0.0034007300000000002, -185.25434245000338
DataValue, 0.64, -0.00339144, -188.71040030193666
DataValue, 0.65, -0.00338135, -192.23091368831976
DataValue, 0.66, -0.0033699900000000002, -195.84627847560378
DataValue, 0.67, -0.00335756, -199.5496729768046
DataValue, 0.68, -0.00334364, -203.37117632280987
DataValue, 0.69000000000000006, -0.00332875, -207.28501689823509
DataValue, 0.70000000000000007, -0.00331182, -211.36414418658021
DataValue, 0.71000000000000008, -0.00329299, -215.60952204531446
DataValue, 0.72000000000000008, -0.00327225, -220.03208801283523
DataValue, 0.73, -0.00324896, -224.68728454643949
DataValue, 0.74, -0.00322294, -229.60402613762588
DataValue, 0.75, -0.00319374, -234.83439478479775
DataValue, 0.76, -0.00316045, -240.47208467148667
DataValue, 0.77, -0.00312342, -246.52464285942972
DataValue, 0.78, -0.00308186, -253.09391082008918
DataValue, 0.79, -0.00303498, -260.29825567219552
DataValue, 0.8, -0.00298199, -268.2772242696991
DataValue, 0.81, -0.00292226, -277.18272843621037
DataValue, 0.82000000000000006, -0.00285503, -287.21239356504134
DataValue, 0.83000000000000007, -0.00277899, -298.6696605601316
DataValue, 0.84000000000000008, -0.0026935, -311.86188973454614
DataValue, 0.85000000000000009, -0.00259755, -327.23142961636927
DataValue, 0.86, -0.00249013, -345.36349507857017
DataValue, 0.87, -0.00237058, -366.99879354419591
DataValue, 0.88, -0.00223795, -393.217006635537
DataValue, 0.89, -0.00209171, -425.48919305257419
DataValue, 0.9, -0.00193173, -465.903620071128
DataValue, 0.91, -0.0017576900000000001, -517.72496856669829
DataValue, 0.92, -0.00156959, -586.14032964022454
DataValue, 0.93, -0.00136723, -680.20742669485014
DataValue, 0.94000000000000006, -0.00115139, -816.404519754384
DataValue, 0.95000000000000007, -0.00092409300000000007, -1028.0350570775886
DataValue, 0.96000000000000008, -0.000683908, -1403.6975733578202
DataValue, 0.97000000000000008, -0.000430629, -2252.5189896639567
DataValue, 0.98000000000000009, -0.000165247, -5930.5161364502837
DataValue, 0.9900000000000001, 0.000124831, 7930.7223365990831
DataValue, 1, 0.00040852200000000003, 2447.8485858778718
DataValue, 1.01, 0.000701475, 1439.8232296232939
DataValue, 1.02, 0.00100414, 1015.794610313303
DataValue, 1.03, 0.00131459, 783.51425159175108
DataValue, 1.04, 0.0016330000000000001, 636.86466625842
DataValue, 1.05, 0.001958, 536.26149131767113
DataValue, 1.06, 0.00228949, 462.98520631232287
DataValue, 1.07, 0.00262785, 407.17696976615866
DataValue, 1.08, 0.0029725, 363.33052985702273
DataValue, 1.09, 0.00332262, 328.05436673468529
DataValue, 1.1, 0.0036785900000000002, 299.02761655960575
DataValue, 1.1, 0.0036611300000000003, 300.45368506444731
DataValue, 1.09, 0.0032638800000000003, 333.95835631211929
DataValue, 1.08, 0.0028708600000000003, 376.193893119135
DataValue, 1.07, 0.00248327, 430.88347219593521
DataValue, 1.06, 0.00210269, 504.11615597163637
DataValue, 1.05, 0.00172974, 607.02764577335324
DataValue, 1.04, 0.00136598, 761.358145800085
DataValue, 1.03, 0.0010119, 1017.88714299832
DataValue, 1.02, 0.000668195, 1526.5004976092309
DataValue, 1.01, 0.00033625500000000004, 3003.6728078392885
DataValue, 1, 2.6261300000000002E-05, 38078.846058649033
DataValue, 0.9900000000000001, -0.00030406300000000003, -3255.9042040629738
DataValue, 0.98000000000000009, -0.00060059400000000008, -1631.7179325800789
DataValue, 0.97000000000000008, -0.00088, -1102.2727272727273
DataValue, 0.96000000000000008, -0.00114285, -840.0052500328128
DataValue, 0.95000000000000007, -0.00138805, -684.41338568495371
DataValue, 0.94000000000000006, -0.00161486, -582.09380379723325
DataValue, 0.93, -0.00182298, -510.15370437415658
DataValue, 0.92, -0.00201278, -457.07926350619545
DataValue, 0.91, -0.0021840600000000003, -416.655220094686
DataValue, 0.9, -0.00233799, -384.94604339625067
DataValue, 0.89, -0.00247515, -359.57416722218852
DataValue, 0.88, -0.00259688, -338.86818027787189
DataValue, 0.87, -0.00270388, -321.75984141308044
DataValue, 0.86, -0.00279794, -307.36899290192071
DataValue, 0.85000000000000009, -0.00288017, -295.12146852442743
DataValue, 0.84000000000000008, -0.00295218, -284.53549580310147
DataValue, 0.83000000000000007, -0.0030147, -275.31761037582515
DataValue, 0.82000000000000006, -0.00306931, -267.16102316155752
DataValue, 0.81, -0.0031166600000000003, -259.89360405048996
DataValue, 0.8, -0.00315804, -253.32168053602868
DataValue, 0.79, -0.00319424, -247.32017631737128
DataValue, 0.78, -0.00322582, -241.79898444426536
DataValue, 0.77, -0.00325356, -236.66383899482415
DataValue, 0.76, -0.00327781, -231.86212745705214
DataValue, 0.75, -0.00329936, -227.31681295766452
DataValue, 0.74, -0.00331801, -223.0252470607382
DataValue, 0.73, -0.00333478, -218.9049952320693
DataValue, 0.72000000000000008, -0.0033497, -214.94462190643941
DataValue, 0.71000000000000008, -0.003363, -211.12102289622362
DataValue, 0.70000000000000007, -0.00337484, -207.41724052103211
DataValue, 0.69000000000000006, -0.0033853200000000003, -203.82120449470065
DataValue, 0.68, -0.0033947, -200.31225145079094
DataValue, 0.67, -0.00340344, -196.85964788566861
DataValue, 0.66, -0.00341143, -193.46725566697836
DataValue, 0.65, -0.00341853, -190.14020646301188
DataValue, 0.64, -0.0034255600000000002, -186.83076635644974
DataValue, 0.63, -0.00343174, -183.58034116803722
DataValue, 0.62, -0.0034361, -180.43712348301852
DataValue, 0.61, -0.00344079, -177.28486771933189
DataValue, 0.6, -0.00344565, -174.13260197640503
DataValue, 0.59000000000000008, -0.0034504, -170.99466728495247
DataValue, 0.58000000000000007, -0.00345403, -167.91979224268465
DataValue, 0.57000000000000006, -0.00345787, -164.84136187884451
DataValue, 0.56, -0.00346118, -161.79453250047675
DataValue, 0.55, -0.0034642600000000003, -158.764065052854
DataValue, 0.54, -0.00346715, -155.74751597133093
DataValue, 0.53, -0.00346986, -152.74391474007598
DataValue, 0.52, -0.00347238, -149.75319521480944
DataValue, 0.51, -0.00347452, -146.78286497127661
DataValue, 0.5, -0.0034768, -143.81040036815463
DataValue, 0.49000000000000005, -0.00347897, -140.84628496365303
DataValue, 0.48000000000000004, -0.00348092, -137.89457959390046
DataValue, 0.47000000000000003, -0.00348272, -134.95199154683698
DataValue, 0.46, -0.00348433, -132.01964222676958
DataValue, 0.45, -0.00348599, -129.08814999469306
DataValue, 0.44, -0.00348752, -126.16415102995825
DataValue, 0.43, -0.00348879, -123.25190108891621
DataValue, 0.42000000000000004, -0.00349027, -120.33452999338161
DataValue, 0.41000000000000003, -0.00349146, -117.42938484187131
DataValue, 0.4, -0.0034928900000000002, -114.51835013412962
DataValue, 0.39, -0.00349397, -111.62087825596672
DataValue, 0.38, -0.0034948600000000002, -108.73110796999021
DataValue, 0.37, -0.00349592, -105.83766218906611
DataValue, 0.36000000000000004, -0.0034969000000000003, -102.94832565987018
DataValue, 0.35000000000000003, -0.00349779, -100.06318275253804
DataValue, 0.34, -0.00349863, -97.180896522353038
DataValue, 0.33, -0.00349957, -94.297299382495567
DataValue, 0.32, -0.00350028, -91.42125772795319
DataValue, 0.31, -0.00350119, -88.5413245210914
DataValue, 0.3, -0.00350192, -85.6672910860328
DataValue, 0.29000000000000004, -0.00350261, -82.79540114371855
DataValue, 0.28, -0.00350341, -79.9221330075555
DataValue, 0.27, -0.00350408, -77.053035318828336
DataValue, 0.26, -0.00350458, -74.188633160036289
DataValue, 0.25, -0.0035052, -71.322606413328771
DataValue, 0.24000000000000002, -0.0035058800000000003, -68.456421782833416
DataValue, 0.23, -0.00350646, -65.593219372244377
DataValue, 0.22, -0.0035068, -62.735257214554579
DataValue, 0.21000000000000002, -0.00350728, -59.875459045186012
DataValue, 0.2, -0.00350798, -57.012867804263429
DataValue, 0.19, -0.00350865, -54.151881777891788
DataValue, 0.18000000000000002, -0.00350891, -51.297981424430951
DataValue, 0.17, -0.0035094, -48.441329002108624
DataValue, 0.16, -0.0035098, -45.586643113567725
DataValue, 0.15, -0.0035104100000000003, -42.73005147546867
DataValue, 0.14, -0.00351074, -39.877632635854553
DataValue, 0.13, -0.00351145, -37.0217431545373
DataValue, 0.12000000000000001, -0.00351197, -34.168856795473765
DataValue, 0.11, -0.00351201, -31.321095327177314
DataValue, 0.1, -0.00351245, -28.470156158806535
DataValue, 0.090000000000000011, -0.0035128, -25.620587565474839
DataValue, 0.08, -0.00351325, -22.770938589624993
DataValue, 0.07, -0.00351379, -19.92150925354105
DataValue, 0.060000000000000005, -0.00351389, -17.075093414990224
DataValue, 0.05, -0.00351439, -14.227220086558408
DataValue, 0.04, -0.00351476, -11.380577905746055
DataValue, 0.030000000000000002, -0.0035151, -8.534607834769993
DataValue, 0.02, -0.00351537, -5.6893015528948592
DataValue, 0.01, -0.00351562, -2.8444484898822968
DataValue, 0, -0.00351636, -0
DataValue, -0.01, -0.0035161, 2.8440601803134156
DataValue, -0.02, -0.00351695, 5.6867456176516589
DataValue, -0.030000000000000002, -0.00351705, 8.5298758903057976
DataValue, -0.04, -0.00351768, 11.371130972686544
DataValue, -0.05, -0.0035178600000000003, 14.213186425838435
DataValue, -0.060000000000000005, -0.00351803, 17.054999530987512
DataValue, -0.07, -0.00351864, 19.894049973853537
DataValue, -0.08, -0.00351884, 22.734764865694377
DataValue, -0.090000000000000011, -0.00351891, 25.576101690580323
DataValue, -0.1, -0.00351953, 28.412884674942397
DataValue, -0.11, -0.00351989, 31.250976593018532
DataValue, -0.12000000000000001, -0.00351951, 34.095655361115611
DataValue, -0.13, -0.00351995, 36.932342788960071
DataValue, -0.14, -0.00352026, 39.7697897314403
DataValue, -0.15, -0.00352021, 42.611094224492284
DataValue, -0.16, -0.00352075, 45.444862600298229
DataValue, -0.17, -0.00352112, 48.280092697777981
DataValue, -0.18000000000000002, -0.00352131, 51.117339853634022
DataValue, -0.19, -0.00352143, 53.955353364968211
DataValue, -0.2, -0.0035216600000000002, 56.791399510458135