﻿
SetupTitle, Solar Cell-Jinno
PrimitiveTest, I/V Sweep
TestParameter, Context.MainFrame, B1500A
TestParameter, Channel.UnitType, SMU, SMU
TestParameter, Channel.Unit, SMU1:HP, SMU2:HR
TestParameter, Channel.IName, I1, I2
TestParameter, Channel.VName, V1, V2
TestParameter, Channel.Mode, V, V
TestParameter, Channel.Func, VAR1, CONST
TestParameter, Channel.Index, 
TestParameter, Channel.Time, 
TestParameter, Measurement.Port.Unit, SMU1:HP, SMU2:HR
TestParameter, Measurement.Port.SeriesResistor, NONE, NONE
TestParameter, Measurement.Port.Filter, ON, ON
TestParameter, Measurement.Port.OutputVoltageComparison, 0, 0
TestParameter, Measurement.Primary.Locus, Double
TestParameter, Measurement.Primary.Scale, LINEAR
TestParameter, Measurement.Primary.Start, -0.2
TestParameter, Measurement.Primary.Stop, 1.1
TestParameter, Measurement.Primary.Step, 0.01
TestParameter, Measurement.Primary.Compliance, 0.01
TestParameter, Measurement.Primary.PowerCompliance, 1
TestParameter, Measurement.Aborting.Condition, SKIP AT ANY ABNORMAL
TestParameter, Measurement.PostOutput.Value, START
TestParameter, Measurement.PostOutput.Retention, OFF
TestParameter, Measurement.Bias.Source, -0.2, 0
TestParameter, Measurement.Bias.Compliance, 0.01, 0.1
TestParameter, Measurement.Monitor.Unit, SMU1:HP, SMU2:HR
TestParameter, Measurement.Monitor.Adc, HR ADC, HR ADC
TestParameter, Measurement.Monitor.Measurement, Compliance Side, Compliance Side
TestParameter, Measurement.Monitor.RangingMode, LIMITED, LIMITED
TestParameter, Measurement.Monitor.RangeBoundary, 1nA, 1nA
TestParameter, Measurement.Monitor.RangeRating, BY FULL RANGE, BY FULL RANGE
TestParameter, Measurement.Monitor.RangeRatingCoeff, 50, 50
TestParameter, Measurement.Timing.Hold, 1
TestParameter, Measurement.Timing.Delay, 0
TestParameter, Measurement.Adc.HighSpeed.Mode, AUTO
TestParameter, Measurement.Adc.HighSpeed.Coeff, 1
TestParameter, Measurement.Adc.HighResolution.AutoZero, OFF
TestParameter, Measurement.Adc.HighResolution.Mode, PLC
TestParameter, Measurement.Adc.HighResolution.Coeff, 8
TestParameter, Measurement.WaitTime.Source.Coeff, 1
TestParameter, Measurement.WaitTime.Source.Offset, 0
TestParameter, Measurement.WaitTime.Monitor.Coeff, 1
TestParameter, Measurement.WaitTime.Monitor.Offset, 0
TestParameter, Function.Analysis.Name, r1
TestParameter, Function.Analysis.Unit, ohm
TestParameter, Function.Analysis.Definition, V1/I1
TestParameter, Output.Graph.Enabled, true
TestParameter, Output.Graph.XAxis.Data, V1
TestParameter, Output.Graph.XAxis.Scale, Linear
TestParameter, Output.Graph.XAxis.Left, -0.2
TestParameter, Output.Graph.XAxis.Right, 1.2
TestParameter, Output.Graph.YAxis.Data, I1
TestParameter, Output.Graph.YAxis.Scale, Linear
TestParameter, Output.Graph.YAxis.Bottom, -0.1
TestParameter, Output.Graph.YAxis.Top, 0.1
TestParameter, Output.Graph.YAxis.Group, 
TestParameter, Output.List.Data, V1, I1, r1
TestParameter, AutoAnalysis.Interpolation, false
TestParameter, AutoAnalysis.Line1.Enabled, false
TestParameter, AutoAnalysis.Line1.Type, 1
TestParameter, AutoAnalysis.Line1.Fix, True
TestParameter, AutoAnalysis.Line1.YAxis, 0
TestParameter, AutoAnalysis.Line1.Point1.Type, 0
TestParameter, AutoAnalysis.Line1.Point1.XY.X, 
TestParameter, AutoAnalysis.Line1.Point1.XY.Y, 
TestParameter, AutoAnalysis.Line1.Point1.Data.Var, 
TestParameter, AutoAnalysis.Line1.Point1.Data.Condition, 
TestParameter, AutoAnalysis.Line1.Point1.Data.Start, false
TestParameter, AutoAnalysis.Line1.Point1.Data.StartVar, 
TestParameter, AutoAnalysis.Line1.Point1.Data.StartCondition, 
TestParameter, AutoAnalysis.Line1.Point2.Type, 0
TestParameter, AutoAnalysis.Line1.Point2.XY.X, 
TestParameter, AutoAnalysis.Line1.Point2.XY.Y, 
TestParameter, AutoAnalysis.Line1.Point2.Data.Var, 
TestParameter, AutoAnalysis.Line1.Point2.Data.Condition, 
TestParameter, AutoAnalysis.Line1.Point2.Data.Start, false
TestParameter, AutoAnalysis.Line1.Point2.Data.StartVar, 
TestParameter, AutoAnalysis.Line1.Point2.Data.StartCondition, 
TestParameter, AutoAnalysis.Line1.GradientExpr, 0
TestParameter, AutoAnalysis.Line2.Enabled, false
TestParameter, AutoAnalysis.Line2.Type, 1
TestParameter, AutoAnalysis.Line2.Fix, True
TestParameter, AutoAnalysis.Line2.YAxis, 0
TestParameter, AutoAnalysis.Line2.Point1.Type, 0
TestParameter, AutoAnalysis.Line2.Point1.XY.X, 
TestParameter, AutoAnalysis.Line2.Point1.XY.Y, 
TestParameter, AutoAnalysis.Line2.Point1.Data.Var, 
TestParameter, AutoAnalysis.Line2.Point1.Data.Condition, 
TestParameter, AutoAnalysis.Line2.Point1.Data.Start, false
TestParameter, AutoAnalysis.Line2.Point1.Data.StartVar, 
TestParameter, AutoAnalysis.Line2.Point1.Data.StartCondition, 
TestParameter, AutoAnalysis.Line2.Point2.Type, 0
TestParameter, AutoAnalysis.Line2.Point2.XY.X, 
TestParameter, AutoAnalysis.Line2.Point2.XY.Y, 
TestParameter, AutoAnalysis.Line2.Point2.Data.Var, 
TestParameter, AutoAnalysis.Line2.Point2.Data.Condition, 
TestParameter, AutoAnalysis.Line2.Point2.Data.Start, false
TestParameter, AutoAnalysis.Line2.Point2.Data.StartVar, 
TestParameter, AutoAnalysis.Line2.Point2.Data.StartCondition, 
TestParameter, AutoAnalysis.Line2.GradientExpr, 0
TestParameter, AutoAnalysis.Marker.Enabled, false
TestParameter, AutoAnalysis.Marker.Data.Var, 
TestParameter, AutoAnalysis.Marker.Data.Condition, 
TestParameter, AutoAnalysis.Marker.Data.Start, false
TestParameter, AutoAnalysis.Marker.Data.StartVar, 
TestParameter, AutoAnalysis.Marker.Data.StartCondition, 
MetaData, TestRecord.EntryPoint, true
MetaData, TestRecord.RecordTime, 12/07/2021 15:58:35
MetaData, TestRecord.TestTarget, 
MetaData, TestRecord.IterationIndex, 11
MetaData, TestRecord.Preservation, true
MetaData, TestRecord.Flag, 
MetaData, TestRecord.Remarks, 
MetaData, TestRecord.LinkKey, ce5c1b35-b6cd-4118-b6f8-e026c1f289d2
AnalysisSetup, Analysis.Setup.Vector.Graph.Enabled, true
AnalysisSetup, Analysis.Setup.Vector.Graph.ActiveYAxis, 0
AnalysisSetup, Analysis.Setup.Vector.Graph.LeftYAxis, 0
AnalysisSetup, Analysis.Setup.Vector.Graph.RightYAxis, -1
AnalysisSetup, Analysis.Setup.Vector.Graph.XAxis.Name, V1
AnalysisSetup, Analysis.Setup.Vector.Graph.XAxis.GroupName, 
AnalysisSetup, Analysis.Setup.Vector.Graph.XAxis.Unit, V
AnalysisSetup, Analysis.Setup.Vector.Graph.XAxis.Scale, Linear
AnalysisSetup, Analysis.Setup.Vector.Graph.XAxis.Left, -0.2
AnalysisSetup, Analysis.Setup.Vector.Graph.XAxis.Right, 1.2
AnalysisSetup, Analysis.Setup.Vector.Graph.YAxis.Name, I1
AnalysisSetup, Analysis.Setup.Vector.Graph.YAxis.GroupName, 
AnalysisSetup, Analysis.Setup.Vector.Graph.YAxis.Unit, A
AnalysisSetup, Analysis.Setup.Vector.Graph.YAxis.Scale, Linear
AnalysisSetup, Analysis.Setup.Vector.Graph.YAxis.Bottom, -0.0038
AnalysisSetup, Analysis.Setup.Vector.Graph.YAxis.Top, 0.001
AnalysisSetup, Analysis.Setup.Vector.Graph.Operation.Marker.Enabled, false
AnalysisSetup, Analysis.Setup.Vector.Graph.Operation.Marker.Interpolation, false
AnalysisSetup, Analysis.Setup.Vector.Graph.Operation.Marker.Index, 0
AnalysisSetup, Analysis.Setup.Vector.Graph.Operation.Marker.Step, 0
AnalysisSetup, Analysis.Setup.Vector.Graph.Operation.Cursor.Enabled, false
AnalysisSetup, Analysis.Setup.Vector.Graph.Operation.Cursor.Active, true
AnalysisSetup, Analysis.Setup.Vector.Graph.Operation.Cursor.NormalX, 0.5
AnalysisSetup, Analysis.Setup.Vector.Graph.Operation.Cursor.NormalY, 0.79166666666666663
AnalysisSetup, Analysis.Setup.Vector.Graph.Operation.Line1.Enabled, false
AnalysisSetup, Analysis.Setup.Vector.Graph.Operation.Line1.Active, false
AnalysisSetup, Analysis.Setup.Vector.Graph.Operation.Line1.Fix, false
AnalysisSetup, Analysis.Setup.Vector.Graph.Operation.Line1.Type, 1
AnalysisSetup, Analysis.Setup.Vector.Graph.Operation.Line1.YAxisIndex, 0
AnalysisSetup, Analysis.Setup.Vector.Graph.Operation.Line1.LastIndex, -1
AnalysisSetup, Analysis.Setup.Vector.Graph.Operation.Line1.LastStep, -1
AnalysisSetup, Analysis.Setup.Vector.Graph.Operation.Line1.Cursor1.Enabled, false
AnalysisSetup, Analysis.Setup.Vector.Graph.Operation.Line1.Cursor1.Active, false
AnalysisSetup, Analysis.Setup.Vector.Graph.Operation.Line1.Cursor1.NormalX, 0.5
AnalysisSetup, Analysis.Setup.Vector.Graph.Operation.Line1.Cursor1.NormalY, 0.79166666666666663
AnalysisSetup, Analysis.Setup.Vector.Graph.Operation.Line1.Cursor2.Enabled, false
AnalysisSetup, Analysis.Setup.Vector.Graph.Operation.Line1.Cursor2.Active, false
AnalysisSetup, Analysis.Setup.Vector.Graph.Operation.Line1.Cursor2.NormalX, 0.5
AnalysisSetup, Analysis.Setup.Vector.Graph.Operation.Line1.Cursor2.NormalY, 0.79166666666666663
AnalysisSetup, Analysis.Setup.Vector.Graph.Operation.Line1.Gradient, 
AnalysisSetup, Analysis.Setup.Vector.Graph.Operation.Line2.Enabled, false
AnalysisSetup, Analysis.Setup.Vector.Graph.Operation.Line2.Active, false
AnalysisSetup, Analysis.Setup.Vector.Graph.Operation.Line2.Fix, false
AnalysisSetup, Analysis.Setup.Vector.Graph.Operation.Line2.Type, 1
AnalysisSetup, Analysis.Setup.Vector.Graph.Operation.Line2.YAxisIndex, 0
AnalysisSetup, Analysis.Setup.Vector.Graph.Operation.Line2.LastIndex, -1
AnalysisSetup, Analysis.Setup.Vector.Graph.Operation.Line2.LastStep, -1
AnalysisSetup, Analysis.Setup.Vector.Graph.Operation.Line2.Cursor1.Enabled, false
AnalysisSetup, Analysis.Setup.Vector.Graph.Operation.Line2.Cursor1.Active, false
AnalysisSetup, Analysis.Setup.Vector.Graph.Operation.Line2.Cursor1.NormalX, 0.5
AnalysisSetup, Analysis.Setup.Vector.Graph.Operation.Line2.Cursor1.NormalY, 0.79166666666666663
AnalysisSetup, Analysis.Setup.Vector.Graph.Operation.Line2.Cursor2.Enabled, false
AnalysisSetup, Analysis.Setup.Vector.Graph.Operation.Line2.Cursor2.Active, false
AnalysisSetup, Analysis.Setup.Vector.Graph.Operation.Line2.Cursor2.NormalX, 0.5
AnalysisSetup, Analysis.Setup.Vector.Graph.Operation.Line2.Cursor2.NormalY, 0.79166666666666663
AnalysisSetup, Analysis.Setup.Vector.Graph.Operation.Line2.Gradient, 
AnalysisSetup, Analysis.Setup.Vector.Graph.Preference.BackgroundColor, -1
AnalysisSetup, Analysis.Setup.Vector.Graph.Preference.TextColor, -16777216
AnalysisSetup, Analysis.Setup.Vector.Graph.Preference.GridColor, -3618616
AnalysisSetup, Analysis.Setup.Vector.Graph.Preference.LineColor, -65336
AnalysisSetup, Analysis.Setup.Vector.Graph.Preference.Plots.Y1.Visible, true
AnalysisSetup, Analysis.Setup.Vector.Graph.Preference.Plots.Y1.PlotColor, -16777036
AnalysisSetup, Analysis.Setup.Vector.Graph.Preference.Plots.Y1.Thickness, 1
AnalysisSetup, Analysis.Setup.Vector.Graph.Preference.Plots.Y2.Visible, true
AnalysisSetup, Analysis.Setup.Vector.Graph.Preference.Plots.Y2.PlotColor, -39936
AnalysisSetup, Analysis.Setup.Vector.Graph.Preference.Plots.Y2.Thickness, 1
AnalysisSetup, Analysis.Setup.Vector.Graph.Preference.Plots.Y3.Visible, true
AnalysisSetup, Analysis.Setup.Vector.Graph.Preference.Plots.Y3.PlotColor, -16731136
AnalysisSetup, Analysis.Setup.Vector.Graph.Preference.Plots.Y3.Thickness, 1
AnalysisSetup, Analysis.Setup.Vector.Graph.Preference.Plots.Y4.Visible, true
AnalysisSetup, Analysis.Setup.Vector.Graph.Preference.Plots.Y4.PlotColor, -8892376
AnalysisSetup, Analysis.Setup.Vector.Graph.Preference.Plots.Y4.Thickness, 1
AnalysisSetup, Analysis.Setup.Vector.Graph.Preference.Plots.Y5.Visible, true
AnalysisSetup, Analysis.Setup.Vector.Graph.Preference.Plots.Y5.PlotColor, -65536
AnalysisSetup, Analysis.Setup.Vector.Graph.Preference.Plots.Y5.Thickness, 1
AnalysisSetup, Analysis.Setup.Vector.Graph.Preference.Plots.Y6.Visible, true
AnalysisSetup, Analysis.Setup.Vector.Graph.Preference.Plots.Y6.PlotColor, -14336
AnalysisSetup, Analysis.Setup.Vector.Graph.Preference.Plots.Y6.Thickness, 1
AnalysisSetup, Analysis.Setup.Vector.Graph.Preference.Plots.Y7.Visible, true
AnalysisSetup, Analysis.Setup.Vector.Graph.Preference.Plots.Y7.PlotColor, -6946586
AnalysisSetup, Analysis.Setup.Vector.Graph.Preference.Plots.Y7.Thickness, 1
AnalysisSetup, Analysis.Setup.Vector.Graph.Preference.Plots.Y8.Visible, true
AnalysisSetup, Analysis.Setup.Vector.Graph.Preference.Plots.Y8.PlotColor, -16733546
AnalysisSetup, Analysis.Setup.Vector.Graph.Preference.Plots.Y8.Thickness, 1
AnalysisSetup, Analysis.Setup.Vector.Graph.Preference.Text.AxisTitle.FontName, Tahoma
AnalysisSetup, Analysis.Setup.Vector.Graph.Preference.Text.AxisTitle.RelativeSize, Medium
AnalysisSetup, Analysis.Setup.Vector.Graph.Preference.Text.AxisTitle.Size, 7
AnalysisSetup, Analysis.Setup.Vector.Graph.Preference.Text.ScaleText.FontName, Tahoma
AnalysisSetup, Analysis.Setup.Vector.Graph.Preference.Text.ScaleText.RelativeSize, Medium
AnalysisSetup, Analysis.Setup.Vector.Graph.Preference.Text.ScaleText.Size, 7
AnalysisSetup, Analysis.Setup.Vector.Graph.Preference.Text.Legend.FontName, Tahoma
AnalysisSetup, Analysis.Setup.Vector.Graph.Preference.Text.Legend.RelativeSize, Medium
AnalysisSetup, Analysis.Setup.Vector.Graph.Preference.Text.Legend.Size, 7
AnalysisSetup, Analysis.Setup.Vector.Graph.Preference.Scale.LogTickedDecadeCount, 6
AnalysisSetup, Analysis.Setup.Vector.Graph.Preference.LogoVisible, true
AnalysisSetup, Analysis.Setup.Vector.Graph.Preference.GridVisible, true
AnalysisSetup, Analysis.Setup.Vector.Graph.Preference.SetupSummaryVisible, false
AnalysisSetup, Analysis.Setup.Vector.Graph.Notes, V1: [ -200 m, 1.1 ] V / 131; I1: 10 mA; 1 W	V2: 0 V; I2: 100 mA
AnalysisSetup, Analysis.Setup.Vector.List.Datum.Name, V1, I1, r1
AnalysisSetup, Analysis.Setup.Vector.List.Datum.Unit, V, A, ohm
AnalysisSetup, Analysis.Setup.Preference.GraphVisible, true
AnalysisSetup, Analysis.Setup.Preference.ListVisible, true
AnalysisSetup, Analysis.Setup.Preference.ScalarVisible, true
AnalysisSetup, Analysis.Setup.Title, Solar Cell-Jinno
Dimension1, 262, 262, 262
Dimension2, 1, 1, 1
DataName, V1, I1, r1
DataValue, -0.2, -0.00354071, 56.485846059123737
DataValue, -0.19, -0.00353771, 53.70705908624506
DataValue, -0.18000000000000002, -0.0035359000000000002, 50.906417036680907
DataValue, -0.17, -0.00353302, 48.117474568499475
DataValue, -0.16, -0.00353163, 45.304859229307716
DataValue, -0.15, -0.00353022, 42.490269728232235
DataValue, -0.14, -0.00352902, 39.671070155453926
DataValue, -0.13, -0.00352752, 36.853086587744365
DataValue, -0.12000000000000001, -0.00352621, 34.030871672418833
DataValue, -0.11, -0.00352492, 31.206381988811096
DataValue, -0.1, -0.00352383, 28.378213477948712
DataValue, -0.090000000000000011, -0.00352286, 25.547424535746526
DataValue, -0.08, -0.00352176, 22.715914769887782
DataValue, -0.07, -0.00352074, 19.882183859075081
DataValue, -0.060000000000000005, -0.00351967, 17.047052706645797
DataValue, -0.05, -0.0035187, 14.209793389604116
DataValue, -0.04, -0.00351755, 11.371551221731036
DataValue, -0.030000000000000002, -0.00351661, 8.53094315263848
DataValue, -0.02, -0.00351578, 5.688638083156512
DataValue, -0.01, -0.00351483, 2.8450878136353679
DataValue, 0, -0.003514, -0
DataValue, 0.01, -0.00351303, -2.8465455746179225
DataValue, 0.02, -0.00351191, -5.6949067601390695
DataValue, 0.030000000000000002, -0.00351104, -8.5444768501640542
DataValue, 0.04, -0.00351007, -11.395784129661232
DataValue, 0.05, -0.0035091700000000003, -14.248383520889554
DataValue, 0.060000000000000005, -0.00350826, -17.102495254057569
DataValue, 0.07, -0.00350732, -19.958258727461427
DataValue, 0.08, -0.00350626, -22.816334213663563
DataValue, 0.090000000000000011, -0.00350507, -25.677090614452784
DataValue, 0.1, -0.0035041300000000003, -28.537754021682986
DataValue, 0.11, -0.00350305, -31.401207519161872
DataValue, 0.12000000000000001, -0.00350193, -34.266818582895723
DataValue, 0.13, -0.0035008, -37.134369287020107
DataValue, 0.14, -0.00349948, -40.005943740212835
DataValue, 0.15, -0.00349839, -42.876866215602028
DataValue, 0.16, -0.00349725, -45.750232325398528
DataValue, 0.17, -0.00349604, -48.626445921671376
DataValue, 0.18000000000000002, -0.0034947100000000003, -51.506419702922422
DataValue, 0.19, -0.00349335, -54.389053487340234
DataValue, 0.2, -0.0034920100000000003, -57.273604600215918
DataValue, 0.21000000000000002, -0.00349068, -60.160198012994613
DataValue, 0.22, -0.00348913, -63.052967358625217
DataValue, 0.23, -0.0034874800000000003, -65.950198997556967
DataValue, 0.24000000000000002, -0.00348608, -68.845235909675054
DataValue, 0.25, -0.00348437, -71.748981881947088
DataValue, 0.26, -0.00348253, -74.658366187800254
DataValue, 0.27, -0.00348102, -77.563472775221058
DataValue, 0.28, -0.00347911, -80.48035273388885
DataValue, 0.29000000000000004, -0.0034771800000000003, -83.400916834906454
DataValue, 0.3, -0.00347564, -86.3150383814204
DataValue, 0.31, -0.00347344, -89.2486986963932
DataValue, 0.32, -0.00347071, -92.200155011510617
DataValue, 0.33, -0.00346896, -95.129375951293767
DataValue, 0.34, -0.0034658700000000002, -98.099467089071425
DataValue, 0.35000000000000003, -0.0034629400000000003, -101.07018891462168
DataValue, 0.36000000000000004, -0.00346011, -104.0429350511978
DataValue, 0.37, -0.00345795, -106.99981202735725
DataValue, 0.38, -0.00345456, -109.99953684405539
DataValue, 0.39, -0.00345135, -112.99926115867704
DataValue, 0.4, -0.00344801, -116.00894428960473
DataValue, 0.41000000000000003, -0.00344426, -119.03863239128289
DataValue, 0.42000000000000004, -0.00344041, -122.07847320522845
DataValue, 0.43, -0.00343616, -125.13969081765691
DataValue, 0.44, -0.00343153, -128.22268783895231
DataValue, 0.45, -0.0034269500000000002, -131.31209968047389
DataValue, 0.46, -0.00342155, -134.44199266414344
DataValue, 0.47000000000000003, -0.0034165000000000003, -137.56768622859653
DataValue, 0.48000000000000004, -0.00341098, -140.72202123729838
DataValue, 0.49000000000000005, -0.00340499, -143.90644319072891
DataValue, 0.5, -0.00339826, -147.13412157986733
DataValue, 0.51, -0.00339147, -150.37727003334837
DataValue, 0.52, -0.00338406, -153.66157810440714
DataValue, 0.53, -0.00337628, -156.97750186595897
DataValue, 0.54, -0.0033678700000000002, -160.33873041417868
DataValue, 0.55, -0.00335873, -163.75237068773021
DataValue, 0.56, -0.00334907, -167.21059876323878
DataValue, 0.57000000000000006, -0.0033387300000000003, -170.72359849403816
DataValue, 0.58000000000000007, -0.0033274900000000002, -174.3055576425474
DataValue, 0.59000000000000008, -0.00331527, -177.96438902412174
DataValue, 0.6, -0.0033023600000000003, -181.68824719291655
DataValue, 0.61, -0.00328831, -185.50562446971239
DataValue, 0.62, -0.00327328, -189.412454785414
DataValue, 0.63, -0.00325714, -193.42122229931781
DataValue, 0.64, -0.00323948, -197.56257177077805
DataValue, 0.65, -0.00322047, -201.83389381053075
DataValue, 0.66, -0.0031998400000000002, -206.26031301565078
DataValue, 0.67, -0.00317758, -210.85228381346812
DataValue, 0.68, -0.0031535, -215.633423180593
DataValue, 0.69000000000000006, -0.00312728, -220.63902176971683
DataValue, 0.70000000000000007, -0.00309932, -225.85599421808658
DataValue, 0.71000000000000008, -0.00306859, -231.37662574667846
DataValue, 0.72000000000000008, -0.00303549, -237.19399503869229
DataValue, 0.73, -0.0029989500000000002, -243.41852981876988
DataValue, 0.74, -0.00295949, -250.04308174719293
DataValue, 0.75, -0.00291686, -257.12581337465633
DataValue, 0.76, -0.0028702800000000002, -264.78252992739385
DataValue, 0.77, -0.00282043, -273.0080165081211
DataValue, 0.78, -0.00276645, -281.94979124871224
DataValue, 0.79, -0.00270744, -291.78855302425904
DataValue, 0.8, -0.00264371, -302.60505123481772
DataValue, 0.81, -0.00257495, -314.5692149362124
DataValue, 0.82000000000000006, -0.00250136, -327.82166501423228
DataValue, 0.83000000000000007, -0.00242158, -342.75142675443311
DataValue, 0.84000000000000008, -0.00233557, -359.65524475823895
DataValue, 0.85000000000000009, -0.0022436, -378.85541094669281
DataValue, 0.86, -0.00214491, -400.94922397676362
DataValue, 0.87, -0.00203888, -426.70485756886137
DataValue, 0.88, -0.00192598, -456.91024828918262
DataValue, 0.89, -0.00180547, -492.94643500030463
DataValue, 0.9, -0.0016772, -536.60863343668018
DataValue, 0.91, -0.0015405, -590.717299578059
DataValue, 0.92, -0.00139609, -658.983303368694
DataValue, 0.93, -0.00124308, -748.14171252051369
DataValue, 0.94000000000000006, -0.0010819900000000001, -868.76958197395538
DataValue, 0.95000000000000007, -0.00091404600000000006, -1039.3350006454818
DataValue, 0.96000000000000008, -0.000736599, -1303.2871345195963
DataValue, 0.97000000000000008, -0.00054948700000000009, -1765.2828911330021
DataValue, 0.98000000000000009, -0.00035398600000000004, -2768.4710694773239
DataValue, 0.9900000000000001, -0.000149135, -6638.2807523384863
DataValue, 1, 7.8231E-05, 12782.656491672098
DataValue, 1.01, 0.000297214, 3398.2248480892554
DataValue, 1.02, 0.00052299000000000009, 1950.3240979751045
DataValue, 1.03, 0.00075618600000000005, 1362.0987429018785
DataValue, 1.04, 0.00099777, 1042.3243833749261
DataValue, 1.05, 0.00124489, 843.4480154873122
DataValue, 1.06, 0.001498, 707.61014686248336
DataValue, 1.07, 0.00175691, 609.02379746259066
DataValue, 1.08, 0.00202143, 534.275240794883
DataValue, 1.09, 0.0022902, 475.94096585451052
DataValue, 1.1, 0.00256422, 428.98035269984638
DataValue, 1.1, 0.0025586800000000002, 429.90917191676959
DataValue, 1.09, 0.00227705, 478.68953250916758
DataValue, 1.08, 0.0020066, 538.22386125784919
DataValue, 1.07, 0.00174358, 613.67989997591167
DataValue, 1.06, 0.00148623, 713.2139709197096
DataValue, 1.05, 0.00123448, 850.56055991186577
DataValue, 1.04, 0.000989303, 1051.2451695789864
DataValue, 1.03, 0.0007493510000000001, 1374.5227536895259
DataValue, 1.02, 0.000515286, 1979.4832384345782
DataValue, 1.01, 0.00028770600000000004, 3510.5281085552606
DataValue, 1, 6.69258E-05, 14941.920754029088
DataValue, 0.9900000000000001, -0.000164398, -6021.9710702076673
DataValue, 0.98000000000000009, -0.000374257, -2618.5214972599042
DataValue, 0.97000000000000008, -0.00057488100000000007, -1687.3057206621891
DataValue, 0.96000000000000008, -0.00076781800000000008, -1250.2962941738797
DataValue, 0.95000000000000007, -0.00095197500000000009, -997.9253656871241
DataValue, 0.94000000000000006, -0.0011295300000000001, -832.20454525333537
DataValue, 0.93, -0.00129763, -716.69119856970019
DataValue, 0.92, -0.00145652, -631.64254524483022
DataValue, 0.91, -0.00160617, -566.565183013006
DataValue, 0.9, -0.0017468800000000001, -515.20424986261219
DataValue, 0.89, -0.0018789, -473.68140933524938
DataValue, 0.88, -0.00200232, -439.4901913780015
DataValue, 0.87, -0.00211757, -410.84828364587713
DataValue, 0.86, -0.00222457, -386.59156601050989
DataValue, 0.85000000000000009, -0.0023238, -365.78018762371983
DataValue, 0.84000000000000008, -0.0024155, -347.75408818050096
DataValue, 0.83000000000000007, -0.00250042, -331.94423336879407
DataValue, 0.82000000000000006, -0.00257807, -318.06739149829139
DataValue, 0.81, -0.0026506900000000003, -305.58081103410808
DataValue, 0.8, -0.00271712, -294.4293958308798
DataValue, 0.79, -0.00277774, -284.40386789260339
DataValue, 0.78, -0.00283341, -275.28666871367011
DataValue, 0.77, -0.00288471, -266.92457820716817
DataValue, 0.76, -0.00293113, -259.28566798470212
DataValue, 0.75, -0.00297431, -252.15932434749573
DataValue, 0.74, -0.00301383, -245.53475146242491
DataValue, 0.73, -0.00304957, -239.37801067035679
DataValue, 0.72000000000000008, -0.00308264, -233.56603430825527
DataValue, 0.71000000000000008, -0.00311259, -228.10585396727487
DataValue, 0.70000000000000007, -0.00313983, -222.94200641436004
DataValue, 0.69000000000000006, -0.0031653700000000002, -217.98399555186282
DataValue, 0.68, -0.0031883700000000003, -213.27512177068533
DataValue, 0.67, -0.00320958, -208.75005452426797
DataValue, 0.66, -0.0032291200000000003, -204.39005054008521
DataValue, 0.65, -0.00324677, -200.19896697333041
DataValue, 0.64, -0.00326377, -196.09224914745832
DataValue, 0.63, -0.00327898, -192.13291938346683
DataValue, 0.62, -0.00329306, -188.27473535252926
DataValue, 0.61, -0.0033064, -184.49068473263972
DataValue, 0.6, -0.00331846, -180.80675976205831
DataValue, 0.59000000000000008, -0.00332987, -177.18409427395065
DataValue, 0.58000000000000007, -0.00334023, -173.64073731449633
DataValue, 0.57000000000000006, -0.00335002, -170.14823792096766
DataValue, 0.56, -0.00335912, -166.71032889566317
DataValue, 0.55, -0.00336764, -163.3191196208621
DataValue, 0.54, -0.0033756800000000003, -159.96776945682055
DataValue, 0.53, -0.00338325, -156.65410478090595
DataValue, 0.52, -0.00339011, -153.38735321272762
DataValue, 0.51, -0.0033969300000000003, -150.13556358241118
DataValue, 0.5, -0.00340322, -146.91968194827251
DataValue, 0.49000000000000005, -0.00340897, -143.73843125636191
DataValue, 0.48000000000000004, -0.00341461, -140.57242261927425
DataValue, 0.47000000000000003, -0.0034200100000000002, -137.42649875292761
DataValue, 0.46, -0.00342503, -134.30539294546327
DataValue, 0.45, -0.0034299, -131.19916032537392
DataValue, 0.44, -0.0034343, -128.11926739073465
DataValue, 0.43, -0.00343843, -125.05707546758258
DataValue, 0.42000000000000004, -0.00344253, -122.00329408894041
DataValue, 0.41000000000000003, -0.0034465200000000002, -118.96057472464979
DataValue, 0.4, -0.00345033, -115.93093993907829
DataValue, 0.39, -0.00345398, -112.9132189532076
DataValue, 0.38, -0.00345741, -109.90886241435062
DataValue, 0.37, -0.0034604600000000003, -106.92220109465215
DataValue, 0.36000000000000004, -0.00346363, -103.93719883474853
DataValue, 0.35000000000000003, -0.00346651, -100.96610135265729
DataValue, 0.34, -0.00346926, -98.003608838772536
DataValue, 0.33, -0.00347189, -95.049094297342378
DataValue, 0.32, -0.00347447, -92.100377899363068
DataValue, 0.31, -0.00347683, -89.161678885651583
DataValue, 0.3, -0.00347918, -86.227214458579311
DataValue, 0.29000000000000004, -0.00348145, -83.298625572678063
DataValue, 0.28, -0.0034834600000000003, -80.379852215900286
DataValue, 0.27, -0.00348548, -77.464223005152817
DataValue, 0.26, -0.00348745, -74.553040186956082
DataValue, 0.25, -0.00348937, -71.646171085324866
DataValue, 0.24000000000000002, -0.0034911300000000003, -68.7456496893556
DataValue, 0.23, -0.0034928900000000002, -65.848051327124523
DataValue, 0.22, -0.00349447, -62.9566143077491
DataValue, 0.21000000000000002, -0.00349602, -60.068306245387618
DataValue, 0.2, -0.00349754, -57.183048657056105
DataValue, 0.19, -0.00349894, -54.302160082767926
DataValue, 0.18000000000000002, -0.0035001900000000002, -51.425779743385363
DataValue, 0.17, -0.0035015700000000003, -48.549650585308875
DataValue, 0.16, -0.00350316, -45.673049475330849
DataValue, 0.15, -0.0035046, -42.800890258517377
DataValue, 0.14, -0.00350478, -39.945445933838933
DataValue, 0.13, -0.00350594, -37.079927209250592
DataValue, 0.12000000000000001, -0.0035068300000000003, -34.218938471497047
DataValue, 0.11, -0.00350826, -31.354574632438872
DataValue, 0.1, -0.00350965, -28.492869659367745
DataValue, 0.090000000000000011, -0.0035107000000000003, -25.63591306577036
DataValue, 0.08, -0.0035102700000000002, -22.790269694353995
DataValue, 0.07, -0.00351146, -19.934728004875467
DataValue, 0.060000000000000005, -0.00351262, -17.081266974509056
DataValue, 0.05, -0.00351365, -14.230216441592077
DataValue, 0.04, -0.00351405, -11.382877306811229
DataValue, 0.030000000000000002, -0.00351448, -8.5361134506385028
DataValue, 0.02, -0.00351514, -5.6896738110004152
DataValue, 0.01, -0.00351563, -2.8444403990180991
DataValue, 0, -0.00351541, -0
DataValue, -0.01, -0.00351712, 2.8432353743972341
DataValue, -0.02, -0.00351753, 5.6858079390936256
DataValue, -0.030000000000000002, -0.00351802, 8.5275240049800747
DataValue, -0.04, -0.00351828, 11.369191764157486
DataValue, -0.05, -0.0035185900000000003, 14.210237623593541
DataValue, -0.060000000000000005, -0.0035189500000000003, 17.05054064422626
DataValue, -0.07, -0.00351931, 19.890262579880719
DataValue, -0.08, -0.00351963, 22.729661924690948
DataValue, -0.090000000000000011, -0.00351994, 25.56861764689171
DataValue, -0.1, -0.00352023, 28.407234754547289
DataValue, -0.11, -0.00352043, 31.246182994690987
DataValue, -0.12000000000000001, -0.0035208, 34.083162917518749
DataValue, -0.13, -0.00352103, 36.921014589480919
DataValue, -0.14, -0.00352128, 39.758269720101787
DataValue, -0.15, -0.00352157, 42.594638186945026
DataValue, -0.16, -0.00352179, 45.431442533484393
DataValue, -0.17, -0.0035219500000000003, 48.268714774485723
DataValue, -0.18000000000000002, -0.0035220200000000003, 51.107035167318756
DataValue, -0.19, -0.0035221700000000002, 53.944017466505024
DataValue, -0.2, -0.00352204, 56.785272171809517