﻿
SetupTitle, Solar Cell-Jinno
PrimitiveTest, I/V Sweep
TestParameter, Context.MainFrame, B1500A
TestParameter, Channel.UnitType, SMU, SMU
TestParameter, Channel.Unit, SMU1:HP, SMU2:HR
TestParameter, Channel.IName, I1, I2
TestParameter, Channel.VName, V1, V2
TestParameter, Channel.Mode, V, V
TestParameter, Channel.Func, VAR1, CONST
TestParameter, Channel.Index, 
TestParameter, Channel.Time, 
TestParameter, Measurement.Port.Unit, SMU1:HP, SMU2:HR
TestParameter, Measurement.Port.SeriesResistor, NONE, NONE
TestParameter, Measurement.Port.Filter, ON, ON
TestParameter, Measurement.Port.OutputVoltageComparison, 0, 0
TestParameter, Measurement.Primary.Locus, Double
TestParameter, Measurement.Primary.Scale, LINEAR
TestParameter, Measurement.Primary.Start, -0.2
TestParameter, Measurement.Primary.Stop, 1.1
TestParameter, Measurement.Primary.Step, 0.01
TestParameter, Measurement.Primary.Compliance, 0.01
TestParameter, Measurement.Primary.PowerCompliance, 1
TestParameter, Measurement.Aborting.Condition, SKIP AT ANY ABNORMAL
TestParameter, Measurement.PostOutput.Value, START
TestParameter, Measurement.PostOutput.Retention, OFF
TestParameter, Measurement.Bias.Source, -0.2, 0
TestParameter, Measurement.Bias.Compliance, 0.01, 0.1
TestParameter, Measurement.Monitor.Unit, SMU1:HP, SMU2:HR
TestParameter, Measurement.Monitor.Adc, HR ADC, HR ADC
TestParameter, Measurement.Monitor.Measurement, Compliance Side, Compliance Side
TestParameter, Measurement.Monitor.RangingMode, LIMITED, LIMITED
TestParameter, Measurement.Monitor.RangeBoundary, 1nA, 1nA
TestParameter, Measurement.Monitor.RangeRating, BY FULL RANGE, BY FULL RANGE
TestParameter, Measurement.Monitor.RangeRatingCoeff, 50, 50
TestParameter, Measurement.Timing.Hold, 1
TestParameter, Measurement.Timing.Delay, 0
TestParameter, Measurement.Adc.HighSpeed.Mode, AUTO
TestParameter, Measurement.Adc.HighSpeed.Coeff, 1
TestParameter, Measurement.Adc.HighResolution.AutoZero, OFF
TestParameter, Measurement.Adc.HighResolution.Mode, PLC
TestParameter, Measurement.Adc.HighResolution.Coeff, 8
TestParameter, Measurement.WaitTime.Source.Coeff, 1
TestParameter, Measurement.WaitTime.Source.Offset, 0
TestParameter, Measurement.WaitTime.Monitor.Coeff, 1
TestParameter, Measurement.WaitTime.Monitor.Offset, 0
TestParameter, Function.Analysis.Name, r1
TestParameter, Function.Analysis.Unit, ohm
TestParameter, Function.Analysis.Definition, V1/I1
TestParameter, Output.Graph.Enabled, true
TestParameter, Output.Graph.XAxis.Data, V1
TestParameter, Output.Graph.XAxis.Scale, Linear
TestParameter, Output.Graph.XAxis.Left, -0.2
TestParameter, Output.Graph.XAxis.Right, 1.2
TestParameter, Output.Graph.YAxis.Data, I1
TestParameter, Output.Graph.YAxis.Scale, Linear
TestParameter, Output.Graph.YAxis.Bottom, -0.1
TestParameter, Output.Graph.YAxis.Top, 0.1
TestParameter, Output.Graph.YAxis.Group, 
TestParameter, Output.List.Data, V1, I1, r1
TestParameter, AutoAnalysis.Interpolation, false
TestParameter, AutoAnalysis.Line1.Enabled, false
TestParameter, AutoAnalysis.Line1.Type, 1
TestParameter, AutoAnalysis.Line1.Fix, True
TestParameter, AutoAnalysis.Line1.YAxis, 0
TestParameter, AutoAnalysis.Line1.Point1.Type, 0
TestParameter, AutoAnalysis.Line1.Point1.XY.X, 
TestParameter, AutoAnalysis.Line1.Point1.XY.Y, 
TestParameter, AutoAnalysis.Line1.Point1.Data.Var, 
TestParameter, AutoAnalysis.Line1.Point1.Data.Condition, 
TestParameter, AutoAnalysis.Line1.Point1.Data.Start, false
TestParameter, AutoAnalysis.Line1.Point1.Data.StartVar, 
TestParameter, AutoAnalysis.Line1.Point1.Data.StartCondition, 
TestParameter, AutoAnalysis.Line1.Point2.Type, 0
TestParameter, AutoAnalysis.Line1.Point2.XY.X, 
TestParameter, AutoAnalysis.Line1.Point2.XY.Y, 
TestParameter, AutoAnalysis.Line1.Point2.Data.Var, 
TestParameter, AutoAnalysis.Line1.Point2.Data.Condition, 
TestParameter, AutoAnalysis.Line1.Point2.Data.Start, false
TestParameter, AutoAnalysis.Line1.Point2.Data.StartVar, 
TestParameter, AutoAnalysis.Line1.Point2.Data.StartCondition, 
TestParameter, AutoAnalysis.Line1.GradientExpr, 0
TestParameter, AutoAnalysis.Line2.Enabled, false
TestParameter, AutoAnalysis.Line2.Type, 1
TestParameter, AutoAnalysis.Line2.Fix, True
TestParameter, AutoAnalysis.Line2.YAxis, 0
TestParameter, AutoAnalysis.Line2.Point1.Type, 0
TestParameter, AutoAnalysis.Line2.Point1.XY.X, 
TestParameter, AutoAnalysis.Line2.Point1.XY.Y, 
TestParameter, AutoAnalysis.Line2.Point1.Data.Var, 
TestParameter, AutoAnalysis.Line2.Point1.Data.Condition, 
TestParameter, AutoAnalysis.Line2.Point1.Data.Start, false
TestParameter, AutoAnalysis.Line2.Point1.Data.StartVar, 
TestParameter, AutoAnalysis.Line2.Point1.Data.StartCondition, 
TestParameter, AutoAnalysis.Line2.Point2.Type, 0
TestParameter, AutoAnalysis.Line2.Point2.XY.X, 
TestParameter, AutoAnalysis.Line2.Point2.XY.Y, 
TestParameter, AutoAnalysis.Line2.Point2.Data.Var, 
TestParameter, AutoAnalysis.Line2.Point2.Data.Condition, 
TestParameter, AutoAnalysis.Line2.Point2.Data.Start, false
TestParameter, AutoAnalysis.Line2.Point2.Data.StartVar, 
TestParameter, AutoAnalysis.Line2.Point2.Data.StartCondition, 
TestParameter, AutoAnalysis.Line2.GradientExpr, 0
TestParameter, AutoAnalysis.Marker.Enabled, false
TestParameter, AutoAnalysis.Marker.Data.Var, 
TestParameter, AutoAnalysis.Marker.Data.Condition, 
TestParameter, AutoAnalysis.Marker.Data.Start, false
TestParameter, AutoAnalysis.Marker.Data.StartVar, 
TestParameter, AutoAnalysis.Marker.Data.StartCondition, 
MetaData, TestRecord.EntryPoint, true
MetaData, TestRecord.RecordTime, 12/07/2021 15:59:54
MetaData, TestRecord.TestTarget, 
MetaData, TestRecord.IterationIndex, 12
MetaData, TestRecord.Preservation, true
MetaData, TestRecord.Flag, 
MetaData, TestRecord.Remarks, 
MetaData, TestRecord.LinkKey, 68eca090-eeb8-4b92-8939-721d6f787160
AnalysisSetup, Analysis.Setup.Vector.Graph.Enabled, true
AnalysisSetup, Analysis.Setup.Vector.Graph.ActiveYAxis, 0
AnalysisSetup, Analysis.Setup.Vector.Graph.LeftYAxis, 0
AnalysisSetup, Analysis.Setup.Vector.Graph.RightYAxis, -1
AnalysisSetup, Analysis.Setup.Vector.Graph.XAxis.Name, V1
AnalysisSetup, Analysis.Setup.Vector.Graph.XAxis.GroupName, 
AnalysisSetup, Analysis.Setup.Vector.Graph.XAxis.Unit, V
AnalysisSetup, Analysis.Setup.Vector.Graph.XAxis.Scale, Linear
AnalysisSetup, Analysis.Setup.Vector.Graph.XAxis.Left, -0.2
AnalysisSetup, Analysis.Setup.Vector.Graph.XAxis.Right, 1.2
AnalysisSetup, Analysis.Setup.Vector.Graph.YAxis.Name, I1
AnalysisSetup, Analysis.Setup.Vector.Graph.YAxis.GroupName, 
AnalysisSetup, Analysis.Setup.Vector.Graph.YAxis.Unit, A
AnalysisSetup, Analysis.Setup.Vector.Graph.YAxis.Scale, Linear
AnalysisSetup, Analysis.Setup.Vector.Graph.YAxis.Bottom, -0.0038
AnalysisSetup, Analysis.Setup.Vector.Graph.YAxis.Top, 0.001
AnalysisSetup, Analysis.Setup.Vector.Graph.Operation.Marker.Enabled, false
AnalysisSetup, Analysis.Setup.Vector.Graph.Operation.Marker.Interpolation, false
AnalysisSetup, Analysis.Setup.Vector.Graph.Operation.Marker.Index, 0
AnalysisSetup, Analysis.Setup.Vector.Graph.Operation.Marker.Step, 0
AnalysisSetup, Analysis.Setup.Vector.Graph.Operation.Cursor.Enabled, false
AnalysisSetup, Analysis.Setup.Vector.Graph.Operation.Cursor.Active, true
AnalysisSetup, Analysis.Setup.Vector.Graph.Operation.Cursor.NormalX, 0.5
AnalysisSetup, Analysis.Setup.Vector.Graph.Operation.Cursor.NormalY, 0.79166666666666663
AnalysisSetup, Analysis.Setup.Vector.Graph.Operation.Line1.Enabled, false
AnalysisSetup, Analysis.Setup.Vector.Graph.Operation.Line1.Active, false
AnalysisSetup, Analysis.Setup.Vector.Graph.Operation.Line1.Fix, false
AnalysisSetup, Analysis.Setup.Vector.Graph.Operation.Line1.Type, 1
AnalysisSetup, Analysis.Setup.Vector.Graph.Operation.Line1.YAxisIndex, 0
AnalysisSetup, Analysis.Setup.Vector.Graph.Operation.Line1.LastIndex, -1
AnalysisSetup, Analysis.Setup.Vector.Graph.Operation.Line1.LastStep, -1
AnalysisSetup, Analysis.Setup.Vector.Graph.Operation.Line1.Cursor1.Enabled, false
AnalysisSetup, Analysis.Setup.Vector.Graph.Operation.Line1.Cursor1.Active, false
AnalysisSetup, Analysis.Setup.Vector.Graph.Operation.Line1.Cursor1.NormalX, 0.5
AnalysisSetup, Analysis.Setup.Vector.Graph.Operation.Line1.Cursor1.NormalY, 0.79166666666666663
AnalysisSetup, Analysis.Setup.Vector.Graph.Operation.Line1.Cursor2.Enabled, false
AnalysisSetup, Analysis.Setup.Vector.Graph.Operation.Line1.Cursor2.Active, false
AnalysisSetup, Analysis.Setup.Vector.Graph.Operation.Line1.Cursor2.NormalX, 0.5
AnalysisSetup, Analysis.Setup.Vector.Graph.Operation.Line1.Cursor2.NormalY, 0.79166666666666663
AnalysisSetup, Analysis.Setup.Vector.Graph.Operation.Line1.Gradient, 
AnalysisSetup, Analysis.Setup.Vector.Graph.Operation.Line2.Enabled, false
AnalysisSetup, Analysis.Setup.Vector.Graph.Operation.Line2.Active, false
AnalysisSetup, Analysis.Setup.Vector.Graph.Operation.Line2.Fix, false
AnalysisSetup, Analysis.Setup.Vector.Graph.Operation.Line2.Type, 1
AnalysisSetup, Analysis.Setup.Vector.Graph.Operation.Line2.YAxisIndex, 0
AnalysisSetup, Analysis.Setup.Vector.Graph.Operation.Line2.LastIndex, -1
AnalysisSetup, Analysis.Setup.Vector.Graph.Operation.Line2.LastStep, -1
AnalysisSetup, Analysis.Setup.Vector.Graph.Operation.Line2.Cursor1.Enabled, false
AnalysisSetup, Analysis.Setup.Vector.Graph.Operation.Line2.Cursor1.Active, false
AnalysisSetup, Analysis.Setup.Vector.Graph.Operation.Line2.Cursor1.NormalX, 0.5
AnalysisSetup, Analysis.Setup.Vector.Graph.Operation.Line2.Cursor1.NormalY, 0.79166666666666663
AnalysisSetup, Analysis.Setup.Vector.Graph.Operation.Line2.Cursor2.Enabled, false
AnalysisSetup, Analysis.Setup.Vector.Graph.Operation.Line2.Cursor2.Active, false
AnalysisSetup, Analysis.Setup.Vector.Graph.Operation.Line2.Cursor2.NormalX, 0.5
AnalysisSetup, Analysis.Setup.Vector.Graph.Operation.Line2.Cursor2.NormalY, 0.79166666666666663
AnalysisSetup, Analysis.Setup.Vector.Graph.Operation.Line2.Gradient, 
AnalysisSetup, Analysis.Setup.Vector.Graph.Preference.BackgroundColor, -1
AnalysisSetup, Analysis.Setup.Vector.Graph.Preference.TextColor, -16777216
AnalysisSetup, Analysis.Setup.Vector.Graph.Preference.GridColor, -3618616
AnalysisSetup, Analysis.Setup.Vector.Graph.Preference.LineColor, -65336
AnalysisSetup, Analysis.Setup.Vector.Graph.Preference.Plots.Y1.Visible, true
AnalysisSetup, Analysis.Setup.Vector.Graph.Preference.Plots.Y1.PlotColor, -16777036
AnalysisSetup, Analysis.Setup.Vector.Graph.Preference.Plots.Y1.Thickness, 1
AnalysisSetup, Analysis.Setup.Vector.Graph.Preference.Plots.Y2.Visible, true
AnalysisSetup, Analysis.Setup.Vector.Graph.Preference.Plots.Y2.PlotColor, -39936
AnalysisSetup, Analysis.Setup.Vector.Graph.Preference.Plots.Y2.Thickness, 1
AnalysisSetup, Analysis.Setup.Vector.Graph.Preference.Plots.Y3.Visible, true
AnalysisSetup, Analysis.Setup.Vector.Graph.Preference.Plots.Y3.PlotColor, -16731136
AnalysisSetup, Analysis.Setup.Vector.Graph.Preference.Plots.Y3.Thickness, 1
AnalysisSetup, Analysis.Setup.Vector.Graph.Preference.Plots.Y4.Visible, true
AnalysisSetup, Analysis.Setup.Vector.Graph.Preference.Plots.Y4.PlotColor, -8892376
AnalysisSetup, Analysis.Setup.Vector.Graph.Preference.Plots.Y4.Thickness, 1
AnalysisSetup, Analysis.Setup.Vector.Graph.Preference.Plots.Y5.Visible, true
AnalysisSetup, Analysis.Setup.Vector.Graph.Preference.Plots.Y5.PlotColor, -65536
AnalysisSetup, Analysis.Setup.Vector.Graph.Preference.Plots.Y5.Thickness, 1
AnalysisSetup, Analysis.Setup.Vector.Graph.Preference.Plots.Y6.Visible, true
AnalysisSetup, Analysis.Setup.Vector.Graph.Preference.Plots.Y6.PlotColor, -14336
AnalysisSetup, Analysis.Setup.Vector.Graph.Preference.Plots.Y6.Thickness, 1
AnalysisSetup, Analysis.Setup.Vector.Graph.Preference.Plots.Y7.Visible, true
AnalysisSetup, Analysis.Setup.Vector.Graph.Preference.Plots.Y7.PlotColor, -6946586
AnalysisSetup, Analysis.Setup.Vector.Graph.Preference.Plots.Y7.Thickness, 1
AnalysisSetup, Analysis.Setup.Vector.Graph.Preference.Plots.Y8.Visible, true
AnalysisSetup, Analysis.Setup.Vector.Graph.Preference.Plots.Y8.PlotColor, -16733546
AnalysisSetup, Analysis.Setup.Vector.Graph.Preference.Plots.Y8.Thickness, 1
AnalysisSetup, Analysis.Setup.Vector.Graph.Preference.Text.AxisTitle.FontName, Tahoma
AnalysisSetup, Analysis.Setup.Vector.Graph.Preference.Text.AxisTitle.RelativeSize, Medium
AnalysisSetup, Analysis.Setup.Vector.Graph.Preference.Text.AxisTitle.Size, 7
AnalysisSetup, Analysis.Setup.Vector.Graph.Preference.Text.ScaleText.FontName, Tahoma
AnalysisSetup, Analysis.Setup.Vector.Graph.Preference.Text.ScaleText.RelativeSize, Medium
AnalysisSetup, Analysis.Setup.Vector.Graph.Preference.Text.ScaleText.Size, 7
AnalysisSetup, Analysis.Setup.Vector.Graph.Preference.Text.Legend.FontName, Tahoma
AnalysisSetup, Analysis.Setup.Vector.Graph.Preference.Text.Legend.RelativeSize, Medium
AnalysisSetup, Analysis.Setup.Vector.Graph.Preference.Text.Legend.Size, 7
AnalysisSetup, Analysis.Setup.Vector.Graph.Preference.Scale.LogTickedDecadeCount, 6
AnalysisSetup, Analysis.Setup.Vector.Graph.Preference.LogoVisible, true
AnalysisSetup, Analysis.Setup.Vector.Graph.Preference.GridVisible, true
AnalysisSetup, Analysis.Setup.Vector.Graph.Preference.SetupSummaryVisible, false
AnalysisSetup, Analysis.Setup.Vector.Graph.Notes, V1: [ -200 m, 1.1 ] V / 131; I1: 10 mA; 1 W	V2: 0 V; I2: 100 mA
AnalysisSetup, Analysis.Setup.Vector.List.Datum.Name, V1, I1, r1
AnalysisSetup, Analysis.Setup.Vector.List.Datum.Unit, V, A, ohm
AnalysisSetup, Analysis.Setup.Preference.GraphVisible, true
AnalysisSetup, Analysis.Setup.Preference.ListVisible, true
AnalysisSetup, Analysis.Setup.Preference.ScalarVisible, true
AnalysisSetup, Analysis.Setup.Title, Solar Cell-Jinno
Dimension1, 262, 262, 262
Dimension2, 1, 1, 1
DataName, V1, I1, r1
DataValue, -0.2, -0.00324096, 61.710110584518169
DataValue, -0.19, -0.00322405, 58.932088522200338
DataValue, -0.18000000000000002, -0.00320893, 56.093464176532372
DataValue, -0.17, -0.00319574, 53.195816931289784
DataValue, -0.16, -0.0031827, 50.2717818204669
DataValue, -0.15, -0.00317088, 47.305479866787763
DataValue, -0.14, -0.0031595300000000002, 44.310387937446393
DataValue, -0.13, -0.00314831, 41.291994752740358
DataValue, -0.12000000000000001, -0.00313706, 38.252376428885647
DataValue, -0.11, -0.0031268, 35.179736471792246
DataValue, -0.1, -0.00311692, 32.082953685048061
DataValue, -0.090000000000000011, -0.0031066, 28.970578767784719
DataValue, -0.08, -0.00309674, 25.833618579538481
DataValue, -0.07, -0.00308676, 22.677500032396431
DataValue, -0.060000000000000005, -0.00307703, 19.499322398546653
DataValue, -0.05, -0.00306742, 16.300343611243328
DataValue, -0.04, -0.00305786, 13.081043605658859
DataValue, -0.030000000000000002, -0.00304844, 9.8410990539423455
DataValue, -0.02, -0.00303879, 6.5815670052882895
DataValue, -0.01, -0.00302891, 3.3015177076902251
DataValue, 0, -0.0030191000000000003, -0
DataValue, 0.01, -0.0030088100000000002, -3.3235731069758474
DataValue, 0.02, -0.00299861, -6.6697569874041642
DataValue, 0.030000000000000002, -0.00298891, -10.037103827147691
DataValue, 0.04, -0.00297801, -13.431788341879308
DataValue, 0.05, -0.00296759, -16.848688666561081
DataValue, 0.060000000000000005, -0.00295764, -20.286444597719804
DataValue, 0.07, -0.00294611, -23.76014473322449
DataValue, 0.08, -0.00293557, -27.251947662634514
DataValue, 0.090000000000000011, -0.00292437, -30.775859415874194
DataValue, 0.1, -0.00291319, -34.326631630617982
DataValue, 0.11, -0.00290093, -37.91887429203738
DataValue, 0.12000000000000001, -0.0028886, -41.542615800041546
DataValue, 0.13, -0.0028771400000000003, -45.183758871657268
DataValue, 0.14, -0.00286453, -48.873637210990985
DataValue, 0.15, -0.00285174, -52.599465589429606
DataValue, 0.16, -0.00283737, -56.390248716240741
DataValue, 0.17, -0.00282458, -60.185939148475171
DataValue, 0.18000000000000002, -0.00281092, -64.035973987164354
DataValue, 0.19, -0.00279671, -67.93696879547754
DataValue, 0.2, -0.0027829400000000002, -71.8664434015825
DataValue, 0.21000000000000002, -0.00276809, -75.8645853277892
DataValue, 0.22, -0.0027542400000000002, -79.876844428953177
DataValue, 0.23, -0.00273872, -83.980837763626809
DataValue, 0.24000000000000002, -0.00272381, -88.111872707714568
DataValue, 0.25, -0.00270734, -92.341560350750186
DataValue, 0.26, -0.00269164, -96.5953842267168
DataValue, 0.27, -0.00267476, -100.94363606454412
DataValue, 0.28, -0.002657, -105.38200978547235
DataValue, 0.29000000000000004, -0.00263944, -109.87179098596674
DataValue, 0.3, -0.00262011, -114.49900958356709
DataValue, 0.31, -0.00260192, -119.14278686508423
DataValue, 0.32, -0.0025808800000000002, -123.98871702675056
DataValue, 0.33, -0.0025595600000000002, -128.92840957039491
DataValue, 0.34, -0.00253888, -133.91731787244771
DataValue, 0.35000000000000003, -0.0025169800000000003, -139.05553480758687
DataValue, 0.36000000000000004, -0.00249371, -144.36321785612603
DataValue, 0.37, -0.00247187, -149.68424714891964
DataValue, 0.38, -0.00244881, -155.17741270249633
DataValue, 0.39, -0.0024253, -160.80484888467407
DataValue, 0.4, -0.00240103, -166.59516957305823
DataValue, 0.41000000000000003, -0.00237584, -172.57054347094081
DataValue, 0.42000000000000004, -0.0023485900000000002, -178.83070267692531
DataValue, 0.43, -0.00232134, -185.2378367666951
DataValue, 0.44, -0.00229582, -191.65265569600405
DataValue, 0.45, -0.00227121, -198.13227310552526
DataValue, 0.46, -0.0022397800000000002, -205.37731384332389
DataValue, 0.47000000000000003, -0.0022102, -212.65043887431006
DataValue, 0.48000000000000004, -0.00218332, -219.84867083157764
DataValue, 0.49000000000000005, -0.0021504700000000002, -227.85716610787409
DataValue, 0.5, -0.00211802, -236.06953664271347
DataValue, 0.51, -0.00208403, -244.71816624520758
DataValue, 0.52, -0.00205133, -253.4940745760068
DataValue, 0.53, -0.00201139, -263.49937108168979
DataValue, 0.54, -0.00197677, -273.17290327149846
DataValue, 0.55, -0.00194348, -282.99750962191536
DataValue, 0.56, -0.00190923, -293.31196346170969
DataValue, 0.57000000000000006, -0.00188185, -302.89342933815129
DataValue, 0.58000000000000007, -0.0018428700000000001, -314.72648640435841
DataValue, 0.59000000000000008, -0.00180193, -327.42670359003961
DataValue, 0.6, -0.00176215, -340.49314757540503
DataValue, 0.61, -0.0017172, -355.22944327975773
DataValue, 0.62, -0.00167743, -369.61303899417561
DataValue, 0.63, -0.00163429, -385.48849959309547
DataValue, 0.64, -0.00158716, -403.23596864840346
DataValue, 0.65, -0.0015401500000000001, -422.0368145959809
DataValue, 0.66, -0.00148428, -444.66003718974861
DataValue, 0.67, -0.00144038, -465.15502853413687
DataValue, 0.68, -0.00138737, -490.13601274353636
DataValue, 0.69000000000000006, -0.0013356800000000001, -516.59080019166265
DataValue, 0.70000000000000007, -0.00128351, -545.37946724217193
DataValue, 0.71000000000000008, -0.0012294, -577.51748820562875
DataValue, 0.72000000000000008, -0.00117522, -612.65124827691841
DataValue, 0.73, -0.00111459, -654.94935357395991
DataValue, 0.74, -0.00105379, -702.2271989675362
DataValue, 0.75, -0.000998036, -751.475898664978
DataValue, 0.76, -0.000937414, -810.74103864461165
DataValue, 0.77, -0.000866406, -888.72884075133368
DataValue, 0.78, -0.000795104, -981.00374290658829
DataValue, 0.79, -0.000722465, -1093.47857681687
DataValue, 0.8, -0.000653283, -1224.5841388800873
DataValue, 0.81, -0.000581012, -1394.1192264531542
DataValue, 0.82000000000000006, -0.000505916, -1620.8224290198373
DataValue, 0.83000000000000007, -0.00042066, -1973.08990633766
DataValue, 0.84000000000000008, -0.000317975, -2641.7171161254819
DataValue, 0.85000000000000009, -0.00020677600000000001, -4110.7285178163811
DataValue, 0.86, -7.48266E-05, -11493.239035316317
DataValue, 0.87, 0.009999860000000001, 87.001218017052224
DataValue, 0.88, , 
DataValue, 0.89, , 
DataValue, 0.9, , 
DataValue, 0.91, , 
DataValue, 0.92, , 
DataValue, 0.93, , 
DataValue, 0.94000000000000006, , 
DataValue, 0.95000000000000007, , 
DataValue, 0.96000000000000008, , 
DataValue, 0.97000000000000008, , 
DataValue, 0.98000000000000009, , 
DataValue, 0.9900000000000001, , 
DataValue, 1, , 
DataValue, 1.01, , 
DataValue, 1.02, , 
DataValue, 1.03, , 
DataValue, 1.04, , 
DataValue, 1.05, , 
DataValue, 1.06, , 
DataValue, 1.07, , 
DataValue, 1.08, , 
DataValue, 1.09, , 
DataValue, 1.1, , 
DataValue, 1.1, , 
DataValue, 1.09, , 
DataValue, 1.08, , 
DataValue, 1.07, , 
DataValue, 1.06, , 
DataValue, 1.05, , 
DataValue, 1.04, , 
DataValue, 1.03, , 
DataValue, 1.02, , 
DataValue, 1.01, , 
DataValue, 1, , 
DataValue, 0.9900000000000001, , 
DataValue, 0.98000000000000009, , 
DataValue, 0.97000000000000008, , 
DataValue, 0.96000000000000008, , 
DataValue, 0.95000000000000007, , 
DataValue, 0.94000000000000006, , 
DataValue, 0.93, , 
DataValue, 0.92, , 
DataValue, 0.91, , 
DataValue, 0.9, , 
DataValue, 0.89, , 
DataValue, 0.88, , 
DataValue, 0.87, , 
DataValue, 0.86, , 
DataValue, 0.85000000000000009, , 
DataValue, 0.84000000000000008, , 
DataValue, 0.83000000000000007, , 
DataValue, 0.82000000000000006, , 
DataValue, 0.81, , 
DataValue, 0.8, , 
DataValue, 0.79, , 
DataValue, 0.78, , 
DataValue, 0.77, , 
DataValue, 0.76, , 
DataValue, 0.75, , 
DataValue, 0.74, , 
DataValue, 0.73, , 
DataValue, 0.72000000000000008, , 
DataValue, 0.71000000000000008, , 
DataValue, 0.70000000000000007, , 
DataValue, 0.69000000000000006, , 
DataValue, 0.68, , 
DataValue, 0.67, , 
DataValue, 0.66, , 
DataValue, 0.65, , 
DataValue, 0.64, , 
DataValue, 0.63, , 
DataValue, 0.62, , 
DataValue, 0.61, , 
DataValue, 0.6, , 
DataValue, 0.59000000000000008, , 
DataValue, 0.58000000000000007, , 
DataValue, 0.57000000000000006, , 
DataValue, 0.56, , 
DataValue, 0.55, , 
DataValue, 0.54, , 
DataValue, 0.53, , 
DataValue, 0.52, , 
DataValue, 0.51, , 
DataValue, 0.5, , 
DataValue, 0.49000000000000005, , 
DataValue, 0.48000000000000004, , 
DataValue, 0.47000000000000003, , 
DataValue, 0.46, , 
DataValue, 0.45, , 
DataValue, 0.44, , 
DataValue, 0.43, , 
DataValue, 0.42000000000000004, , 
DataValue, 0.41000000000000003, , 
DataValue, 0.4, , 
DataValue, 0.39, , 
DataValue, 0.38, , 
DataValue, 0.37, , 
DataValue, 0.36000000000000004, , 
DataValue, 0.35000000000000003, , 
DataValue, 0.34, , 
DataValue, 0.33, , 
DataValue, 0.32, , 
DataValue, 0.31, , 
DataValue, 0.3, , 
DataValue, 0.29000000000000004, , 
DataValue, 0.28, , 
DataValue, 0.27, , 
DataValue, 0.26, , 
DataValue, 0.25, , 
DataValue, 0.24000000000000002, , 
DataValue, 0.23, , 
DataValue, 0.22, , 
DataValue, 0.21000000000000002, , 
DataValue, 0.2, , 
DataValue, 0.19, , 
DataValue, 0.18000000000000002, , 
DataValue, 0.17, , 
DataValue, 0.16, , 
DataValue, 0.15, , 
DataValue, 0.14, , 
DataValue, 0.13, , 
DataValue, 0.12000000000000001, , 
DataValue, 0.11, , 
DataValue, 0.1, , 
DataValue, 0.090000000000000011, , 
DataValue, 0.08, , 
DataValue, 0.07, , 
DataValue, 0.060000000000000005, , 
DataValue, 0.05, , 
DataValue, 0.04, , 
DataValue, 0.030000000000000002, , 
DataValue, 0.02, , 
DataValue, 0.01, , 
DataValue, 0, , 
DataValue, -0.01, , 
DataValue, -0.02, , 
DataValue, -0.030000000000000002, , 
DataValue, -0.04, , 
DataValue, -0.05, , 
DataValue, -0.060000000000000005, , 
DataValue, -0.07, , 
DataValue, -0.08, , 
DataValue, -0.090000000000000011, , 
DataValue, -0.1, , 
DataValue, -0.11, , 
DataValue, -0.12000000000000001, , 
DataValue, -0.13, , 
DataValue, -0.14, , 
DataValue, -0.15, , 
DataValue, -0.16, , 
DataValue, -0.17, , 
DataValue, -0.18000000000000002, , 
DataValue, -0.19, , 
DataValue, -0.2, , 