[contents]
count=6
Name=,C:\Zhenchen\Ammox test 2021\0506\0506-1-1.5.D
1=,INT EIC Ion  17.00 (16.70 to 17.70): 0506-1-1.5.D\data.ms
2=,INT EIC Ion  32.00 (31.70 to 32.70): 0506-1-1.5.D\data.ms
3=,INT EIC Ion  28.00 (27.70 to 28.70): 0506-1-1.5.D\data.ms
4=,INT EIC Ion  44.00 (43.70 to 44.70): 0506-1-1.5.D\data.ms
5=,INT EIC Ion  30.00 (29.70 to 30.70): 0506-1-1.5.D\data.ms
6=,INT EIC Ion  40.00 (39.70 to 40.70): 0506-1-1.5.D\data.ms
[INT EIC Ion  17.00 (16.70 to 17.70): 0506-1-1.5.D\data.ms]
Time=,Thu May 06 17:58:01 2021
Header=,"Peak","R.T.","First","Max","Last","PK  TY","Height","Area","Pct Max","Pct Total"
1=,  1,  1.986, 2317,2347,2392,"  M3",  32746,   460344,100.00,100.000
[INT EIC Ion  32.00 (31.70 to 32.70): 0506-1-1.5.D\data.ms]
Time=,Thu May 06 17:58:01 2021
Header=,"Peak","R.T.","First","Max","Last","PK  TY","Height","Area","Pct Max","Pct Total"
1=,  1,  1.894, 2200,2234,2290,"  M3", 194784,  2400252,100.00,100.000
[INT EIC Ion  28.00 (27.70 to 28.70): 0506-1-1.5.D\data.ms]
Time=,Thu May 06 17:58:01 2021
Header=,"Peak","R.T.","First","Max","Last","PK  TY","Height","Area","Pct Max","Pct Total"
1=,  1,  1.886, 2193,2224,2263,"  M3", 114347,  1337933,100.00,100.000
[INT EIC Ion  44.00 (43.70 to 44.70): 0506-1-1.5.D\data.ms]
Time=,Thu May 06 17:58:01 2021
Header=,"Peak","R.T.","First","Max","Last","PK  TY","Height","Area","Pct Max","Pct Total"
1=,  1,  1.968, 2283,2325,2399,"  M2", 296640,  3563315,100.00,100.000
[INT EIC Ion  30.00 (29.70 to 30.70): 0506-1-1.5.D\data.ms]
Time=,Thu May 06 17:58:01 2021
Header=,"Peak","R.T.","First","Max","Last","PK  TY","Height","Area","Pct Max","Pct Total"
1=,  1,  1.895, 2208,2234,2267,"  M3",    363,     1868,100.00,100.000
[INT EIC Ion  40.00 (39.70 to 40.70): 0506-1-1.5.D\data.ms]
Time=,Thu May 06 17:58:01 2021
Header=,"Peak","R.T.","First","Max","Last","PK  TY","Height","Area","Pct Max","Pct Total"
1=,  1,  1.897, 2198,2237,2338,"  M4", 560062,  6986098,100.00,100.000
